ISO-10303-21;
HEADER;
FILE_DESCRIPTION (( 'STEP AP214' ),
    '1' );
FILE_NAME ('User Library-DSK-3R3H.STEP',
    '2022-02-12T15:39:11',
    ( '' ),
    ( '' ),
    'SwSTEP 2.0',
    'SolidWorks 2021',
    '' );
FILE_SCHEMA (( 'AUTOMOTIVE_DESIGN' ));
ENDSEC;

DATA;
#1 = LINE ( 'NONE', #914, #183 ) ;
#2 = VERTEX_POINT ( 'NONE', #108 ) ;
#3 = ORIENTED_EDGE ( 'NONE', *, *, #72, .F. ) ;
#4 = DIRECTION ( 'NONE',  ( 0.0000000000000000000, -1.000000000000000000, 0.0000000000000000000 ) ) ;
#5 = PLANE ( 'NONE',  #451 ) ;
#6 = EDGE_CURVE ( 'NONE', #227, #611, #537, .T. ) ;
#7 = CARTESIAN_POINT ( 'NONE',  ( -3.000000000000000000, 2.550000000000000266, 41.65050561346442493 ) ) ;
#8 = AXIS2_PLACEMENT_3D ( 'NONE', #39, #154, #339 ) ;
#9 = VERTEX_POINT ( 'NONE', #79 ) ;
#10 = COLOUR_RGB ( '',0.0000000000000000000, 0.0000000000000000000, 0.0000000000000000000 ) ;
#11 = ORIENTED_EDGE ( 'NONE', *, *, #1053, .F. ) ;
#12 = LINE ( 'NONE', #739, #865 ) ;
#13 = CARTESIAN_POINT ( 'NONE',  ( -3.500000000000000000, 0.2499999999999892586, 38.37445384438259310 ) ) ;
#14 = ADVANCED_FACE ( 'NONE', ( #263 ), #745, .T. ) ;
#15 = EDGE_LOOP ( 'NONE', ( #147, #303, #58, #782 ) ) ;
#16 = PLANE ( 'NONE',  #528 ) ;
#17 = LINE ( 'NONE', #659, #453 ) ;
#18 = SURFACE_SIDE_STYLE ('',( #736 ) ) ;
#19 = DIRECTION ( 'NONE',  ( -1.000000000000000000, 0.0000000000000000000, -0.0000000000000000000 ) ) ;
#20 = UNCERTAINTY_MEASURE_WITH_UNIT (LENGTH_MEASURE( 1.000000000000000082E-05 ), #510, 'distance_accuracy_value', 'NONE');
#21 = VERTEX_POINT ( 'NONE', #367 ) ;
#22 = EDGE_CURVE ( 'NONE', #575, #752, #83, .T. ) ;
#23 = PLANE ( 'NONE',  #257 ) ;
#24 = LINE ( 'NONE', #282, #1077 ) ;
#25 = FACE_OUTER_BOUND ( 'NONE', #152, .T. ) ;
#26 = VECTOR ( 'NONE', #853, 1000.000000000000000 ) ;
#27 = AXIS2_PLACEMENT_3D ( 'NONE', #817, #359, #71 ) ;
#28 = ORIENTED_EDGE ( 'NONE', *, *, #571, .T. ) ;
#29 = AXIS2_PLACEMENT_3D ( 'NONE', #1084, #923, #917 ) ;
#30 = PRESENTATION_LAYER_ASSIGNMENT (  '', '', ( #413 ) ) ;
#31 = ADVANCED_FACE ( 'NONE', ( #631 ), #824, .T. ) ;
#32 =( NAMED_UNIT ( * ) PLANE_ANGLE_UNIT ( ) SI_UNIT ( $, .RADIAN. ) );
#33 = DIRECTION ( 'NONE',  ( 1.000000000000000000, 0.0000000000000000000, 0.0000000000000000000 ) ) ;
#34 = ORIENTED_EDGE ( 'NONE', *, *, #356, .F. ) ;
#35 = EDGE_CURVE ( 'NONE', #954, #1068, #1087, .T. ) ;
#36 = DIRECTION ( 'NONE',  ( -0.0000000000000000000, 1.000000000000000000, 1.245649483684703253E-16 ) ) ;
#37 = EDGE_LOOP ( 'NONE', ( #312, #177, #551, #641 ) ) ;
#38 = DIRECTION ( 'NONE',  ( 0.0000000000000000000, -0.8066622230140080285, -0.5910127392553384817 ) ) ;
#39 = CARTESIAN_POINT ( 'NONE',  ( 0.5000000000000000000, 0.0000000000000000000, 0.0000000000000000000 ) ) ;
#40 = EDGE_CURVE ( 'NONE', #74, #354, #60, .T. ) ;
#41 = ORIENTED_EDGE ( 'NONE', *, *, #1015, .T. ) ;
#42 = CARTESIAN_POINT ( 'NONE',  ( -3.500000000000000000, -9.525252223139424528E-15, 33.26733949932340551 ) ) ;
#43 = AXIS2_PLACEMENT_3D ( 'NONE', #984, #975, #735 ) ;
#44 = AXIS2_PLACEMENT_3D ( 'NONE', #1148, #456, #877 ) ;
#45 = CIRCLE ( 'NONE', #833, 2.899999999999999911 ) ;
#46 = DIRECTION ( 'NONE',  ( 0.0000000000000000000, 0.0000000000000000000, -1.000000000000000000 ) ) ;
#47 = EDGE_LOOP ( 'NONE', ( #757, #644, #921, #622 ) ) ;
#48 = EDGE_CURVE ( 'NONE', #526, #786, #1163, .T. ) ;
#49 = ORIENTED_EDGE ( 'NONE', *, *, #35, .T. ) ;
#50 = DIRECTION ( 'NONE',  ( -1.000000000000000000, 0.0000000000000000000, -0.0000000000000000000 ) ) ;
#51 = LINE ( 'NONE', #425, #411 ) ;
#52 = ORIENTED_EDGE ( 'NONE', *, *, #319, .F. ) ;
#53 = VERTEX_POINT ( 'NONE', #997 ) ;
#54 = CARTESIAN_POINT ( 'NONE',  ( -1.500000000000000000, 2.149999999999999911, 37.25050561346442635 ) ) ;
#55 = FACE_OUTER_BOUND ( 'NONE', #246, .T. ) ;
#56 = DIRECTION ( 'NONE',  ( 0.0000000000000000000, 0.0000000000000000000, -1.000000000000000000 ) ) ;
#57 = ORIENTED_EDGE ( 'NONE', *, *, #1114, .T. ) ;
#58 = ORIENTED_EDGE ( 'NONE', *, *, #424, .T. ) ;
#59 = FACE_OUTER_BOUND ( 'NONE', #1177, .T. ) ;
#60 = CIRCLE ( 'NONE', #105, 2.000000000000001776 ) ;
#61 = CIRCLE ( 'NONE', #158, 3.400000000000000355 ) ;
#62 = VECTOR ( 'NONE', #331, 1000.000000000000000 ) ;
#63 = VECTOR ( 'NONE', #957, 1000.000000000000000 ) ;
#64 = CARTESIAN_POINT ( 'NONE',  ( -1.500000000000000000, 2.149999999999999911, 39.65050561346442493 ) ) ;
#65 = LINE ( 'NONE', #542, #1167 ) ;
#66 = ORIENTED_EDGE ( 'NONE', *, *, #380, .T. ) ;
#67 = ORIENTED_EDGE ( 'NONE', *, *, #494, .T. ) ;
#68 = PRODUCT_DEFINITION_SHAPE ( 'NONE', 'NONE',  #628 ) ;
#69 = FACE_OUTER_BOUND ( 'NONE', #422, .T. ) ;
#70 = CARTESIAN_POINT ( 'NONE',  ( 0.0000000000000000000, 0.0000000000000000000, 0.0000000000000000000 ) ) ;
#71 = DIRECTION ( 'NONE',  ( 0.0000000000000000000, 0.0000000000000000000, -1.000000000000000000 ) ) ;
#72 = EDGE_CURVE ( 'NONE', #597, #693, #910, .T. ) ;
#73 = FACE_OUTER_BOUND ( 'NONE', #1078, .T. ) ;
#74 = VERTEX_POINT ( 'NONE', #1093 ) ;
#75 = ORIENTED_EDGE ( 'NONE', *, *, #1122, .F. ) ;
#76 = CARTESIAN_POINT ( 'NONE',  ( -3.000000000000000000, 2.649999999999999911, 36.25050561346442635 ) ) ;
#77 = CARTESIAN_POINT ( 'NONE',  ( -1.499999999999999556, 0.3999999999999893641, 40.65050561346443203 ) ) ;
#78 = DIRECTION ( 'NONE',  ( 0.0000000000000000000, 0.0000000000000000000, -1.000000000000000000 ) ) ;
#79 = CARTESIAN_POINT ( 'NONE',  ( 0.0000000000000000000, 0.1500000000000000500, 42.00050561346442635 ) ) ;
#80 = EDGE_CURVE ( 'NONE', #597, #899, #284, .T. ) ;
#81 = ORIENTED_EDGE ( 'NONE', *, *, #529, .T. ) ;
#82 = CARTESIAN_POINT ( 'NONE',  ( -3.000000000000000000, 2.799999999999999822, 36.25050561346442635 ) ) ;
#83 = CIRCLE ( 'NONE', #471, 2.399999999999999467 ) ;
#84 = AXIS2_PLACEMENT_3D ( 'NONE', #671, #933, #1027 ) ;
#85 = DIRECTION ( 'NONE',  ( 1.000000000000000000, 0.0000000000000000000, 0.0000000000000000000 ) ) ;
#86 = AXIS2_PLACEMENT_3D ( 'NONE', #734, #97, #546 ) ;
#87 = PLANE ( 'NONE',  #760 ) ;
#88 = AXIS2_PLACEMENT_3D ( 'NONE', #440, #262, #245 ) ;
#89 = DIRECTION ( 'NONE',  ( 1.000000000000000000, -0.0000000000000000000, 0.0000000000000000000 ) ) ;
#90 = VECTOR ( 'NONE', #1086, 1000.000000000000000 ) ;
#91 = ORIENTED_EDGE ( 'NONE', *, *, #225, .T. ) ;
#92 = LINE ( 'NONE', #638, #1020 ) ;
#93 = EDGE_CURVE ( 'NONE', #565, #794, #482, .T. ) ;
#94 = PLANE ( 'NONE',  #864 ) ;
#95 = CARTESIAN_POINT ( 'NONE',  ( -3.500000000000000000, 0.1499999999999906963, 33.19128773024156231 ) ) ;
#96 = ORIENTED_EDGE ( 'NONE', *, *, #601, .F. ) ;
#97 = DIRECTION ( 'NONE',  ( 1.000000000000000000, -0.0000000000000000000, 0.0000000000000000000 ) ) ;
#98 = EDGE_CURVE ( 'NONE', #899, #954, #217, .T. ) ;
#99 = DIRECTION ( 'NONE',  ( 0.0000000000000000000, -0.0000000000000000000, 1.000000000000000000 ) ) ;
#100 = CYLINDRICAL_SURFACE ( 'NONE', #816, 2.399999999999999467 ) ;
#101 = ORIENTED_EDGE ( 'NONE', *, *, #1106, .F. ) ;
#102 = EDGE_LOOP ( 'NONE', ( #242, #1076, #825, #66, #971 ) ) ;
#103 = DIRECTION ( 'NONE',  ( 1.000000000000000000, 0.0000000000000000000, -1.224646799147353207E-16 ) ) ;
#104 = FACE_OUTER_BOUND ( 'NONE', #585, .T. ) ;
#105 = AXIS2_PLACEMENT_3D ( 'NONE', #636, #991, #175 ) ;
#106 = EDGE_CURVE ( 'NONE', #564, #531, #402, .T. ) ;
#107 =( NAMED_UNIT ( * ) PLANE_ANGLE_UNIT ( ) SI_UNIT ( $, .RADIAN. ) );
#108 = CARTESIAN_POINT ( 'NONE',  ( 0.0000000000000000000, 2.700000000000000178, 41.90050561346442493 ) ) ;
#109 = CIRCLE ( 'NONE', #680, 2.399999999999999467 ) ;
#110 = ORIENTED_EDGE ( 'NONE', *, *, #815, .T. ) ;
#111 = CARTESIAN_POINT ( 'NONE',  ( -1.500000000000000000, 2.149999999999999911, 39.65050561346442493 ) ) ;
#112 = AXIS2_PLACEMENT_3D ( 'NONE', #462, #1091, #770 ) ;
#113 = LINE ( 'NONE', #480, #793 ) ;
#114 = PLANE ( 'NONE',  #701 ) ;
#115 = DIRECTION ( 'NONE',  ( -1.000000000000000000, -0.0000000000000000000, -0.0000000000000000000 ) ) ;
#116 = EDGE_CURVE ( 'NONE', #9, #812, #1104, .T. ) ;
#117 = ORIENTED_EDGE ( 'NONE', *, *, #225, .F. ) ;
#118 = CARTESIAN_POINT ( 'NONE',  ( -3.000000000000000000, 0.0000000000000000000, 41.85050561346442777 ) ) ;
#119 = CARTESIAN_POINT ( 'NONE',  ( -3.000000000000000000, 2.649999999999999911, 36.25050561346442635 ) ) ;
#120 = ORIENTED_EDGE ( 'NONE', *, *, #93, .F. ) ;
#121 = EDGE_CURVE ( 'NONE', #210, #777, #1108, .T. ) ;
#122 = CARTESIAN_POINT ( 'NONE',  ( -3.000000000000000000, 0.1000000000000000056, 41.85050561346442777 ) ) ;
#123 = FACE_OUTER_BOUND ( 'NONE', #427, .T. ) ;
#124 = AXIS2_PLACEMENT_3D ( 'NONE', #1017, #675, #390 ) ;
#125 = VECTOR ( 'NONE', #876, 1000.000000000000000 ) ;
#126 = VERTEX_POINT ( 'NONE', #384 ) ;
#127 = VECTOR ( 'NONE', #1136, 1000.000000000000000 ) ;
#128 = EDGE_CURVE ( 'NONE', #512, #391, #589, .T. ) ;
#129 = DIRECTION ( 'NONE',  ( 0.0000000000000000000, 1.000000000000000000, 0.0000000000000000000 ) ) ;
#130 = DIRECTION ( 'NONE',  ( 0.0000000000000000000, 0.0000000000000000000, -1.000000000000000000 ) ) ;
#131 = ORIENTED_EDGE ( 'NONE', *, *, #784, .F. ) ;
#132 = PLANE ( 'NONE',  #605 ) ;
#133 = FACE_OUTER_BOUND ( 'NONE', #831, .T. ) ;
#134 = ORIENTED_EDGE ( 'NONE', *, *, #849, .T. ) ;
#135 = DIRECTION ( 'NONE',  ( 0.0000000000000000000, -1.000000000000000000, 0.0000000000000000000 ) ) ;
#136 = CYLINDRICAL_SURFACE ( 'NONE', #237, 0.1000000000000028644 ) ;
#137 = DIRECTION ( 'NONE',  ( 0.0000000000000000000, 0.0000000000000000000, -1.000000000000000000 ) ) ;
#138 = EDGE_CURVE ( 'NONE', #196, #1025, #203, .T. ) ;
#139 = VERTEX_POINT ( 'NONE', #1031 ) ;
#140 = ORIENTED_EDGE ( 'NONE', *, *, #828, .T. ) ;
#141 = CARTESIAN_POINT ( 'NONE',  ( -2.999999999999998668, 2.629289651128864591, 38.90699899042742516 ) ) ;
#142 = AXIS2_PLACEMENT_3D ( 'NONE', #516, #511, #1128 ) ;
#143 = CIRCLE ( 'NONE', #358, 0.1000000000000028644 ) ;
#144 = VECTOR ( 'NONE', #129, 1000.000000000000000 ) ;
#145 = DIRECTION ( 'NONE',  ( 1.000000000000000000, -0.0000000000000000000, 0.0000000000000000000 ) ) ;
#146 = ADVANCED_FACE ( 'NONE', ( #25 ), #1024, .T. ) ;
#147 = ORIENTED_EDGE ( 'NONE', *, *, #494, .F. ) ;
#148 = ORIENTED_EDGE ( 'NONE', *, *, #466, .T. ) ;
#149 = DIRECTION ( 'NONE',  ( 1.000000000000000000, 0.0000000000000000000, 0.0000000000000000000 ) ) ;
#150 = CARTESIAN_POINT ( 'NONE',  ( -3.000000000000000000, 2.799999999999999822, 41.80050561346441640 ) ) ;
#151 = ORIENTED_EDGE ( 'NONE', *, *, #696, .T. ) ;
#152 = EDGE_LOOP ( 'NONE', ( #949, #1046, #184, #801 ) ) ;
#153 = CARTESIAN_POINT ( 'NONE',  ( -1.499999999999999778, 2.350000000000000089, 34.85050561346442777 ) ) ;
#154 = DIRECTION ( 'NONE',  ( 1.000000000000000000, -0.0000000000000000000, 0.0000000000000000000 ) ) ;
#155 = VERTEX_POINT ( 'NONE', #209 ) ;
#156 = ORIENTED_EDGE ( 'NONE', *, *, #934, .T. ) ;
#157 = CARTESIAN_POINT ( 'NONE',  ( 0.0000000000000000000, 2.650000000000000355, 38.81357406960917444 ) ) ;
#158 = AXIS2_PLACEMENT_3D ( 'NONE', #901, #288, #989 ) ;
#159 = ADVANCED_FACE ( 'NONE', ( #123 ), #593, .T. ) ;
#160 = PRESENTATION_LAYER_ASSIGNMENT (  '', '', ( #396 ) ) ;
#161 = FACE_OUTER_BOUND ( 'NONE', #487, .T. ) ;
#162 = CARTESIAN_POINT ( 'NONE',  ( 0.0000000000000000000, 0.1499999999999999667, 41.90050561346442493 ) ) ;
#163 = ORIENTED_EDGE ( 'NONE', *, *, #799, .T. ) ;
#164 = ORIENTED_EDGE ( 'NONE', *, *, #799, .F. ) ;
#165 = CARTESIAN_POINT ( 'NONE',  ( -1.500000000000000000, 2.149999999999999911, 37.25050561346442635 ) ) ;
#166 = ADVANCED_FACE ( 'NONE', ( #406 ), #944, .F. ) ;
#167 = CARTESIAN_POINT ( 'NONE',  ( -1.626303258728255073E-15, 2.350000000000000089, 39.12400501298395028 ) ) ;
#168 = EDGE_CURVE ( 'NONE', #906, #139, #768, .T. ) ;
#169 = DIRECTION ( 'NONE',  ( -0.0000000000000000000, -1.000000000000000000, -0.0000000000000000000 ) ) ;
#170 = ORIENTED_EDGE ( 'NONE', *, *, #815, .F. ) ;
#171 = ORIENTED_EDGE ( 'NONE', *, *, #319, .T. ) ;
#172 = DIRECTION ( 'NONE',  ( 0.0000000000000000000, 0.0000000000000000000, 1.000000000000000000 ) ) ;
#173 = CARTESIAN_POINT ( 'NONE',  ( -3.500000000000000000, 0.3999999999999900857, 34.50096019649092227 ) ) ;
#174 = SURFACE_STYLE_USAGE ( .BOTH. , #809 ) ;
#175 = DIRECTION ( 'NONE',  ( 0.0000000000000000000, 0.0000000000000000000, -1.000000000000000000 ) ) ;
#176 = ADVANCED_FACE ( 'NONE', ( #578 ), #857, .T. ) ;
#177 = ORIENTED_EDGE ( 'NONE', *, *, #1160, .F. ) ;
#178 = DIRECTION ( 'NONE',  ( 0.0000000000000000000, 4.240189396240100137E-30, -1.000000000000000000 ) ) ;
#179 = AXIS2_PLACEMENT_3D ( 'NONE', #895, #761, #473 ) ;
#180 = CARTESIAN_POINT ( 'NONE',  ( -3.000000000000000000, 2.649999999999999911, 36.25050561346442635 ) ) ;
#181 = VECTOR ( 'NONE', #720, 1000.000000000000000 ) ;
#182 = CARTESIAN_POINT ( 'NONE',  ( -1.500000000000000000, 2.149999999999999911, 37.25050561346442635 ) ) ;
#183 = VECTOR ( 'NONE', #1003, 1000.000000000000000 ) ;
#184 = ORIENTED_EDGE ( 'NONE', *, *, #213, .F. ) ;
#185 = ORIENTED_EDGE ( 'NONE', *, *, #860, .T. ) ;
#186 = CARTESIAN_POINT ( 'NONE',  ( 0.5000000000000000000, -9.525252223139424528E-15, 33.26733949932340551 ) ) ;
#187 = EDGE_CURVE ( 'NONE', #478, #1068, #525, .T. ) ;
#188 = DIRECTION ( 'NONE',  ( 0.0000000000000000000, 0.0000000000000000000, -1.000000000000000000 ) ) ;
#189 = FACE_OUTER_BOUND ( 'NONE', #373, .T. ) ;
#190 = DIRECTION ( 'NONE',  ( 1.000000000000000000, 0.0000000000000000000, 0.0000000000000000000 ) ) ;
#191 = ORIENTED_EDGE ( 'NONE', *, *, #562, .F. ) ;
#192 = DIRECTION ( 'NONE',  ( -0.0000000000000000000, 1.000000000000000000, -4.625929269271475698E-14 ) ) ;
#193 = EDGE_CURVE ( 'NONE', #126, #1083, #428, .T. ) ;
#194 = DIRECTION ( 'NONE',  ( 0.0000000000000000000, 0.0000000000000000000, -1.000000000000000000 ) ) ;
#195 = DIRECTION ( 'NONE',  ( -1.000000000000000000, 0.0000000000000000000, 0.0000000000000000000 ) ) ;
#196 = VERTEX_POINT ( 'NONE', #307 ) ;
#197 = ORIENTED_EDGE ( 'NONE', *, *, #672, .F. ) ;
#198 = DIRECTION ( 'NONE',  ( -0.0000000000000000000, 1.000000000000000000, -0.0000000000000000000 ) ) ;
#199 = B_SPLINE_CURVE_WITH_KNOTS ( 'NONE', 3,
 ( #708, #444, #1151, #1064, #633, #703, #157, #527 ),
 .UNSPECIFIED., .F., .F.,
 ( 4, 2, 2, 4 ),
 ( 0.0000000000000000000, 0.0001389052289899324972, 0.0002778104579798649945, 0.0005556209159597299890 ),
 .UNSPECIFIED. ) ;
#200 = CARTESIAN_POINT ( 'NONE',  ( -3.000000000000000000, 0.1000000000000000056, 41.85050561346442777 ) ) ;
#201 = DIRECTION ( 'NONE',  ( 0.0000000000000000000, -0.8066622230140080285, -0.5910127392553384817 ) ) ;
#202 = AXIS2_PLACEMENT_3D ( 'NONE', #310, #36, #486 ) ;
#203 = LINE ( 'NONE', #119, #26 ) ;
#204 = CIRCLE ( 'NONE', #507, 2.899999999999999911 ) ;
#205 = ORIENTED_EDGE ( 'NONE', *, *, #498, .F. ) ;
#206 = MECHANICAL_DESIGN_GEOMETRIC_PRESENTATION_REPRESENTATION (  '', ( #764 ), #573 ) ;
#207 = CARTESIAN_POINT ( 'NONE',  ( -3.000000000000000000, 0.1500000000000008271, 43.15050561346442493 ) ) ;
#208 = DIRECTION ( 'NONE',  ( 0.0000000000000000000, 0.0000000000000000000, -1.000000000000000000 ) ) ;
#209 = CARTESIAN_POINT ( 'NONE',  ( 0.0000000000000000000, 0.1500000000000008271, 43.15050561346442493 ) ) ;
#210 = VERTEX_POINT ( 'NONE', #582 ) ;
#211 = CARTESIAN_POINT ( 'NONE',  ( -3.000000000000000000, 2.649999999999999911, 38.72019945913433503 ) ) ;
#212 = DIRECTION ( 'NONE',  ( 0.0000000000000000000, 0.0000000000000000000, 1.000000000000000000 ) ) ;
#213 = EDGE_CURVE ( 'NONE', #531, #210, #1121, .T. ) ;
#214 = EDGE_LOOP ( 'NONE', ( #1045, #806, #961, #727, #308, #632 ) ) ;
#215 = ORIENTED_EDGE ( 'NONE', *, *, #168, .F. ) ;
#216 = SURFACE_STYLE_FILL_AREA ( #1132 ) ;
#217 = LINE ( 'NONE', #842, #448 ) ;
#218 = VECTOR ( 'NONE', #1159, 1000.000000000000000 ) ;
#219 = AXIS2_PLACEMENT_3D ( 'NONE', #969, #522, #952 ) ;
#220 = ORIENTED_EDGE ( 'NONE', *, *, #1122, .T. ) ;
#221 = VECTOR ( 'NONE', #4, 1000.000000000000000 ) ;
#222 = CARTESIAN_POINT ( 'NONE',  ( -3.500000000000000000, -9.525252223139416639E-15, 31.45050561346442208 ) ) ;
#223 = ORIENTED_EDGE ( 'NONE', *, *, #601, .T. ) ;
#224 = CARTESIAN_POINT ( 'NONE',  ( -3.500000000000000000, 0.1499999999999906963, 33.19128773024156231 ) ) ;
#225 = EDGE_CURVE ( 'NONE', #391, #868, #681, .T. ) ;
#226 = LINE ( 'NONE', #776, #664 ) ;
#227 = VERTEX_POINT ( 'NONE', #477 ) ;
#228 = DIRECTION ( 'NONE',  ( 0.0000000000000000000, -1.355252715606879310E-16, 1.000000000000000000 ) ) ;
#229 = DIRECTION ( 'NONE',  ( 0.0000000000000000000, 0.0000000000000000000, -1.000000000000000000 ) ) ;
#230 = DIRECTION ( 'NONE',  ( -0.0000000000000000000, -0.0000000000000000000, 1.000000000000000000 ) ) ;
#231 = ORIENTED_EDGE ( 'NONE', *, *, #940, .T. ) ;
#232 = VECTOR ( 'NONE', #948, 1000.000000000000114 ) ;
#233 = ORIENTED_EDGE ( 'NONE', *, *, #837, .T. ) ;
#234 = CARTESIAN_POINT ( 'NONE',  ( 0.0000000000000000000, 0.0000000000000000000, 41.75050561346442635 ) ) ;
#235 = AXIS2_PLACEMENT_3D ( 'NONE', #985, #536, #896 ) ;
#236 = PRODUCT_DEFINITION_FORMATION_WITH_SPECIFIED_SOURCE ( 'ANY', '', #250, .NOT_KNOWN. ) ;
#237 = AXIS2_PLACEMENT_3D ( 'NONE', #502, #679, #1030 ) ;
#238 = SHAPE_DEFINITION_REPRESENTATION ( #68, #1174 ) ;
#239 = LINE ( 'NONE', #872, #956 ) ;
#240 = CARTESIAN_POINT ( 'NONE',  ( -3.000000000000000000, 2.649999999999999911, 39.12400501298395028 ) ) ;
#241 = ORIENTED_EDGE ( 'NONE', *, *, #116, .F. ) ;
#242 = ORIENTED_EDGE ( 'NONE', *, *, #983, .F. ) ;
#243 = DIRECTION ( 'NONE',  ( 1.000000000000000000, 0.0000000000000000000, 0.0000000000000000000 ) ) ;
#244 = CARTESIAN_POINT ( 'NONE',  ( -3.000000000000000000, 2.700000000000000178, 41.90050561346442493 ) ) ;
#245 = DIRECTION ( 'NONE',  ( 0.0000000000000000000, 0.0000000000000000000, -1.000000000000000000 ) ) ;
#246 = EDGE_LOOP ( 'NONE', ( #1105, #930, #781, #787, #191, #330, #215, #220, #484, #843, #464, #878, #1095, #514, #1018 ) ) ;
#247 = ADVANCED_FACE ( 'NONE', ( #836 ), #1073, .T. ) ;
#248 = ORIENTED_EDGE ( 'NONE', *, *, #860, .F. ) ;
#249 = DIRECTION ( 'NONE',  ( -0.0000000000000000000, 1.000000000000000000, -0.0000000000000000000 ) ) ;
#250 = PRODUCT ( 'User Library-DSK-3R3H', 'User Library-DSK-3R3H', '', ( #433 ) ) ;
#251 = CARTESIAN_POINT ( 'NONE',  ( -1.499999999999999556, 11.76665222413704903, 40.65050561346443203 ) ) ;
#252 = FACE_OUTER_BOUND ( 'NONE', #381, .T. ) ;
#253 = ORIENTED_EDGE ( 'NONE', *, *, #683, .T. ) ;
#254 = ORIENTED_EDGE ( 'NONE', *, *, #1147, .F. ) ;
#255 = FACE_OUTER_BOUND ( 'NONE', #838, .T. ) ;
#256 = ADVANCED_FACE ( 'NONE', ( #790 ), #1066, .T. ) ;
#257 = AXIS2_PLACEMENT_3D ( 'NONE', #779, #688, #50 ) ;
#258 = EDGE_CURVE ( 'NONE', #794, #1129, #646, .T. ) ;
#259 = AXIS2_PLACEMENT_3D ( 'NONE', #366, #1166, #346 ) ;
#260 = AXIS2_PLACEMENT_3D ( 'NONE', #563, #475, #995 ) ;
#261 = DIRECTION ( 'NONE',  ( 0.0000000000000000000, 1.000000000000000000, -6.938893903907222461E-16 ) ) ;
#262 = DIRECTION ( 'NONE',  ( 0.0000000000000000000, -1.000000000000000000, 0.0000000000000000000 ) ) ;
#263 = FACE_OUTER_BOUND ( 'NONE', #1149, .T. ) ;
#264 = ORIENTED_EDGE ( 'NONE', *, *, #855, .T. ) ;
#265 = FACE_OUTER_BOUND ( 'NONE', #15, .T. ) ;
#266 = APPLICATION_CONTEXT ( 'automotive_design' ) ;
#267 = EDGE_CURVE ( 'NONE', #343, #637, #697, .T. ) ;
#268 = LINE ( 'NONE', #994, #623 ) ;
#269 = CARTESIAN_POINT ( 'NONE',  ( -3.500000000000000000, 0.3999999999999902522, 33.37445384438259310 ) ) ;
#270 = DIRECTION ( 'NONE',  ( 0.0000000000000000000, -1.301042606982606060E-16, 1.000000000000000000 ) ) ;
#271 = ORIENTED_EDGE ( 'NONE', *, *, #934, .F. ) ;
#272 = CARTESIAN_POINT ( 'NONE',  ( 0.5000000000000000000, -9.525252223139424528E-15, 33.26733949932340551 ) ) ;
#273 = CARTESIAN_POINT ( 'NONE',  ( -3.000000000000000000, 2.649999999999999911, 41.65050561346442493 ) ) ;
#274 = DIRECTION ( 'NONE',  ( 0.0000000000000000000, 0.0000000000000000000, 1.000000000000000000 ) ) ;
#275 = DIRECTION ( 'NONE',  ( 0.0000000000000000000, 0.0000000000000000000, -1.000000000000000000 ) ) ;
#276 = PRODUCT_DEFINITION_CONTEXT ( 'detailed design', #266, 'design' ) ;
#277 = ORIENTED_EDGE ( 'NONE', *, *, #347, .F. ) ;
#278 = DIRECTION ( 'NONE',  ( 0.0000000000000000000, 0.0000000000000000000, -1.000000000000000000 ) ) ;
#279 = AXIS2_PLACEMENT_3D ( 'NONE', #13, #135, #1008 ) ;
#280 = DIRECTION ( 'NONE',  ( 0.0000000000000000000, -1.301042606982606307E-16, 1.000000000000000000 ) ) ;
#281 = AXIS2_PLACEMENT_3D ( 'NONE', #802, #788, #336 ) ;
#282 = CARTESIAN_POINT ( 'NONE',  ( -3.000000000000000000, 2.649999999999999911, 41.75050561346442635 ) ) ;
#283 = VECTOR ( 'NONE', #201, 1000.000000000000114 ) ;
#284 = LINE ( 'NONE', #650, #882 ) ;
#285 = ADVANCED_FACE ( 'NONE', ( #133 ), #420, .T. ) ;
#286 = ORIENTED_EDGE ( 'NONE', *, *, #938, .F. ) ;
#287 = LINE ( 'NONE', #382, #431 ) ;
#288 = DIRECTION ( 'NONE',  ( 0.0000000000000000000, -1.000000000000000000, 0.0000000000000000000 ) ) ;
#289 =( LENGTH_UNIT ( ) NAMED_UNIT ( * ) SI_UNIT ( .MILLI., .METRE. ) );
#290 = EDGE_LOOP ( 'NONE', ( #1032, #772, #1119, #497, #443 ) ) ;
#291 = ORIENTED_EDGE ( 'NONE', *, *, #642, .T. ) ;
#292 = LINE ( 'NONE', #272, #958 ) ;
#293 = CARTESIAN_POINT ( 'NONE',  ( -3.000000000000002220, 2.650000000000001243, 38.81356374577924839 ) ) ;
#294 = FACE_OUTER_BOUND ( 'NONE', #37, .T. ) ;
#295 = DIRECTION ( 'NONE',  ( 1.000000000000000000, 0.0000000000000000000, 0.0000000000000000000 ) ) ;
#296 = ORIENTED_EDGE ( 'NONE', *, *, #940, .F. ) ;
#297 = CARTESIAN_POINT ( 'NONE',  ( -1.500000000000000000, 1.650000000000000355, 34.35050561346442777 ) ) ;
#298 = EDGE_CURVE ( 'NONE', #766, #343, #239, .T. ) ;
#299 = DIRECTION ( 'NONE',  ( -0.0000000000000000000, 1.000000000000000000, -0.0000000000000000000 ) ) ;
#300 = VECTOR ( 'NONE', #328, 1000.000000000000000 ) ;
#301 = DIRECTION ( 'NONE',  ( -1.000000000000000000, 0.0000000000000000000, 0.0000000000000000000 ) ) ;
#302 = AXIS2_PLACEMENT_3D ( 'NONE', #982, #350, #430 ) ;
#303 = ORIENTED_EDGE ( 'NONE', *, *, #138, .F. ) ;
#304 = VECTOR ( 'NONE', #609, 1000.000000000000000 ) ;
#305 = ADVANCED_FACE ( 'NONE', ( #55 ), #1146, .F. ) ;
#306 = DIRECTION ( 'NONE',  ( 0.0000000000000000000, 0.0000000000000000000, -1.000000000000000000 ) ) ;
#307 = CARTESIAN_POINT ( 'NONE',  ( -3.000000000000000000, 2.649999999999999911, 36.25050561346442635 ) ) ;
#308 = ORIENTED_EDGE ( 'NONE', *, *, #1022, .T. ) ;
#309 =( NAMED_UNIT ( * ) SI_UNIT ( $, .STERADIAN. ) SOLID_ANGLE_UNIT ( ) );
#310 = CARTESIAN_POINT ( 'NONE',  ( -3.500000000000000000, 0.1499999999999909184, 31.45050561346442208 ) ) ;
#311 = EDGE_CURVE ( 'NONE', #583, #603, #334, .T. ) ;
#312 = ORIENTED_EDGE ( 'NONE', *, *, #48, .F. ) ;
#313 = EDGE_CURVE ( 'NONE', #418, #1099, #226, .T. ) ;
#314 = CARTESIAN_POINT ( 'NONE',  ( -3.000000000000000000, 2.649999999999999911, 41.65050561346442493 ) ) ;
#315 = DIRECTION ( 'NONE',  ( 1.000000000000000000, 0.0000000000000000000, 0.0000000000000000000 ) ) ;
#316 = CIRCLE ( 'NONE', #924, 2.399999999999999467 ) ;
#317 = ORIENTED_EDGE ( 'NONE', *, *, #867, .F. ) ;
#318 = MECHANICAL_DESIGN_GEOMETRIC_PRESENTATION_REPRESENTATION (  '', ( #396 ), #850 ) ;
#319 = EDGE_CURVE ( 'NONE', #500, #478, #499, .T. ) ;
#320 = AXIS2_PLACEMENT_3D ( 'NONE', #755, #928, #572 ) ;
#321 = DIRECTION ( 'NONE',  ( 0.0000000000000000000, 1.000000000000000000, 1.301042606982606307E-16 ) ) ;
#322 = DIRECTION ( 'NONE',  ( -1.000000000000000000, 0.0000000000000000000, -0.0000000000000000000 ) ) ;
#323 = LINE ( 'NONE', #1059, #773 ) ;
#324 = ORIENTED_EDGE ( 'NONE', *, *, #93, .T. ) ;
#325 = DIRECTION ( 'NONE',  ( -1.000000000000000000, -0.0000000000000000000, -0.0000000000000000000 ) ) ;
#326 = EDGE_CURVE ( 'NONE', #1004, #752, #51, .T. ) ;
#327 = CARTESIAN_POINT ( 'NONE',  ( -3.500000000000000000, 0.2499999999999892586, 33.45050561346442208 ) ) ;
#328 = DIRECTION ( 'NONE',  ( -0.0000000000000000000, 1.000000000000000000, -0.0000000000000000000 ) ) ;
#329 = ORIENTED_EDGE ( 'NONE', *, *, #560, .T. ) ;
#330 = ORIENTED_EDGE ( 'NONE', *, *, #651, .T. ) ;
#331 = DIRECTION ( 'NONE',  ( 0.0000000000000000000, -1.301042606982606060E-16, 1.000000000000000000 ) ) ;
#332 = DIRECTION ( 'NONE',  ( 0.0000000000000000000, -1.000000000000000000, 0.0000000000000000000 ) ) ;
#333 = ORIENTED_EDGE ( 'NONE', *, *, #881, .T. ) ;
#334 = CIRCLE ( 'NONE', #452, 2.000000000000001776 ) ;
#335 = ORIENTED_EDGE ( 'NONE', *, *, #380, .F. ) ;
#336 = DIRECTION ( 'NONE',  ( 0.0000000000000000000, -4.625929269271474436E-14, -1.000000000000000000 ) ) ;
#337 = VECTOR ( 'NONE', #149, 1000.000000000000000 ) ;
#338 = VECTOR ( 'NONE', #395, 1000.000000000000000 ) ;
#339 = DIRECTION ( 'NONE',  ( 0.0000000000000000000, 0.0000000000000000000, -1.000000000000000000 ) ) ;
#340 = EDGE_CURVE ( 'NONE', #580, #1025, #323, .T. ) ;
#341 = CARTESIAN_POINT ( 'NONE',  ( -1.500000000000000000, 2.649999999999999911, 37.25050561346442635 ) ) ;
#342 = ORIENTED_EDGE ( 'NONE', *, *, #1071, .T. ) ;
#343 = VERTEX_POINT ( 'NONE', #785 ) ;
#344 = CARTESIAN_POINT ( 'NONE',  ( -3.500000000000000000, -9.525252223139424528E-15, 33.26733949932340551 ) ) ;
#345 = PLANE ( 'NONE',  #939 ) ;
#346 = DIRECTION ( 'NONE',  ( 0.0000000000000000000, -0.0000000000000000000, -1.000000000000000000 ) ) ;
#347 = EDGE_CURVE ( 'NONE', #2, #906, #1041, .T. ) ;
#348 = ORIENTED_EDGE ( 'NONE', *, *, #712, .T. ) ;
#349 = EDGE_LOOP ( 'NONE', ( #335, #264, #590, #1011, #3, #617, #197, #1069, #101 ) ) ;
#350 = DIRECTION ( 'NONE',  ( 0.0000000000000000000, -1.000000000000000000, 0.0000000000000000000 ) ) ;
#351 = PLANE ( 'NONE',  #1143 ) ;
#352 = LINE ( 'NONE', #435, #814 ) ;
#353 = DIRECTION ( 'NONE',  ( 0.0000000000000000000, -1.000000000000000000, 0.0000000000000000000 ) ) ;
#354 = VERTEX_POINT ( 'NONE', #596 ) ;
#355 = LINE ( 'NONE', #1057, #588 ) ;
#356 = EDGE_CURVE ( 'NONE', #580, #532, #718, .T. ) ;
#357 = CIRCLE ( 'NONE', #179, 3.400000000000000355 ) ;
#358 = AXIS2_PLACEMENT_3D ( 'NONE', #1103, #654, #194 ) ;
#359 = DIRECTION ( 'NONE',  ( -0.0000000000000000000, -1.000000000000000000, -1.301042606982606307E-16 ) ) ;
#360 = CARTESIAN_POINT ( 'NONE',  ( -1.500000000000000000, 2.149999999999999911, 37.25050561346442635 ) ) ;
#361 = CARTESIAN_POINT ( 'NONE',  ( -3.500000000000000000, 0.1499999999999906963, 33.19128773024156231 ) ) ;
#362 = VERTEX_POINT ( 'NONE', #503 ) ;
#363 = FACE_BOUND ( 'NONE', #372, .T. ) ;
#364 = EDGE_CURVE ( 'NONE', #362, #565, #883, .T. ) ;
#365 = CARTESIAN_POINT ( 'NONE',  ( 0.0000000000000000000, 2.799999999999999822, 41.90050561346442493 ) ) ;
#366 = CARTESIAN_POINT ( 'NONE',  ( -1.500000000000000000, 2.149999999999999911, 37.25050561346442635 ) ) ;
#367 = CARTESIAN_POINT ( 'NONE',  ( 0.0000000000000000000, 2.799999999999999822, 36.25050561346442635 ) ) ;
#368 = ORIENTED_EDGE ( 'NONE', *, *, #442, .T. ) ;
#369 = FILL_AREA_STYLE_COLOUR ( '', #10 ) ;
#370 = EDGE_CURVE ( 'NONE', #873, #126, #1133, .T. ) ;
#371 = CARTESIAN_POINT ( 'NONE',  ( 0.0000000000000000000, 0.1500000000000008271, 43.15050561346442493 ) ) ;
#372 = EDGE_LOOP ( 'NONE', ( #677, #348 ) ) ;
#373 = EDGE_LOOP ( 'NONE', ( #706, #558, #205, #897, #286 ) ) ;
#374 = CARTESIAN_POINT ( 'NONE',  ( 0.0000000000000000000, 0.2500000000000000000, 42.00050561346442635 ) ) ;
#375 = VECTOR ( 'NONE', #751, 1000.000000000000000 ) ;
#376 = CIRCLE ( 'NONE', #1034, 0.3000000000000016542 ) ;
#377 = LINE ( 'NONE', #1080, #740 ) ;
#378 = DIRECTION ( 'NONE',  ( 0.0000000000000000000, 0.0000000000000000000, 1.000000000000000000 ) ) ;
#379 = CARTESIAN_POINT ( 'NONE',  ( -1.500000000000000000, 2.350000000000000089, 37.25050561346442635 ) ) ;
#380 = EDGE_CURVE ( 'NONE', #769, #512, #691, .T. ) ;
#381 = EDGE_LOOP ( 'NONE', ( #892, #34, #1123, #879 ) ) ;
#382 = CARTESIAN_POINT ( 'NONE',  ( -3.500000000000000000, 0.3999999999998970490, 36.37445384438258600 ) ) ;
#383 = CARTESIAN_POINT ( 'NONE',  ( 0.5000000000000000000, 0.3999999999999898637, 36.37445384438258600 ) ) ;
#384 = CARTESIAN_POINT ( 'NONE',  ( -1.500000000000000000, 2.649999999999999911, 39.65050561346442493 ) ) ;
#385 = UNCERTAINTY_MEASURE_WITH_UNIT (LENGTH_MEASURE( 1.000000000000000082E-05 ), #289, 'distance_accuracy_value', 'NONE');
#386 = ORIENTED_EDGE ( 'NONE', *, *, #1145, .T. ) ;
#387 = DIRECTION ( 'NONE',  ( 0.0000000000000000000, -1.000000000000000000, -4.240189396240100137E-30 ) ) ;
#388 = CARTESIAN_POINT ( 'NONE',  ( -3.500000000000000000, 0.3999999999999898637, 36.37445384438258600 ) ) ;
#389 = SURFACE_STYLE_USAGE ( .BOTH. , #18 ) ;
#390 = DIRECTION ( 'NONE',  ( 1.000000000000000000, 0.0000000000000000000, 0.0000000000000000000 ) ) ;
#391 = VERTEX_POINT ( 'NONE', #798 ) ;
#392 = ADVANCED_FACE ( 'NONE', ( #1152 ), #345, .T. ) ;
#393 = LINE ( 'NONE', #207, #848 ) ;
#394 = VECTOR ( 'NONE', #85, 1000.000000000000000 ) ;
#395 = DIRECTION ( 'NONE',  ( -1.000000000000000000, -0.0000000000000000000, -0.0000000000000000000 ) ) ;
#396 = STYLED_ITEM ( 'NONE', ( #446 ), #918 ) ;
#397 = CARTESIAN_POINT ( 'NONE',  ( 0.5000000000000000000, -9.525252223139416639E-15, 31.45050561346442208 ) ) ;
#398 = CIRCLE ( 'NONE', #320, 3.400000000000000355 ) ;
#399 = ORIENTED_EDGE ( 'NONE', *, *, #1079, .F. ) ;
#400 = ADVANCED_FACE ( 'NONE', ( #555 ), #5, .T. ) ;
#401 = APPLICATION_PROTOCOL_DEFINITION ( 'draft international standard', 'automotive_design', 1998, #404 ) ;
#402 = LINE ( 'NONE', #756, #621 ) ;
#403 = ORIENTED_EDGE ( 'NONE', *, *, #784, .T. ) ;
#404 = APPLICATION_CONTEXT ( 'automotive_design' ) ;
#405 = CARTESIAN_POINT ( 'NONE',  ( -1.500000000000000000, 2.149999999999999911, 34.35050561346442777 ) ) ;
#406 = FACE_OUTER_BOUND ( 'NONE', #858, .T. ) ;
#407 = EDGE_CURVE ( 'NONE', #777, #899, #377, .T. ) ;
#408 = ORIENTED_EDGE ( 'NONE', *, *, #98, .T. ) ;
#409 = DIRECTION ( 'NONE',  ( 1.000000000000000000, -0.0000000000000000000, 0.0000000000000000000 ) ) ;
#410 = DIRECTION ( 'NONE',  ( -0.0000000000000000000, -1.000000000000000000, -1.301042606982606307E-16 ) ) ;
#411 = VECTOR ( 'NONE', #859, 1000.000000000000000 ) ;
#412 = EDGE_LOOP ( 'NONE', ( #711, #937, #987, #700 ) ) ;
#413 = STYLED_ITEM ( 'NONE', ( #835 ), #1065 ) ;
#414 = DIRECTION ( 'NONE',  ( 0.0000000000000000000, 0.0000000000000000000, -1.000000000000000000 ) ) ;
#415 = FACE_OUTER_BOUND ( 'NONE', #1140, .T. ) ;
#416 = CARTESIAN_POINT ( 'NONE',  ( -3.500000000000000000, 0.2499999999999892586, 38.37445384438259310 ) ) ;
#417 = ORIENTED_EDGE ( 'NONE', *, *, #696, .F. ) ;
#418 = VERTEX_POINT ( 'NONE', #1180 ) ;
#419 = LINE ( 'NONE', #783, #127 ) ;
#420 = PLANE ( 'NONE',  #1109 ) ;
#421 = ORIENTED_EDGE ( 'NONE', *, *, #347, .T. ) ;
#422 = EDGE_LOOP ( 'NONE', ( #248, #656, #624, #524 ) ) ;
#423 = CARTESIAN_POINT ( 'NONE',  ( -3.000000000000000000, 0.1500000000000008271, 43.15050561346442493 ) ) ;
#424 = EDGE_CURVE ( 'NONE', #196, #766, #827, .T. ) ;
#425 = CARTESIAN_POINT ( 'NONE',  ( -1.499999999999999778, 2.149999999999999911, 34.85050561346442777 ) ) ;
#426 = FACE_OUTER_BOUND ( 'NONE', #869, .T. ) ;
#427 = EDGE_LOOP ( 'NONE', ( #254, #441, #140, #291 ) ) ;
#428 = CIRCLE ( 'NONE', #976, 2.399999999999999467 ) ;
#429 = ORIENTED_EDGE ( 'NONE', *, *, #128, .F. ) ;
#430 = DIRECTION ( 'NONE',  ( 0.0000000000000000000, 0.0000000000000000000, -1.000000000000000000 ) ) ;
#431 = VECTOR ( 'NONE', #192, 1000.000000000000000 ) ;
#432 = EDGE_CURVE ( 'NONE', #21, #637, #445, .T. ) ;
#433 = PRODUCT_CONTEXT ( 'NONE', #404, 'mechanical' ) ;
#434 = DIRECTION ( 'NONE',  ( 0.0000000000000000000, 0.0000000000000000000, -1.000000000000000000 ) ) ;
#435 = CARTESIAN_POINT ( 'NONE',  ( 0.5000000000000000000, 0.2499999999999892586, 38.37445384438259310 ) ) ;
#436 = ORIENTED_EDGE ( 'NONE', *, *, #946, .F. ) ;
#437 = ORIENTED_EDGE ( 'NONE', *, *, #946, .T. ) ;
#438 = DIRECTION ( 'NONE',  ( 0.0000000000000000000, 0.0000000000000000000, -1.000000000000000000 ) ) ;
#439 = CARTESIAN_POINT ( 'NONE',  ( -3.500000000000000000, -9.525252223139416639E-15, 31.45050561346442208 ) ) ;
#440 = CARTESIAN_POINT ( 'NONE',  ( -1.500000000000000000, 2.350000000000000089, 37.25050561346442635 ) ) ;
#441 = ORIENTED_EDGE ( 'NONE', *, *, #965, .F. ) ;
#442 = EDGE_CURVE ( 'NONE', #752, #538, #568, .T. ) ;
#443 = ORIENTED_EDGE ( 'NONE', *, *, #1160, .T. ) ;
#444 = CARTESIAN_POINT ( 'NONE',  ( -1.626303258728255073E-15, 2.397052400821743312, 39.12400501298395739 ) ) ;
#445 = LINE ( 'NONE', #365, #1111 ) ;
#446 = PRESENTATION_STYLE_ASSIGNMENT (( #174 ) ) ;
#447 = CARTESIAN_POINT ( 'NONE',  ( -1.500000000000000000, 11.76665222413704903, 37.25050561346442635 ) ) ;
#448 = VECTOR ( 'NONE', #929, 1000.000000000000114 ) ;
#449 = ORIENTED_EDGE ( 'NONE', *, *, #340, .F. ) ;
#450 = LINE ( 'NONE', #813, #62 ) ;
#451 = AXIS2_PLACEMENT_3D ( 'NONE', #822, #634, #99 ) ;
#452 = AXIS2_PLACEMENT_3D ( 'NONE', #1138, #963, #599 ) ;
#453 = VECTOR ( 'NONE', #1107, 1000.000000000000000 ) ;
#454 = AXIS2_PLACEMENT_3D ( 'NONE', #122, #322, #229 ) ;
#455 = CARTESIAN_POINT ( 'NONE',  ( -1.499999999999999556, 1.650000000000000355, 40.65050561346443203 ) ) ;
#456 = DIRECTION ( 'NONE',  ( 0.0000000000000000000, 1.000000000000000000, 1.301042606982606307E-16 ) ) ;
#457 = ORIENTED_EDGE ( 'NONE', *, *, #340, .T. ) ;
#458 = UNCERTAINTY_MEASURE_WITH_UNIT (LENGTH_MEASURE( 1.000000000000000082E-05 ), #1067, 'distance_accuracy_value', 'NONE');
#459 = ORIENTED_EDGE ( 'NONE', *, *, #1106, .T. ) ;
#460 = DIRECTION ( 'NONE',  ( 0.0000000000000000000, 0.0000000000000000000, -1.000000000000000000 ) ) ;
#461 = DIRECTION ( 'NONE',  ( 0.0000000000000000000, 1.000000000000000000, 0.0000000000000000000 ) ) ;
#462 = CARTESIAN_POINT ( 'NONE',  ( -3.000000000000000000, 2.700000000000000178, 41.80050561346441640 ) ) ;
#463 = DIRECTION ( 'NONE',  ( -0.0000000000000000000, -1.000000000000000000, -1.301042606982606307E-16 ) ) ;
#464 = ORIENTED_EDGE ( 'NONE', *, *, #658, .F. ) ;
#465 = CARTESIAN_POINT ( 'NONE',  ( -3.500000000000000000, 0.1499999999999909184, 31.45050561346442208 ) ) ;
#466 = EDGE_CURVE ( 'NONE', #500, #227, #61, .T. ) ;
#467 = LINE ( 'NONE', #724, #678 ) ;
#468 = EDGE_LOOP ( 'NONE', ( #861, #185, #717, #738 ) ) ;
#469 = ORIENTED_EDGE ( 'NONE', *, *, #584, .F. ) ;
#470 = LINE ( 'NONE', #1001, #221 ) ;
#471 = AXIS2_PLACEMENT_3D ( 'NONE', #379, #353, #1168 ) ;
#472 = AXIS2_PLACEMENT_3D ( 'NONE', #1115, #321, #228 ) ;
#473 = DIRECTION ( 'NONE',  ( 0.0000000000000000000, 0.0000000000000000000, -1.000000000000000000 ) ) ;
#474 = EDGE_CURVE ( 'NONE', #786, #53, #467, .T. ) ;
#475 = DIRECTION ( 'NONE',  ( 1.000000000000000000, -0.0000000000000000000, 0.0000000000000000000 ) ) ;
#476 = MECHANICAL_DESIGN_GEOMETRIC_PRESENTATION_REPRESENTATION (  '', ( #413 ), #1113 ) ;
#477 = CARTESIAN_POINT ( 'NONE',  ( -1.500000000000000000, 1.650000000000000355, 33.85050561346442777 ) ) ;
#478 = VERTEX_POINT ( 'NONE', #77 ) ;
#479 = CARTESIAN_POINT ( 'NONE',  ( -1.499999999999999556, 1.650000000000000355, 40.15050561346442493 ) ) ;
#480 = CARTESIAN_POINT ( 'NONE',  ( -3.500000000000000000, -9.525252223139416639E-15, 31.45050561346442208 ) ) ;
#481 = CYLINDRICAL_SURFACE ( 'NONE', #1051, 0.1000000000000028644 ) ;
#482 = LINE ( 'NONE', #1118, #1124 ) ;
#483 = ADVANCED_FACE ( 'NONE', ( #1072 ), #547, .T. ) ;
#484 = ORIENTED_EDGE ( 'NONE', *, *, #298, .F. ) ;
#485 = CARTESIAN_POINT ( 'NONE',  ( -3.000000000000000000, 2.554446829447672762, 39.02439479128614153 ) ) ;
#486 = DIRECTION ( 'NONE',  ( 0.0000000000000000000, -1.245649483684703253E-16, 1.000000000000000000 ) ) ;
#487 = EDGE_LOOP ( 'NONE', ( #964, #171, #986, #713, #508 ) ) ;
#488 = CIRCLE ( 'NONE', #1125, 0.5000000000000004441 ) ;
#489 = DIRECTION ( 'NONE',  ( 0.0000000000000000000, -0.5910127392553384817, 0.8066622230140080285 ) ) ;
#490 = CIRCLE ( 'NONE', #1144, 3.400000000000000355 ) ;
#491 = CARTESIAN_POINT ( 'NONE',  ( -3.500000000000000000, 0.2499999999999892586, 33.45050561346442208 ) ) ;
#492 = COLOUR_RGB ( '',0.8274509803921568096, 0.8392156862745098200, 0.8274509803921568096 ) ;
#493 = VERTEX_POINT ( 'NONE', #173 ) ;
#494 = EDGE_CURVE ( 'NONE', #1025, #21, #268, .T. ) ;
#495 = SURFACE_SIDE_STYLE ('',( #216 ) ) ;
#496 = CARTESIAN_POINT ( 'NONE',  ( -3.000000000000000000, 0.1499999999999999667, 41.90050561346442493 ) ) ;
#497 = ORIENTED_EDGE ( 'NONE', *, *, #313, .F. ) ;
#498 = EDGE_CURVE ( 'NONE', #693, #954, #1090, .T. ) ;
#499 = LINE ( 'NONE', #251, #1049 ) ;
#500 = VERTEX_POINT ( 'NONE', #455 ) ;
#501 = DIRECTION ( 'NONE',  ( 0.0000000000000000000, 0.0000000000000000000, 1.000000000000000000 ) ) ;
#502 = CARTESIAN_POINT ( 'NONE',  ( -3.000000000000000000, 2.700000000000000178, 41.80050561346441640 ) ) ;
#503 = CARTESIAN_POINT ( 'NONE',  ( -3.000000000000000000, 0.0000000000000000000, 43.15050561346442493 ) ) ;
#504 = AXIS2_PLACEMENT_3D ( 'NONE', #361, #904, #732 ) ;
#505 = VECTOR ( 'NONE', #315, 1000.000000000000000 ) ;
#506 = ORIENTED_EDGE ( 'NONE', *, *, #881, .F. ) ;
#507 = AXIS2_PLACEMENT_3D ( 'NONE', #891, #1054, #56 ) ;
#508 = ORIENTED_EDGE ( 'NONE', *, *, #6, .F. ) ;
#509 = DIRECTION ( 'NONE',  ( 0.0000000000000000000, 0.0000000000000000000, 1.000000000000000000 ) ) ;
#510 =( LENGTH_UNIT ( ) NAMED_UNIT ( * ) SI_UNIT ( .MILLI., .METRE. ) );
#511 = DIRECTION ( 'NONE',  ( 1.000000000000000000, -0.0000000000000000000, 0.0000000000000000000 ) ) ;
#512 = VERTEX_POINT ( 'NONE', #1085 ) ;
#513 = ADVANCED_FACE ( 'NONE', ( #161 ), #534, .T. ) ;
#514 = ORIENTED_EDGE ( 'NONE', *, *, #1100, .F. ) ;
#515 = CYLINDRICAL_SURFACE ( 'NONE', #647, 2.000000000000001776 ) ;
#516 = CARTESIAN_POINT ( 'NONE',  ( 0.0000000000000000000, 0.1000000000000000056, 41.85050561346442777 ) ) ;
#517 =( NAMED_UNIT ( * ) SI_UNIT ( $, .STERADIAN. ) SOLID_ANGLE_UNIT ( ) );
#518 = ORIENTED_EDGE ( 'NONE', *, *, #651, .F. ) ;
#519 = ORIENTED_EDGE ( 'NONE', *, *, #1053, .T. ) ;
#520 = LINE ( 'NONE', #344, #337 ) ;
#521 = ADVANCED_FACE ( 'NONE', ( #908 ), #94, .F. ) ;
#522 = DIRECTION ( 'NONE',  ( -0.0000000000000000000, 1.000000000000000000, -0.0000000000000000000 ) ) ;
#523 = FILL_AREA_STYLE ('',( #369 ) ) ;
#524 = ORIENTED_EDGE ( 'NONE', *, *, #729, .F. ) ;
#525 = CIRCLE ( 'NONE', #84, 3.400000000000000355 ) ;
#526 = VERTEX_POINT ( 'NONE', #273 ) ;
#527 = CARTESIAN_POINT ( 'NONE',  ( 0.0000000000000000000, 2.649999999999999911, 38.72019945913433503 ) ) ;
#528 = AXIS2_PLACEMENT_3D ( 'NONE', #832, #387, #178 ) ;
#529 = EDGE_CURVE ( 'NONE', #1099, #126, #698, .T. ) ;
#530 = CARTESIAN_POINT ( 'NONE',  ( -1.500000000000000000, 0.3999999999999897526, 37.25050561346442635 ) ) ;
#531 = VERTEX_POINT ( 'NONE', #439 ) ;
#532 = VERTEX_POINT ( 'NONE', #803 ) ;
#533 = CARTESIAN_POINT ( 'NONE',  ( 0.5000000000000000000, 0.1499999999999909184, 31.45050561346442208 ) ) ;
#534 = CYLINDRICAL_SURFACE ( 'NONE', #27, 3.400000000000000355 ) ;
#535 = ADVANCED_FACE ( 'NONE', ( #1157 ), #351, .T. ) ;
#536 = DIRECTION ( 'NONE',  ( 0.0000000000000000000, 0.0000000000000000000, 1.000000000000000000 ) ) ;
#537 = LINE ( 'NONE', #726, #218 ) ;
#538 = VERTEX_POINT ( 'NONE', #167 ) ;
#539 = CYLINDRICAL_SURFACE ( 'NONE', #602, 2.399999999999999467 ) ;
#540 = DIRECTION ( 'NONE',  ( 1.000000000000000000, 0.0000000000000000000, 0.0000000000000000000 ) ) ;
#541 = DIRECTION ( 'NONE',  ( 0.0000000000000000000, -1.000000000000000000, 0.0000000000000000000 ) ) ;
#542 = CARTESIAN_POINT ( 'NONE',  ( -3.000000000000000000, 0.1500000000000008271, 43.15050561346442493 ) ) ;
#543 = CARTESIAN_POINT ( 'NONE',  ( -3.000000000000000000, 2.550000000000000266, 41.65050561346442493 ) ) ;
#544 = VECTOR ( 'NONE', #295, 1000.000000000000000 ) ;
#545 = ORIENTED_EDGE ( 'NONE', *, *, #1154, .F. ) ;
#546 = DIRECTION ( 'NONE',  ( 0.0000000000000000000, 0.0000000000000000000, -1.000000000000000000 ) ) ;
#547 = TOROIDAL_SURFACE ( 'NONE', #43, 2.100000000000000089, 0.2999999999999999889 ) ;
#548 = AXIS2_PLACEMENT_3D ( 'NONE', #200, #569, #666 ) ;
#549 = DIRECTION ( 'NONE',  ( 1.000000000000000000, 0.0000000000000000000, 0.0000000000000000000 ) ) ;
#550 = DIRECTION ( 'NONE',  ( 0.0000000000000000000, 0.0000000000000000000, -1.000000000000000000 ) ) ;
#551 = ORIENTED_EDGE ( 'NONE', *, *, #1061, .F. ) ;
#552 = ORIENTED_EDGE ( 'NONE', *, *, #313, .T. ) ;
#553 = FACE_OUTER_BOUND ( 'NONE', #820, .T. ) ;
#554 = EDGE_CURVE ( 'NONE', #227, #500, #357, .T. ) ;
#555 = FACE_OUTER_BOUND ( 'NONE', #47, .T. ) ;
#556 = DIRECTION ( 'NONE',  ( 0.0000000000000000000, -1.301042606982606307E-16, 1.000000000000000000 ) ) ;
#557 = ORIENTED_EDGE ( 'NONE', *, *, #474, .T. ) ;
#558 = ORIENTED_EDGE ( 'NONE', *, *, #35, .F. ) ;
#559 = DIRECTION ( 'NONE',  ( 0.0000000000000000000, -1.000000000000000000, 4.625929269271475698E-14 ) ) ;
#560 = EDGE_CURVE ( 'NONE', #606, #74, #919, .T. ) ;
#561 = CARTESIAN_POINT ( 'NONE',  ( -2.999999999999998224, 2.350000000000000089, 39.12400501298395028 ) ) ;
#562 = EDGE_CURVE ( 'NONE', #812, #719, #393, .T. ) ;
#563 = CARTESIAN_POINT ( 'NONE',  ( 0.0000000000000000000, 2.700000000000000178, 41.80050561346441640 ) ) ;
#564 = VERTEX_POINT ( 'NONE', #42 ) ;
#565 = VERTEX_POINT ( 'NONE', #118 ) ;
#566 = CARTESIAN_POINT ( 'NONE',  ( -1.500000000000000000, 0.2499999999999893141, 38.37445384438259310 ) ) ;
#567 = VECTOR ( 'NONE', #270, 1000.000000000000000 ) ;
#568 = CIRCLE ( 'NONE', #600, 2.399999999999999467 ) ;
#569 = DIRECTION ( 'NONE',  ( 1.000000000000000000, 0.0000000000000000000, 0.0000000000000000000 ) ) ;
#570 = VECTOR ( 'NONE', #607, 1000.000000000000000 ) ;
#571 = EDGE_CURVE ( 'NONE', #532, #752, #376, .T. ) ;
#572 = DIRECTION ( 'NONE',  ( 0.0000000000000000000, -1.275531967630004999E-16, 1.000000000000000000 ) ) ;
#573 =( GEOMETRIC_REPRESENTATION_CONTEXT ( 3 ) GLOBAL_UNCERTAINTY_ASSIGNED_CONTEXT ( ( #20 ) ) GLOBAL_UNIT_ASSIGNED_CONTEXT ( ( #510, #32, #309 ) ) REPRESENTATION_CONTEXT ( 'NONE', 'WORKASPACE' ) );
#574 = DIRECTION ( 'NONE',  ( 0.0000000000000000000, 4.240189396240100137E-30, -1.000000000000000000 ) ) ;
#575 = VERTEX_POINT ( 'NONE', #1021 ) ;
#576 = DIRECTION ( 'NONE',  ( 0.0000000000000000000, -1.000000000000000000, 4.625929269271475698E-14 ) ) ;
#577 = LINE ( 'NONE', #932, #283 ) ;
#578 = FACE_OUTER_BOUND ( 'NONE', #412, .T. ) ;
#579 = EDGE_CURVE ( 'NONE', #873, #1004, #316, .T. ) ;
#580 = VERTEX_POINT ( 'NONE', #834 ) ;
#581 =( NAMED_UNIT ( * ) SI_UNIT ( $, .STERADIAN. ) SOLID_ANGLE_UNIT ( ) );
#582 = CARTESIAN_POINT ( 'NONE',  ( 0.5000000000000000000, -9.525252223139416639E-15, 31.45050561346442208 ) ) ;
#583 = VERTEX_POINT ( 'NONE', #388 ) ;
#584 = EDGE_CURVE ( 'NONE', #1175, #575, #979, .T. ) ;
#585 = EDGE_LOOP ( 'NONE', ( #545, #399, #854, #120 ) ) ;
#586 = AXIS2_PLACEMENT_3D ( 'NONE', #890, #1002, #188 ) ;
#587 = FACE_OUTER_BOUND ( 'NONE', #1155, .T. ) ;
#588 = VECTOR ( 'NONE', #243, 1000.000000000000000 ) ;
#589 = LINE ( 'NONE', #491, #544 ) ;
#590 = ORIENTED_EDGE ( 'NONE', *, *, #837, .F. ) ;
#591 = EDGE_CURVE ( 'NONE', #603, #606, #996, .T. ) ;
#592 =( LENGTH_UNIT ( ) NAMED_UNIT ( * ) SI_UNIT ( .MILLI., .METRE. ) );
#593 = PLANE ( 'NONE',  #124 ) ;
#594 = ORIENTED_EDGE ( 'NONE', *, *, #121, .T. ) ;
#595 = FACE_OUTER_BOUND ( 'NONE', #102, .T. ) ;
#596 = CARTESIAN_POINT ( 'NONE',  ( -1.500000000000000000, 0.2499999999999892586, 38.37445384438259310 ) ) ;
#597 = VERTEX_POINT ( 'NONE', #224 ) ;
#598 = CARTESIAN_POINT ( 'NONE',  ( -3.000000000000000444, 2.522030248074426328, 39.05919905362843991 ) ) ;
#599 = DIRECTION ( 'NONE',  ( 0.0000000000000000000, -1.355252715606879310E-16, 1.000000000000000000 ) ) ;
#600 = AXIS2_PLACEMENT_3D ( 'NONE', #1097, #730, #913 ) ;
#601 = EDGE_CURVE ( 'NONE', #1135, #227, #488, .T. ) ;
#602 = AXIS2_PLACEMENT_3D ( 'NONE', #165, #249, #172 ) ;
#603 = VERTEX_POINT ( 'NONE', #870 ) ;
#604 = AXIS2_PLACEMENT_3D ( 'NONE', #76, #894, #618 ) ;
#605 = AXIS2_PLACEMENT_3D ( 'NONE', #327, #489, #38 ) ;
#606 = VERTEX_POINT ( 'NONE', #383 ) ;
#607 = DIRECTION ( 'NONE',  ( 0.0000000000000000000, 1.000000000000000000, 0.0000000000000000000 ) ) ;
#608 = DIRECTION ( 'NONE',  ( 0.0000000000000000000, -0.0000000000000000000, -1.000000000000000000 ) ) ;
#609 = DIRECTION ( 'NONE',  ( 0.0000000000000000000, -1.000000000000000000, 0.0000000000000000000 ) ) ;
#610 = ADVANCED_FACE ( 'NONE', ( #595 ), #840, .T. ) ;
#611 = VERTEX_POINT ( 'NONE', #862 ) ;
#612 = ORIENTED_EDGE ( 'NONE', *, *, #562, .T. ) ;
#613 = DIRECTION ( 'NONE',  ( 0.0000000000000000000, -1.000000000000000000, 0.0000000000000000000 ) ) ;
#614 = DIRECTION ( 'NONE',  ( -1.000000000000000000, -0.0000000000000000000, -0.0000000000000000000 ) ) ;
#615 = DIRECTION ( 'NONE',  ( -0.0000000000000000000, 1.000000000000000000, -0.0000000000000000000 ) ) ;
#616 = ORIENTED_EDGE ( 'NONE', *, *, #98, .F. ) ;
#617 = ORIENTED_EDGE ( 'NONE', *, *, #804, .F. ) ;
#618 = DIRECTION ( 'NONE',  ( -1.000000000000000000, 0.0000000000000000000, -0.0000000000000000000 ) ) ;
#619 = ADVANCED_FACE ( 'NONE', ( #749 ), #23, .T. ) ;
#620 = DIRECTION ( 'NONE',  ( 0.0000000000000000000, 0.0000000000000000000, -1.000000000000000000 ) ) ;
#621 = VECTOR ( 'NONE', #574, 1000.000000000000000 ) ;
#622 = ORIENTED_EDGE ( 'NONE', *, *, #762, .F. ) ;
#623 = VECTOR ( 'NONE', #1164, 1000.000000000000000 ) ;
#624 = ORIENTED_EDGE ( 'NONE', *, *, #855, .F. ) ;
#625 = DIRECTION ( 'NONE',  ( 0.0000000000000000000, 4.626832771081885755E-14, 1.000000000000000000 ) ) ;
#626 = CIRCLE ( 'NONE', #29, 2.099999999999997868 ) ;
#627 = AXIS2_PLACEMENT_3D ( 'NONE', #70, #1058, #540 ) ;
#628 = PRODUCT_DEFINITION ( 'UNKNOWN', '', #236, #276 ) ;
#629 = DIRECTION ( 'NONE',  ( 0.0000000000000000000, 6.938893903907222461E-16, 1.000000000000000000 ) ) ;
#630 = PLANE ( 'NONE',  #235 ) ;
#631 = FACE_OUTER_BOUND ( 'NONE', #1062, .T. ) ;
#632 = ORIENTED_EDGE ( 'NONE', *, *, #22, .T. ) ;
#633 = CARTESIAN_POINT ( 'NONE',  ( 0.0000000000000000000, 2.554204323672438992, 39.02470918450901394 ) ) ;
#634 = DIRECTION ( 'NONE',  ( -0.0000000000000000000, 1.000000000000000000, 0.0000000000000000000 ) ) ;
#635 = LINE ( 'NONE', #240, #304 ) ;
#636 = CARTESIAN_POINT ( 'NONE',  ( -1.500000000000000000, 0.2499999999999892586, 36.37445384438259310 ) ) ;
#637 = VERTEX_POINT ( 'NONE', #1043 ) ;
#638 = CARTESIAN_POINT ( 'NONE',  ( -1.626303258728255073E-15, 2.350000000000000089, 39.12400501298395028 ) ) ;
#639 = DIRECTION ( 'NONE',  ( 0.0000000000000000000, -1.245649483684703253E-16, 1.000000000000000000 ) ) ;
#640 =( NAMED_UNIT ( * ) SI_UNIT ( $, .STERADIAN. ) SOLID_ANGLE_UNIT ( ) );
#641 = ORIENTED_EDGE ( 'NONE', *, *, #474, .F. ) ;
#642 = EDGE_CURVE ( 'NONE', #362, #830, #419, .T. ) ;
#643 = AXIS2_PLACEMENT_3D ( 'NONE', #661, #130, #19 ) ;
#644 = ORIENTED_EDGE ( 'NONE', *, *, #267, .T. ) ;
#645 = CARTESIAN_POINT ( 'NONE',  ( -3.000000000000000000, 0.1000000000000000056, 41.75050561346442635 ) ) ;
#646 = CIRCLE ( 'NONE', #142, 0.1000000000000028644 ) ;
#647 = AXIS2_PLACEMENT_3D ( 'NONE', #1156, #694, #625 ) ;
#648 = CARTESIAN_POINT ( 'NONE',  ( -3.500000000000000000, 0.3999999999999902522, 33.37445384438259310 ) ) ;
#649 = CARTESIAN_POINT ( 'NONE',  ( -3.500000000000000000, 0.3999999999999902522, 33.37445384438259310 ) ) ;
#650 = CARTESIAN_POINT ( 'NONE',  ( -3.500000000000000000, 0.1499999999999906963, 33.19128773024156231 ) ) ;
#651 = EDGE_CURVE ( 'NONE', #812, #139, #143, .T. ) ;
#652 = EDGE_LOOP ( 'NONE', ( #437, #41 ) ) ;
#653 = DIRECTION ( 'NONE',  ( 0.0000000000000000000, -1.245649483684703253E-16, 1.000000000000000000 ) ) ;
#654 = DIRECTION ( 'NONE',  ( 1.000000000000000000, -0.0000000000000000000, 0.0000000000000000000 ) ) ;
#655 = ORIENTED_EDGE ( 'NONE', *, *, #1079, .T. ) ;
#656 = ORIENTED_EDGE ( 'NONE', *, *, #311, .F. ) ;
#657 = FACE_OUTER_BOUND ( 'NONE', #652, .T. ) ;
#658 = EDGE_CURVE ( 'NONE', #1175, #196, #17, .T. ) ;
#659 = CARTESIAN_POINT ( 'NONE',  ( -3.000000000000000000, 2.649999999999999911, 0.0000000000000000000 ) ) ;
#660 = CARTESIAN_POINT ( 'NONE',  ( -3.000000000000000000, 0.1000000000000000056, 41.75050561346442635 ) ) ;
#661 = CARTESIAN_POINT ( 'NONE',  ( -3.500000000000000000, -9.525252223139416639E-15, 31.45050561346442208 ) ) ;
#662 = ORIENTED_EDGE ( 'NONE', *, *, #187, .F. ) ;
#663 = VECTOR ( 'NONE', #115, 1000.000000000000000 ) ;
#664 = VECTOR ( 'NONE', #959, 1000.000000000000000 ) ;
#665 = ADVANCED_FACE ( 'NONE', ( #104 ), #1014, .T. ) ;
#666 = DIRECTION ( 'NONE',  ( 0.0000000000000000000, 0.0000000000000000000, -1.000000000000000000 ) ) ;
#667 = VECTOR ( 'NONE', #1158, 1000.000000000000000 ) ;
#668 = CARTESIAN_POINT ( 'NONE',  ( -3.000000000000000000, 2.649999999999999911, 39.12400501298395028 ) ) ;
#669 = CARTESIAN_POINT ( 'NONE',  ( -3.000000000000000000, 0.1500000000000000500, 42.00050561346442635 ) ) ;
#670 = ORIENTED_EDGE ( 'NONE', *, *, #213, .T. ) ;
#671 = CARTESIAN_POINT ( 'NONE',  ( -1.500000000000000000, 0.3999999999999897526, 37.25050561346442635 ) ) ;
#672 = EDGE_CURVE ( 'NONE', #531, #1161, #113, .T. ) ;
#673 = ORIENTED_EDGE ( 'NONE', *, *, #168, .T. ) ;
#674 = LINE ( 'NONE', #943, #63 ) ;
#675 = DIRECTION ( 'NONE',  ( -0.0000000000000000000, 0.0000000000000000000, 1.000000000000000000 ) ) ;
#676 = ADVANCED_FACE ( 'NONE', ( #265 ), #967, .T. ) ;
#677 = ORIENTED_EDGE ( 'NONE', *, *, #579, .T. ) ;
#678 = VECTOR ( 'NONE', #549, 1000.000000000000000 ) ;
#679 = DIRECTION ( 'NONE',  ( 1.000000000000000000, 0.0000000000000000000, 0.0000000000000000000 ) ) ;
#680 = AXIS2_PLACEMENT_3D ( 'NONE', #54, #613, #1141 ) ;
#681 = LINE ( 'NONE', #1037, #232 ) ;
#682 = ORIENTED_EDGE ( 'NONE', *, *, #591, .T. ) ;
#683 = EDGE_CURVE ( 'NONE', #538, #580, #199, .T. ) ;
#684 = CARTESIAN_POINT ( 'NONE',  ( -2.999999999999999556, 2.442835240000319263, 39.10953430096971317 ) ) ;
#685 = LINE ( 'NONE', #314, #338 ) ;
#686 = DIRECTION ( 'NONE',  ( 0.0000000000000000000, 0.0000000000000000000, -1.000000000000000000 ) ) ;
#687 = VERTEX_POINT ( 'NONE', #988 ) ;
#688 = DIRECTION ( 'NONE',  ( 0.0000000000000000000, 0.0000000000000000000, -1.000000000000000000 ) ) ;
#689 = ADVANCED_FACE ( 'NONE', ( #69 ), #515, .T. ) ;
#690 = FILL_AREA_STYLE_COLOUR ( '', #492 ) ;
#691 = LINE ( 'NONE', #416, #903 ) ;
#692 = ORIENTED_EDGE ( 'NONE', *, *, #116, .T. ) ;
#693 = VERTEX_POINT ( 'NONE', #875 ) ;
#694 = DIRECTION ( 'NONE',  ( 0.0000000000000000000, 1.000000000000000000, -4.625929269271475698E-14 ) ) ;
#695 = VECTOR ( 'NONE', #936, 1000.000000000000000 ) ;
#696 = EDGE_CURVE ( 'NONE', #564, #868, #520, .T. ) ;
#697 = LINE ( 'NONE', #150, #125 ) ;
#698 = CIRCLE ( 'NONE', #586, 2.399999999999999467 ) ;
#699 = CIRCLE ( 'NONE', #1075, 0.5000000000000004441 ) ;
#700 = ORIENTED_EDGE ( 'NONE', *, *, #804, .T. ) ;
#701 = AXIS2_PLACEMENT_3D ( 'NONE', #649, #1009, #556 ) ;
#702 = ORIENTED_EDGE ( 'NONE', *, *, #138, .T. ) ;
#703 = CARTESIAN_POINT ( 'NONE',  ( -0.0000000000000000000, 2.629312184476794823, 38.90709502296799371 ) ) ;
#704 = CARTESIAN_POINT ( 'NONE',  ( -3.000000000000000000, 0.0000000000000000000, 0.0000000000000000000 ) ) ;
#705 =( NAMED_UNIT ( * ) PLANE_ANGLE_UNIT ( ) SI_UNIT ( $, .RADIAN. ) );
#706 = ORIENTED_EDGE ( 'NONE', *, *, #1028, .F. ) ;
#707 = ORIENTED_EDGE ( 'NONE', *, *, #364, .T. ) ;
#708 = CARTESIAN_POINT ( 'NONE',  ( -1.626303258728255073E-15, 2.350000000000000089, 39.12400501298395028 ) ) ;
#709 = CARTESIAN_POINT ( 'NONE',  ( -3.000000000000000000, 2.649999999999999911, 41.75050561346442635 ) ) ;
#710 = DIRECTION ( 'NONE',  ( 0.0000000000000000000, 0.0000000000000000000, -1.000000000000000000 ) ) ;
#711 = ORIENTED_EDGE ( 'NONE', *, *, #80, .T. ) ;
#712 = EDGE_CURVE ( 'NONE', #1004, #873, #109, .T. ) ;
#713 = ORIENTED_EDGE ( 'NONE', *, *, #1028, .T. ) ;
#714 = CARTESIAN_POINT ( 'NONE',  ( -3.500000000000000000, 0.2499999999999892586, 36.37445384438259310 ) ) ;
#715 = CARTESIAN_POINT ( 'NONE',  ( -3.000000000000000000, 0.1500000000000008271, 43.15050561346442493 ) ) ;
#716 = LINE ( 'NONE', #162, #721 ) ;
#717 = ORIENTED_EDGE ( 'NONE', *, *, #40, .F. ) ;
#718 = CIRCLE ( 'NONE', #219, 2.099999999999997868 ) ;
#719 = VERTEX_POINT ( 'NONE', #423 ) ;
#720 = DIRECTION ( 'NONE',  ( 1.000000000000000000, 0.0000000000000000000, 0.0000000000000000000 ) ) ;
#721 = VECTOR ( 'NONE', #169, 1000.000000000000000 ) ;
#722 = AXIS2_PLACEMENT_3D ( 'NONE', #1036, #409, #306 ) ;
#723 = ADVANCED_FACE ( 'NONE', ( #255 ), #539, .T. ) ;
#724 = CARTESIAN_POINT ( 'NONE',  ( 0.0000000000000000000, 2.550000000000000266, 41.75050561346442635 ) ) ;
#725 = CARTESIAN_POINT ( 'NONE',  ( -1.500000000000000000, 0.3999999999999897526, 37.25050561346442635 ) ) ;
#726 = CARTESIAN_POINT ( 'NONE',  ( -1.500000000000000000, 11.76665222413704903, 33.85050561346442777 ) ) ;
#727 = ORIENTED_EDGE ( 'NONE', *, *, #193, .T. ) ;
#728 = CARTESIAN_POINT ( 'NONE',  ( 0.0000000000000000000, 0.0000000000000000000, 41.85050561346442777 ) ) ;
#729 = EDGE_CURVE ( 'NONE', #354, #769, #1035, .T. ) ;
#730 = DIRECTION ( 'NONE',  ( 0.0000000000000000000, -1.000000000000000000, 0.0000000000000000000 ) ) ;
#731 = LINE ( 'NONE', #371, #90 ) ;
#732 = DIRECTION ( 'NONE',  ( 0.0000000000000000000, 0.8066622230139982586, 0.5910127392553519154 ) ) ;
#733 = ORIENTED_EDGE ( 'NONE', *, *, #1015, .F. ) ;
#734 = CARTESIAN_POINT ( 'NONE',  ( 0.0000000000000000000, 0.0000000000000000000, 0.0000000000000000000 ) ) ;
#735 = DIRECTION ( 'NONE',  ( 0.0000000000000000000, 0.0000000000000000000, -1.000000000000000000 ) ) ;
#736 = SURFACE_STYLE_FILL_AREA ( #1098 ) ;
#737 = DIRECTION ( 'NONE',  ( 0.0000000000000000000, 0.8066622230139982586, 0.5910127392553519154 ) ) ;
#738 = ORIENTED_EDGE ( 'NONE', *, *, #560, .F. ) ;
#739 = CARTESIAN_POINT ( 'NONE',  ( -3.500000000000000000, 0.3999999999999902522, 33.37445384438259310 ) ) ;
#740 = VECTOR ( 'NONE', #639, 1000.000000000000000 ) ;
#741 = VECTOR ( 'NONE', #1006, 1000.000000000000000 ) ;
#742 = COLOUR_RGB ( '',0.8274509803921568096, 0.8392156862745098200, 0.8274509803921568096 ) ;
#743 = DIRECTION ( 'NONE',  ( 0.0000000000000000000, -0.0000000000000000000, -1.000000000000000000 ) ) ;
#744 = FILL_AREA_STYLE_COLOUR ( '', #742 ) ;
#745 = CYLINDRICAL_SURFACE ( 'NONE', #1142, 3.400000000000000355 ) ;
#746 = ADVANCED_FACE ( 'NONE', ( #1162 ), #1070, .T. ) ;
#747 = ORIENTED_EDGE ( 'NONE', *, *, #642, .F. ) ;
#748 = LINE ( 'NONE', #566, #905 ) ;
#749 = FACE_OUTER_BOUND ( 'NONE', #978, .T. ) ;
#750 = LINE ( 'NONE', #660, #851 ) ;
#751 = DIRECTION ( 'NONE',  ( -0.0000000000000000000, -1.000000000000000000, -0.0000000000000000000 ) ) ;
#752 = VERTEX_POINT ( 'NONE', #153 ) ;
#753 = EDGE_CURVE ( 'NONE', #1161, #777, #355, .T. ) ;
#754 = DIRECTION ( 'NONE',  ( -0.0000000000000000000, 6.938893903907222461E-16, 1.000000000000000000 ) ) ;
#755 = CARTESIAN_POINT ( 'NONE',  ( -1.500000000000000000, 0.3999999999999897526, 37.25050561346442635 ) ) ;
#756 = CARTESIAN_POINT ( 'NONE',  ( -3.500000000000000000, -9.525252223139424528E-15, 33.26733949932340551 ) ) ;
#757 = ORIENTED_EDGE ( 'NONE', *, *, #298, .T. ) ;
#758 = VECTOR ( 'NONE', #737, 1000.000000000000114 ) ;
#759 = AXIS2_PLACEMENT_3D ( 'NONE', #765, #301, #212 ) ;
#760 = AXIS2_PLACEMENT_3D ( 'NONE', #341, #1060, #818 ) ;
#761 = DIRECTION ( 'NONE',  ( 0.0000000000000000000, -1.000000000000000000, 0.0000000000000000000 ) ) ;
#762 = EDGE_CURVE ( 'NONE', #766, #21, #900, .T. ) ;
#763 =( GEOMETRIC_REPRESENTATION_CONTEXT ( 3 ) GLOBAL_UNCERTAINTY_ASSIGNED_CONTEXT ( ( #1176 ) ) GLOBAL_UNIT_ASSIGNED_CONTEXT ( ( #592, #947, #581 ) ) REPRESENTATION_CONTEXT ( 'NONE', 'WORKASPACE' ) );
#764 = STYLED_ITEM ( 'NONE', ( #856 ), #1174 ) ;
#765 = CARTESIAN_POINT ( 'NONE',  ( -3.000000000000000000, 0.2500000000000000000, 42.00050561346442635 ) ) ;
#766 = VERTEX_POINT ( 'NONE', #880 ) ;
#767 = ADVANCED_FACE ( 'NONE', ( #59 ), #1050, .T. ) ;
#768 = LINE ( 'NONE', #496, #375 ) ;
#769 = VERTEX_POINT ( 'NONE', #714 ) ;
#770 = DIRECTION ( 'NONE',  ( 0.0000000000000000000, 0.0000000000000000000, -1.000000000000000000 ) ) ;
#771 = DIRECTION ( 'NONE',  ( 0.0000000000000000000, 0.0000000000000000000, -1.000000000000000000 ) ) ;
#772 = ORIENTED_EDGE ( 'NONE', *, *, #193, .F. ) ;
#773 = VECTOR ( 'NONE', #686, 1000.000000000000000 ) ;
#774 = FACE_OUTER_BOUND ( 'NONE', #349, .T. ) ;
#775 = CIRCLE ( 'NONE', #941, 0.1000000000000028644 ) ;
#776 = CARTESIAN_POINT ( 'NONE',  ( 0.0000000000000000000, 2.649999999999999911, 41.75050561346442635 ) ) ;
#777 = VERTEX_POINT ( 'NONE', #533 ) ;
#778 = EDGE_CURVE ( 'NONE', #1068, #606, #450, .T. ) ;
#779 = CARTESIAN_POINT ( 'NONE',  ( -3.000000000000000000, 0.0000000000000000000, 41.75050561346442635 ) ) ;
#780 = CARTESIAN_POINT ( 'NONE',  ( -3.000000000000000000, 0.0000000000000000000, 43.15050561346442493 ) ) ;
#781 = ORIENTED_EDGE ( 'NONE', *, *, #364, .F. ) ;
#782 = ORIENTED_EDGE ( 'NONE', *, *, #762, .T. ) ;
#783 = CARTESIAN_POINT ( 'NONE',  ( -3.000000000000000000, 0.0000000000000000000, 43.15050561346442493 ) ) ;
#784 = EDGE_CURVE ( 'NONE', #1129, #53, #1047, .T. ) ;
#785 = CARTESIAN_POINT ( 'NONE',  ( -3.000000000000000000, 2.799999999999999822, 41.80050561346441640 ) ) ;
#786 = VERTEX_POINT ( 'NONE', #797 ) ;
#787 = ORIENTED_EDGE ( 'NONE', *, *, #828, .F. ) ;
#788 = DIRECTION ( 'NONE',  ( 0.0000000000000000000, -1.000000000000000000, 4.625929269271475698E-14 ) ) ;
#789 = ADVANCED_FACE ( 'NONE', ( #962 ), #826, .T. ) ;
#790 = FACE_OUTER_BOUND ( 'NONE', #960, .T. ) ;
#791 = VECTOR ( 'NONE', #576, 1000.000000000000000 ) ;
#792 = DIRECTION ( 'NONE',  ( 0.0000000000000000000, 1.000000000000000000, 1.301042606982606307E-16 ) ) ;
#793 = VECTOR ( 'NONE', #888, 1000.000000000000000 ) ;
#794 = VERTEX_POINT ( 'NONE', #728 ) ;
#795 = CIRCLE ( 'NONE', #260, 0.1000000000000028644 ) ;
#796 = ORIENTED_EDGE ( 'NONE', *, *, #712, .F. ) ;
#797 = CARTESIAN_POINT ( 'NONE',  ( -3.000000000000000000, 2.550000000000000266, 41.75050561346442635 ) ) ;
#798 = CARTESIAN_POINT ( 'NONE',  ( 0.5000000000000000000, 0.2499999999999892586, 33.45050561346442208 ) ) ;
#799 = EDGE_CURVE ( 'NONE', #538, #1099, #92, .T. ) ;
#800 = ORIENTED_EDGE ( 'NONE', *, *, #370, .F. ) ;
#801 = ORIENTED_EDGE ( 'NONE', *, *, #672, .T. ) ;
#802 = CARTESIAN_POINT ( 'NONE',  ( -1.500000000000000000, 1.682656506924938610E-12, 36.37445384438260731 ) ) ;
#803 = CARTESIAN_POINT ( 'NONE',  ( -1.500000000000000000, 2.649999999999999911, 35.15050561346443203 ) ) ;
#804 = EDGE_CURVE ( 'NONE', #1161, #597, #1089, .T. ) ;
#805 = DIRECTION ( 'NONE',  ( 0.0000000000000000000, 0.0000000000000000000, -1.000000000000000000 ) ) ;
#806 = ORIENTED_EDGE ( 'NONE', *, *, #579, .F. ) ;
#807 = CARTESIAN_POINT ( 'NONE',  ( -1.500000000000000000, 0.2499999999999892586, 36.37445384438259310 ) ) ;
#808 = DIRECTION ( 'NONE',  ( -0.0000000000000000000, -0.0000000000000000000, 1.000000000000000000 ) ) ;
#809 = SURFACE_SIDE_STYLE ('',( #1173 ) ) ;
#810 = VERTEX_POINT ( 'NONE', #645 ) ;
#811 = VECTOR ( 'NONE', #46, 1000.000000000000000 ) ;
#812 = VERTEX_POINT ( 'NONE', #839 ) ;
#813 = CARTESIAN_POINT ( 'NONE',  ( 0.5000000000000000000, 0.3999999999999902522, 33.37445384438259310 ) ) ;
#814 = VECTOR ( 'NONE', #710, 1000.000000000000000 ) ;
#815 = EDGE_CURVE ( 'NONE', #830, #794, #912, .T. ) ;
#816 = AXIS2_PLACEMENT_3D ( 'NONE', #182, #299, #274 ) ;
#817 = CARTESIAN_POINT ( 'NONE',  ( -1.500000000000000000, 11.76665222413704903, 37.25050561346442635 ) ) ;
#818 = DIRECTION ( 'NONE',  ( 0.0000000000000000000, -0.0000000000000000000, -1.000000000000000000 ) ) ;
#819 = ORIENTED_EDGE ( 'NONE', *, *, #6, .T. ) ;
#820 = EDGE_LOOP ( 'NONE', ( #670, #953, #417, #992 ) ) ;
#821 = CARTESIAN_POINT ( 'NONE',  ( 0.5000000000000000000, 0.1499999999999906963, 33.19128773024156231 ) ) ;
#822 = CARTESIAN_POINT ( 'NONE',  ( -3.000000000000000000, 2.799999999999999822, 41.90050561346442493 ) ) ;
#823 = CARTESIAN_POINT ( 'NONE',  ( 0.5000000000000000000, 0.3999999999999900857, 34.50096019649092227 ) ) ;
#824 = PLANE ( 'NONE',  #504 ) ;
#825 = ORIENTED_EDGE ( 'NONE', *, *, #729, .T. ) ;
#826 = PLANE ( 'NONE',  #86 ) ;
#827 = LINE ( 'NONE', #180, #884 ) ;
#828 = EDGE_CURVE ( 'NONE', #719, #362, #470, .T. ) ;
#829 = CARTESIAN_POINT ( 'NONE',  ( 0.0000000000000000000, 2.649999999999999911, 36.25050561346442635 ) ) ;
#830 = VERTEX_POINT ( 'NONE', #1102 ) ;
#831 = EDGE_LOOP ( 'NONE', ( #707, #324, #170, #747 ) ) ;
#832 = CARTESIAN_POINT ( 'NONE',  ( -3.500000000000000000, -9.525252223139424528E-15, 33.26733949932340551 ) ) ;
#833 = AXIS2_PLACEMENT_3D ( 'NONE', #360, #615, #78 ) ;
#834 = CARTESIAN_POINT ( 'NONE',  ( 0.0000000000000000000, 2.649999999999999911, 38.72019945913433503 ) ) ;
#835 = PRESENTATION_STYLE_ASSIGNMENT (( #389 ) ) ;
#836 = FACE_OUTER_BOUND ( 'NONE', #1029, .T. ) ;
#837 = EDGE_CURVE ( 'NONE', #493, #583, #12, .T. ) ;
#838 = EDGE_LOOP ( 'NONE', ( #796, #972, #368, #163, #81, #800 ) ) ;
#839 = CARTESIAN_POINT ( 'NONE',  ( -3.000000000000000000, 0.1500000000000000500, 42.00050561346442635 ) ) ;
#840 = PLANE ( 'NONE',  #279 ) ;
#841 = CARTESIAN_POINT ( 'NONE',  ( 0.0000000000000000000, 2.550000000000000266, 41.65050561346442493 ) ) ;
#842 = CARTESIAN_POINT ( 'NONE',  ( 0.5000000000000000000, 0.1499999999999906963, 33.19128773024156231 ) ) ;
#843 = ORIENTED_EDGE ( 'NONE', *, *, #424, .F. ) ;
#844 = DIRECTION ( 'NONE',  ( -1.000000000000000000, -0.0000000000000000000, -0.0000000000000000000 ) ) ;
#845 = DIRECTION ( 'NONE',  ( -1.000000000000000000, -0.0000000000000000000, -0.0000000000000000000 ) ) ;
#846 = CARTESIAN_POINT ( 'NONE',  ( -1.500000000000000000, 2.649999999999999911, 37.25050561346442635 ) ) ;
#847 = ORIENTED_EDGE ( 'NONE', *, *, #1147, .T. ) ;
#848 = VECTOR ( 'NONE', #754, 1000.000000000000000 ) ;
#849 = EDGE_CURVE ( 'NONE', #687, #9, #775, .T. ) ;
#850 =( GEOMETRIC_REPRESENTATION_CONTEXT ( 3 ) GLOBAL_UNCERTAINTY_ASSIGNED_CONTEXT ( ( #458 ) ) GLOBAL_UNIT_ASSIGNED_CONTEXT ( ( #1067, #705, #517 ) ) REPRESENTATION_CONTEXT ( 'NONE', 'WORKASPACE' ) );
#851 = VECTOR ( 'NONE', #845, 1000.000000000000000 ) ;
#852 = SURFACE_STYLE_USAGE ( .BOTH. , #495 ) ;
#853 = DIRECTION ( 'NONE',  ( 1.000000000000000000, 0.0000000000000000000, 0.0000000000000000000 ) ) ;
#854 = ORIENTED_EDGE ( 'NONE', *, *, #258, .F. ) ;
#855 = EDGE_CURVE ( 'NONE', #769, #583, #287, .T. ) ;
#856 = PRESENTATION_STYLE_ASSIGNMENT (( #852 ) ) ;
#857 = PLANE ( 'NONE',  #202 ) ;
#858 = EDGE_LOOP ( 'NONE', ( #518, #241, #1101, #874 ) ) ;
#859 = DIRECTION ( 'NONE',  ( -0.0000000000000000000, 1.000000000000000000, -0.0000000000000000000 ) ) ;
#860 = EDGE_CURVE ( 'NONE', #603, #354, #748, .T. ) ;
#861 = ORIENTED_EDGE ( 'NONE', *, *, #591, .F. ) ;
#862 = CARTESIAN_POINT ( 'NONE',  ( -1.500000000000000000, 0.3999999999999901967, 33.85050561346442777 ) ) ;
#863 = CLOSED_SHELL ( 'NONE', ( #247, #483, #513, #723, #521, #392, #535, #1013, #400, #676, #619, #285, #159, #305, #789, #665, #1040, #166, #1179, #999, #1094, #918, #14, #1033, #898, #1130, #610, #31, #176, #146, #1137, #256, #1007, #767, #689, #746 ) ) ;
#864 = AXIS2_PLACEMENT_3D ( 'NONE', #530, #1172, #280 ) ;
#865 = VECTOR ( 'NONE', #1012, 1000.000000000000000 ) ;
#866 = CARTESIAN_POINT ( 'NONE',  ( -3.000000000000000000, 0.0000000000000000000, 43.15050561346442493 ) ) ;
#867 = EDGE_CURVE ( 'NONE', #532, #1175, #626, .T. ) ;
#868 = VERTEX_POINT ( 'NONE', #186 ) ;
#869 = EDGE_LOOP ( 'NONE', ( #449, #1010, #1042, #1110, #702 ) ) ;
#870 = CARTESIAN_POINT ( 'NONE',  ( -1.500000000000000000, 0.3999999999999895861, 38.37445384438258600 ) ) ;
#871 = LINE ( 'NONE', #1127, #144 ) ;
#872 = CARTESIAN_POINT ( 'NONE',  ( -3.000000000000000000, 2.799999999999999822, 41.90050561346442493 ) ) ;
#873 = VERTEX_POINT ( 'NONE', #111 ) ;
#874 = ORIENTED_EDGE ( 'NONE', *, *, #1071, .F. ) ;
#875 = CARTESIAN_POINT ( 'NONE',  ( -3.500000000000000000, 0.3999999999999902522, 33.37445384438259310 ) ) ;
#876 = DIRECTION ( 'NONE',  ( 1.000000000000000000, 0.0000000000000000000, 0.0000000000000000000 ) ) ;
#877 = DIRECTION ( 'NONE',  ( 0.0000000000000000000, -1.275531967630004999E-16, 1.000000000000000000 ) ) ;
#878 = ORIENTED_EDGE ( 'NONE', *, *, #584, .T. ) ;
#879 = ORIENTED_EDGE ( 'NONE', *, *, #442, .F. ) ;
#880 = CARTESIAN_POINT ( 'NONE',  ( -3.000000000000000000, 2.799999999999999822, 36.25050561346442635 ) ) ;
#881 = EDGE_CURVE ( 'NONE', #1055, #500, #699, .T. ) ;
#882 = VECTOR ( 'NONE', #190, 1000.000000000000000 ) ;
#883 = LINE ( 'NONE', #866, #811 ) ;
#884 = VECTOR ( 'NONE', #461, 1000.000000000000000 ) ;
#885 = ORIENTED_EDGE ( 'NONE', *, *, #965, .T. ) ;
#886 = PRESENTATION_LAYER_ASSIGNMENT (  '', '', ( #764 ) ) ;
#887 = ORIENTED_EDGE ( 'NONE', *, *, #267, .F. ) ;
#888 = DIRECTION ( 'NONE',  ( 0.0000000000000000000, 1.000000000000000000, 0.0000000000000000000 ) ) ;
#889 = EDGE_CURVE ( 'NONE', #868, #210, #292, .T. ) ;
#890 = CARTESIAN_POINT ( 'NONE',  ( -1.500000000000000000, 2.649999999999999911, 37.25050561346442635 ) ) ;
#891 = CARTESIAN_POINT ( 'NONE',  ( -1.500000000000000000, 2.149999999999999911, 37.25050561346442635 ) ) ;
#892 = ORIENTED_EDGE ( 'NONE', *, *, #571, .F. ) ;
#893 = EDGE_LOOP ( 'NONE', ( #110, #915, #403, #922, #552, #164, #253, #457, #67, #966, #519, #231, #134, #57, #847 ) ) ;
#894 = DIRECTION ( 'NONE',  ( 0.0000000000000000000, 0.0000000000000000000, -1.000000000000000000 ) ) ;
#895 = CARTESIAN_POINT ( 'NONE',  ( -1.500000000000000000, 1.650000000000000355, 37.25050561346442635 ) ) ;
#896 = DIRECTION ( 'NONE',  ( 1.000000000000000000, 0.0000000000000000000, -0.0000000000000000000 ) ) ;
#897 = ORIENTED_EDGE ( 'NONE', *, *, #974, .T. ) ;
#898 = ADVANCED_FACE ( 'NONE', ( #553 ), #16, .T. ) ;
#899 = VERTEX_POINT ( 'NONE', #821 ) ;
#900 = LINE ( 'NONE', #82, #181 ) ;
#901 = CARTESIAN_POINT ( 'NONE',  ( -1.500000000000000000, 1.650000000000000355, 37.25050561346442635 ) ) ;
#902 = LINE ( 'NONE', #269, #667 ) ;
#903 = VECTOR ( 'NONE', #434, 1000.000000000000000 ) ;
#904 = DIRECTION ( 'NONE',  ( 0.0000000000000000000, 0.5910127392553519154, -0.8066622230139982586 ) ) ;
#905 = VECTOR ( 'NONE', #559, 1000.000000000000000 ) ;
#906 = VERTEX_POINT ( 'NONE', #1171 ) ;
#907 = DIRECTION ( 'NONE',  ( -1.000000000000000000, 0.0000000000000000000, -0.0000000000000000000 ) ) ;
#908 = FACE_OUTER_BOUND ( 'NONE', #981, .T. ) ;
#909 = CARTESIAN_POINT ( 'NONE',  ( 0.0000000000000000000, 2.649999999999999911, 39.12400501298395028 ) ) ;
#910 = LINE ( 'NONE', #95, #758 ) ;
#911 = ORIENTED_EDGE ( 'NONE', *, *, #466, .F. ) ;
#912 = LINE ( 'NONE', #1096, #741 ) ;
#913 = DIRECTION ( 'NONE',  ( 0.0000000000000000000, 0.0000000000000000000, -1.000000000000000000 ) ) ;
#914 = CARTESIAN_POINT ( 'NONE',  ( 0.0000000000000000000, 0.2500000000000000000, 41.90050561346442493 ) ) ;
#915 = ORIENTED_EDGE ( 'NONE', *, *, #258, .T. ) ;
#916 = ORIENTED_EDGE ( 'NONE', *, *, #778, .T. ) ;
#917 = DIRECTION ( 'NONE',  ( 0.0000000000000000000, 0.0000000000000000000, -1.000000000000000000 ) ) ;
#918 = ADVANCED_FACE ( 'NONE', ( #657, #363 ), #1178, .F. ) ;
#919 = LINE ( 'NONE', #931, #791 ) ;
#920 = CARTESIAN_POINT ( 'NONE',  ( -1.499999999999999556, 2.149999999999999911, 40.15050561346442493 ) ) ;
#921 = ORIENTED_EDGE ( 'NONE', *, *, #432, .F. ) ;
#922 = ORIENTED_EDGE ( 'NONE', *, *, #1061, .T. ) ;
#923 = DIRECTION ( 'NONE',  ( -0.0000000000000000000, 1.000000000000000000, -0.0000000000000000000 ) ) ;
#924 = AXIS2_PLACEMENT_3D ( 'NONE', #1131, #1039, #414 ) ;
#925 = CIRCLE ( 'NONE', #44, 3.400000000000000355 ) ;
#926 = AXIS2_PLACEMENT_3D ( 'NONE', #841, #1023, #550 ) ;
#927 = CARTESIAN_POINT ( 'NONE',  ( -3.000000000000000000, 2.649999999999999911, 38.72019945913433503 ) ) ;
#928 = DIRECTION ( 'NONE',  ( 0.0000000000000000000, 1.000000000000000000, 1.301042606982606307E-16 ) ) ;
#929 = DIRECTION ( 'NONE',  ( 0.0000000000000000000, 0.8066622230139982586, 0.5910127392553519154 ) ) ;
#930 = ORIENTED_EDGE ( 'NONE', *, *, #1154, .T. ) ;
#931 = CARTESIAN_POINT ( 'NONE',  ( 0.5000000000000000000, 1.682656506924938610E-12, 36.37445384438260731 ) ) ;
#932 = CARTESIAN_POINT ( 'NONE',  ( -3.500000000000000000, 0.2499999999999892586, 33.45050561346442208 ) ) ;
#933 = DIRECTION ( 'NONE',  ( 0.0000000000000000000, 1.000000000000000000, 1.301042606982606307E-16 ) ) ;
#934 = EDGE_CURVE ( 'NONE', #493, #478, #925, .T. ) ;
#935 = EDGE_LOOP ( 'NONE', ( #1150, #692, #612, #885 ) ) ;
#936 = DIRECTION ( 'NONE',  ( 0.0000000000000000000, 1.000000000000000000, 0.0000000000000000000 ) ) ;
#937 = ORIENTED_EDGE ( 'NONE', *, *, #407, .F. ) ;
#938 = EDGE_CURVE ( 'NONE', #611, #493, #490, .T. ) ;
#939 = AXIS2_PLACEMENT_3D ( 'NONE', #709, #541, #743 ) ;
#940 = EDGE_CURVE ( 'NONE', #2, #687, #716, .T. ) ;
#941 = AXIS2_PLACEMENT_3D ( 'NONE', #374, #907, #460 ) ;
#942 = CIRCLE ( 'NONE', #112, 0.1000000000000028644 ) ;
#943 = CARTESIAN_POINT ( 'NONE',  ( 0.0000000000000000000, 0.1500000000000008271, 43.15050561346442493 ) ) ;
#944 = CYLINDRICAL_SURFACE ( 'NONE', #759, 0.1000000000000028644 ) ;
#945 = ORIENTED_EDGE ( 'NONE', *, *, #889, .T. ) ;
#946 = EDGE_CURVE ( 'NONE', #1135, #1055, #204, .T. ) ;
#947 =( NAMED_UNIT ( * ) PLANE_ANGLE_UNIT ( ) SI_UNIT ( $, .RADIAN. ) );
#948 = DIRECTION ( 'NONE',  ( 0.0000000000000000000, -0.8066622230140080285, -0.5910127392553384817 ) ) ;
#949 = ORIENTED_EDGE ( 'NONE', *, *, #753, .T. ) ;
#950 = CARTESIAN_POINT ( 'NONE',  ( -3.000000000000000000, 2.397094904420916883, 39.12400501298394317 ) ) ;
#951 = CARTESIAN_POINT ( 'NONE',  ( 0.0000000000000000000, 0.1000000000000000056, 41.75050561346442635 ) ) ;
#952 = DIRECTION ( 'NONE',  ( 1.755374945928913753E-15, 0.0000000000000000000, -1.000000000000000000 ) ) ;
#953 = ORIENTED_EDGE ( 'NONE', *, *, #889, .F. ) ;
#954 = VERTEX_POINT ( 'NONE', #977 ) ;
#955 = CARTESIAN_POINT ( 'NONE',  ( -1.500000000000000000, 2.350000000000000089, 35.15050561346443203 ) ) ;
#956 = VECTOR ( 'NONE', #230, 1000.000000000000000 ) ;
#957 = DIRECTION ( 'NONE',  ( 0.0000000000000000000, -1.000000000000000000, 0.0000000000000000000 ) ) ;
#958 = VECTOR ( 'NONE', #993, 1000.000000000000000 ) ;
#959 = DIRECTION ( 'NONE',  ( 0.0000000000000000000, 0.0000000000000000000, -1.000000000000000000 ) ) ;
#960 = EDGE_LOOP ( 'NONE', ( #916, #329, #1063, #91, #945, #594, #1139, #408, #49 ) ) ;
#961 = ORIENTED_EDGE ( 'NONE', *, *, #370, .T. ) ;
#962 = FACE_OUTER_BOUND ( 'NONE', #893, .T. ) ;
#963 = DIRECTION ( 'NONE',  ( 0.0000000000000000000, 1.000000000000000000, 1.301042606982606307E-16 ) ) ;
#964 = ORIENTED_EDGE ( 'NONE', *, *, #554, .T. ) ;
#965 = EDGE_CURVE ( 'NONE', #719, #155, #65, .T. ) ;
#966 = ORIENTED_EDGE ( 'NONE', *, *, #432, .T. ) ;
#967 = PLANE ( 'NONE',  #604 ) ;
#968 = APPLICATION_PROTOCOL_DEFINITION ( 'draft international standard', 'automotive_design', 1998, #266 ) ;
#969 = CARTESIAN_POINT ( 'NONE',  ( -1.500000000000000000, 2.649999999999999911, 37.25050561346442635 ) ) ;
#970 = CARTESIAN_POINT ( 'NONE',  ( -1.499999999999999778, 2.149999999999999911, 34.85050561346442777 ) ) ;
#971 = ORIENTED_EDGE ( 'NONE', *, *, #128, .T. ) ;
#972 = ORIENTED_EDGE ( 'NONE', *, *, #326, .T. ) ;
#973 = DIRECTION ( 'NONE',  ( 0.0000000000000000000, -1.000000000000000000, 0.0000000000000000000 ) ) ;
#974 = EDGE_CURVE ( 'NONE', #693, #493, #902, .T. ) ;
#975 = DIRECTION ( 'NONE',  ( 0.0000000000000000000, -1.000000000000000000, 0.0000000000000000000 ) ) ;
#976 = AXIS2_PLACEMENT_3D ( 'NONE', #846, #1116, #771 ) ;
#977 = CARTESIAN_POINT ( 'NONE',  ( 0.5000000000000000000, 0.3999999999999902522, 33.37445384438259310 ) ) ;
#978 = EDGE_LOOP ( 'NONE', ( #131, #655, #386, #557 ) ) ;
#979 = B_SPLINE_CURVE_WITH_KNOTS ( 'NONE', 3,
 ( #927, #293, #141, #485, #598, #684, #950, #561 ),
 .UNSPECIFIED., .F., .F.,
 ( 4, 2, 2, 4 ),
 ( 0.0000000000000000000, 0.0002762675122823081701, 0.0004144012684234706307, 0.0005525350245646330370 ),
 .UNSPECIFIED. ) ;
#980 = CIRCLE ( 'NONE', #926, 0.1000000000000028644 ) ;
#981 = EDGE_LOOP ( 'NONE', ( #1170, #662, #271, #233, #1134, #682 ) ) ;
#982 = CARTESIAN_POINT ( 'NONE',  ( -1.500000000000000000, 1.650000000000000355, 37.25050561346442635 ) ) ;
#983 = EDGE_CURVE ( 'NONE', #74, #391, #352, .T. ) ;
#984 = CARTESIAN_POINT ( 'NONE',  ( -1.500000000000000000, 2.350000000000000089, 37.25050561346442635 ) ) ;
#985 = CARTESIAN_POINT ( 'NONE',  ( -3.000000000000000000, 0.1499999999999999667, 41.90050561346442493 ) ) ;
#986 = ORIENTED_EDGE ( 'NONE', *, *, #187, .T. ) ;
#987 = ORIENTED_EDGE ( 'NONE', *, *, #753, .F. ) ;
#988 = CARTESIAN_POINT ( 'NONE',  ( 0.0000000000000000000, 0.2500000000000000000, 41.90050561346442493 ) ) ;
#989 = DIRECTION ( 'NONE',  ( 0.0000000000000000000, 0.0000000000000000000, -1.000000000000000000 ) ) ;
#990 = PRODUCT_RELATED_PRODUCT_CATEGORY ( 'part', '', ( #250 ) ) ;
#991 = DIRECTION ( 'NONE',  ( 0.0000000000000000000, -1.000000000000000000, 0.0000000000000000000 ) ) ;
#992 = ORIENTED_EDGE ( 'NONE', *, *, #106, .T. ) ;
#993 = DIRECTION ( 'NONE',  ( 0.0000000000000000000, 4.240189396240100137E-30, -1.000000000000000000 ) ) ;
#994 = CARTESIAN_POINT ( 'NONE',  ( 0.0000000000000000000, 2.649999999999999911, 36.25050561346442635 ) ) ;
#995 = DIRECTION ( 'NONE',  ( 0.0000000000000000000, 0.0000000000000000000, -1.000000000000000000 ) ) ;
#996 = CIRCLE ( 'NONE', #472, 2.000000000000001776 ) ;
#997 = CARTESIAN_POINT ( 'NONE',  ( 0.0000000000000000000, 2.550000000000000266, 41.75050561346442635 ) ) ;
#998 = VECTOR ( 'NONE', #653, 1000.000000000000000 ) ;
#999 = ADVANCED_FACE ( 'NONE', ( #426 ), #87, .F. ) ;
#1000 = EDGE_LOOP ( 'NONE', ( #317, #28, #1153, #469 ) ) ;
#1001 = CARTESIAN_POINT ( 'NONE',  ( -3.000000000000000000, 0.1500000000000008271, 43.15050561346442493 ) ) ;
#1002 = DIRECTION ( 'NONE',  ( 0.0000000000000000000, -1.000000000000000000, 0.0000000000000000000 ) ) ;
#1003 = DIRECTION ( 'NONE',  ( 1.000000000000000000, 0.0000000000000000000, 0.0000000000000000000 ) ) ;
#1004 = VERTEX_POINT ( 'NONE', #970 ) ;
#1005 = ORIENTED_EDGE ( 'NONE', *, *, #80, .F. ) ;
#1006 = DIRECTION ( 'NONE',  ( 0.0000000000000000000, 0.0000000000000000000, -1.000000000000000000 ) ) ;
#1007 = ADVANCED_FACE ( 'NONE', ( #252 ), #1112, .T. ) ;
#1008 = DIRECTION ( 'NONE',  ( 0.0000000000000000000, -0.0000000000000000000, -1.000000000000000000 ) ) ;
#1009 = DIRECTION ( 'NONE',  ( -0.0000000000000000000, 1.000000000000000000, 1.301042606982606307E-16 ) ) ;
#1010 = ORIENTED_EDGE ( 'NONE', *, *, #356, .T. ) ;
#1011 = ORIENTED_EDGE ( 'NONE', *, *, #974, .F. ) ;
#1012 = DIRECTION ( 'NONE',  ( 0.0000000000000000000, -1.301042606982606060E-16, 1.000000000000000000 ) ) ;
#1013 = ADVANCED_FACE ( 'NONE', ( #73 ), #630, .T. ) ;
#1014 = CYLINDRICAL_SURFACE ( 'NONE', #548, 0.1000000000000028644 ) ;
#1015 = EDGE_CURVE ( 'NONE', #1055, #1135, #45, .T. ) ;
#1016 = FACE_OUTER_BOUND ( 'NONE', #214, .T. ) ;
#1017 = CARTESIAN_POINT ( 'NONE',  ( -3.000000000000000000, 0.1500000000000008271, 43.15050561346442493 ) ) ;
#1018 = ORIENTED_EDGE ( 'NONE', *, *, #48, .T. ) ;
#1019 = AXIS2_PLACEMENT_3D ( 'NONE', #1044, #332, #620 ) ;
#1020 = VECTOR ( 'NONE', #198, 1000.000000000000000 ) ;
#1021 = CARTESIAN_POINT ( 'NONE',  ( -2.999999999999998224, 2.350000000000000089, 39.12400501298395028 ) ) ;
#1022 = EDGE_CURVE ( 'NONE', #1083, #575, #635, .T. ) ;
#1023 = DIRECTION ( 'NONE',  ( -1.000000000000000000, 0.0000000000000000000, -0.0000000000000000000 ) ) ;
#1024 = PLANE ( 'NONE',  #643 ) ;
#1025 = VERTEX_POINT ( 'NONE', #829 ) ;
#1026 = CARTESIAN_POINT ( 'NONE',  ( -3.500000000000000000, 0.1499999999999909184, 31.45050561346442208 ) ) ;
#1027 = DIRECTION ( 'NONE',  ( 0.0000000000000000000, -1.275531967630004999E-16, 1.000000000000000000 ) ) ;
#1028 = EDGE_CURVE ( 'NONE', #1068, #611, #398, .T. ) ;
#1029 = EDGE_LOOP ( 'NONE', ( #733, #333, #1117, #96 ) ) ;
#1030 = DIRECTION ( 'NONE',  ( 0.0000000000000000000, 0.0000000000000000000, -1.000000000000000000 ) ) ;
#1031 = CARTESIAN_POINT ( 'NONE',  ( -3.000000000000000000, 0.2500000000000000000, 41.90050561346442493 ) ) ;
#1032 = ORIENTED_EDGE ( 'NONE', *, *, #1100, .T. ) ;
#1033 = ADVANCED_FACE ( 'NONE', ( #189 ), #114, .T. ) ;
#1034 = AXIS2_PLACEMENT_3D ( 'NONE', #955, #325, #501 ) ;
#1035 = CIRCLE ( 'NONE', #1126, 2.000000000000001776 ) ;
#1036 = CARTESIAN_POINT ( 'NONE',  ( -3.500000000000000000, 0.0000000000000000000, 0.0000000000000000000 ) ) ;
#1037 = CARTESIAN_POINT ( 'NONE',  ( 0.5000000000000000000, 0.2499999999999892586, 33.45050561346442208 ) ) ;
#1038 = ORIENTED_EDGE ( 'NONE', *, *, #72, .T. ) ;
#1039 = DIRECTION ( 'NONE',  ( 0.0000000000000000000, -1.000000000000000000, 0.0000000000000000000 ) ) ;
#1040 = ADVANCED_FACE ( 'NONE', ( #294 ), #481, .F. ) ;
#1041 = LINE ( 'NONE', #244, #1165 ) ;
#1042 = ORIENTED_EDGE ( 'NONE', *, *, #867, .T. ) ;
#1043 = CARTESIAN_POINT ( 'NONE',  ( 0.0000000000000000000, 2.799999999999999822, 41.80050561346441640 ) ) ;
#1044 = CARTESIAN_POINT ( 'NONE',  ( -1.500000000000000000, 1.650000000000000355, 37.25050561346442635 ) ) ;
#1045 = ORIENTED_EDGE ( 'NONE', *, *, #326, .F. ) ;
#1046 = ORIENTED_EDGE ( 'NONE', *, *, #121, .F. ) ;
#1047 = LINE ( 'NONE', #234, #570 ) ;
#1048 = AXIS2_PLACEMENT_3D ( 'NONE', #543, #89, #275 ) ;
#1049 = VECTOR ( 'NONE', #410, 1000.000000000000000 ) ;
#1050 = TOROIDAL_SURFACE ( 'NONE', #302, 2.899999999999999911, 0.5000000000000000000 ) ;
#1051 = AXIS2_PLACEMENT_3D ( 'NONE', #7, #195, #378 ) ;
#1052 = DIRECTION ( 'NONE',  ( 0.0000000000000000000, -1.000000000000000000, 0.0000000000000000000 ) ) ;
#1053 = EDGE_CURVE ( 'NONE', #637, #2, #795, .T. ) ;
#1054 = DIRECTION ( 'NONE',  ( -0.0000000000000000000, 1.000000000000000000, -0.0000000000000000000 ) ) ;
#1055 = VERTEX_POINT ( 'NONE', #920 ) ;
#1056 = ORIENTED_EDGE ( 'NONE', *, *, #498, .T. ) ;
#1057 = CARTESIAN_POINT ( 'NONE',  ( -3.500000000000000000, 0.1499999999999909184, 31.45050561346442208 ) ) ;
#1058 = DIRECTION ( 'NONE',  ( 0.0000000000000000000, 0.0000000000000000000, 1.000000000000000000 ) ) ;
#1059 = CARTESIAN_POINT ( 'NONE',  ( 0.0000000000000000000, 2.649999999999999911, 41.75050561346442635 ) ) ;
#1060 = DIRECTION ( 'NONE',  ( 0.0000000000000000000, -1.000000000000000000, 0.0000000000000000000 ) ) ;
#1061 = EDGE_CURVE ( 'NONE', #53, #418, #980, .T. ) ;
#1062 = EDGE_LOOP ( 'NONE', ( #1056, #616, #1005, #1038 ) ) ;
#1063 = ORIENTED_EDGE ( 'NONE', *, *, #983, .T. ) ;
#1064 = CARTESIAN_POINT ( 'NONE',  ( -0.0000000000000000000, 2.521302096699710837, 39.05975348965892380 ) ) ;
#1065 = MANIFOLD_SOLID_BREP ( 'Fillet4', #863 ) ;
#1066 = PLANE ( 'NONE',  #8 ) ;
#1067 =( LENGTH_UNIT ( ) NAMED_UNIT ( * ) SI_UNIT ( .MILLI., .METRE. ) );
#1068 = VERTEX_POINT ( 'NONE', #823 ) ;
#1069 = ORIENTED_EDGE ( 'NONE', *, *, #106, .F. ) ;
#1070 = CYLINDRICAL_SURFACE ( 'NONE', #281, 2.000000000000001776 ) ;
#1071 = EDGE_CURVE ( 'NONE', #139, #687, #1, .T. ) ;
#1072 = FACE_OUTER_BOUND ( 'NONE', #1000, .T. ) ;
#1073 = TOROIDAL_SURFACE ( 'NONE', #1019, 2.899999999999999911, 0.5000000000000000000 ) ;
#1074 = DIRECTION ( 'NONE',  ( 0.0000000000000000000, -1.275531967630004999E-16, 1.000000000000000000 ) ) ;
#1075 = AXIS2_PLACEMENT_3D ( 'NONE', #479, #103, #278 ) ;
#1076 = ORIENTED_EDGE ( 'NONE', *, *, #40, .T. ) ;
#1077 = VECTOR ( 'NONE', #208, 1000.000000000000000 ) ;
#1078 = EDGE_LOOP ( 'NONE', ( #673, #342, #296, #421 ) ) ;
#1079 = EDGE_CURVE ( 'NONE', #1129, #810, #750, .T. ) ;
#1080 = CARTESIAN_POINT ( 'NONE',  ( 0.5000000000000000000, 0.1499999999999909184, 31.45050561346442208 ) ) ;
#1081 = DIRECTION ( 'NONE',  ( 1.000000000000000000, 0.0000000000000000000, 0.0000000000000000000 ) ) ;
#1082 = CARTESIAN_POINT ( 'NONE',  ( 0.5000000000000000000, 0.3999999999999902522, 33.37445384438259310 ) ) ;
#1083 = VERTEX_POINT ( 'NONE', #668 ) ;
#1084 = CARTESIAN_POINT ( 'NONE',  ( -1.500000000000000000, 2.649999999999999911, 37.25050561346442635 ) ) ;
#1085 = CARTESIAN_POINT ( 'NONE',  ( -3.500000000000000000, 0.2499999999999892586, 33.45050561346442208 ) ) ;
#1086 = DIRECTION ( 'NONE',  ( -0.0000000000000000000, 6.938893903907222461E-16, 1.000000000000000000 ) ) ;
#1087 = LINE ( 'NONE', #1082, #567 ) ;
#1088 = ORIENTED_EDGE ( 'NONE', *, *, #938, .T. ) ;
#1089 = LINE ( 'NONE', #465, #998 ) ;
#1090 = LINE ( 'NONE', #648, #394 ) ;
#1091 = DIRECTION ( 'NONE',  ( -1.000000000000000000, 0.0000000000000000000, -0.0000000000000000000 ) ) ;
#1092 = AXIS2_PLACEMENT_3D ( 'NONE', #704, #145, #137 ) ;
#1093 = CARTESIAN_POINT ( 'NONE',  ( 0.5000000000000000000, 0.2499999999999892586, 36.37445384438259310 ) ) ;
#1094 = ADVANCED_FACE ( 'NONE', ( #1016 ), #100, .T. ) ;
#1095 = ORIENTED_EDGE ( 'NONE', *, *, #1022, .F. ) ;
#1096 = CARTESIAN_POINT ( 'NONE',  ( 0.0000000000000000000, 0.0000000000000000000, 43.15050561346442493 ) ) ;
#1097 = CARTESIAN_POINT ( 'NONE',  ( -1.500000000000000000, 2.350000000000000089, 37.25050561346442635 ) ) ;
#1098 = FILL_AREA_STYLE ('',( #744 ) ) ;
#1099 = VERTEX_POINT ( 'NONE', #909 ) ;
#1100 = EDGE_CURVE ( 'NONE', #526, #1083, #24, .T. ) ;
#1101 = ORIENTED_EDGE ( 'NONE', *, *, #849, .F. ) ;
#1102 = CARTESIAN_POINT ( 'NONE',  ( 0.0000000000000000000, 0.0000000000000000000, 43.15050561346442493 ) ) ;
#1103 = CARTESIAN_POINT ( 'NONE',  ( -3.000000000000000000, 0.2500000000000000000, 42.00050561346442635 ) ) ;
#1104 = LINE ( 'NONE', #669, #663 ) ;
#1105 = ORIENTED_EDGE ( 'NONE', *, *, #1145, .F. ) ;
#1106 = EDGE_CURVE ( 'NONE', #512, #564, #577, .T. ) ;
#1107 = DIRECTION ( 'NONE',  ( 0.0000000000000000000, 0.0000000000000000000, -1.000000000000000000 ) ) ;
#1108 = LINE ( 'NONE', #397, #695 ) ;
#1109 = AXIS2_PLACEMENT_3D ( 'NONE', #780, #1052, #608 ) ;
#1110 = ORIENTED_EDGE ( 'NONE', *, *, #658, .T. ) ;
#1111 = VECTOR ( 'NONE', #808, 1000.000000000000000 ) ;
#1112 = TOROIDAL_SURFACE ( 'NONE', #88, 2.100000000000000089, 0.2999999999999999889 ) ;
#1113 =( GEOMETRIC_REPRESENTATION_CONTEXT ( 3 ) GLOBAL_UNCERTAINTY_ASSIGNED_CONTEXT ( ( #385 ) ) GLOBAL_UNIT_ASSIGNED_CONTEXT ( ( #289, #107, #640 ) ) REPRESENTATION_CONTEXT ( 'NONE', 'WORKASPACE' ) );
#1114 = EDGE_CURVE ( 'NONE', #9, #155, #731, .T. ) ;
#1115 = CARTESIAN_POINT ( 'NONE',  ( -1.500000000000000000, 0.3999999999999898637, 36.37445384438258600 ) ) ;
#1116 = DIRECTION ( 'NONE',  ( 0.0000000000000000000, -1.000000000000000000, 0.0000000000000000000 ) ) ;
#1117 = ORIENTED_EDGE ( 'NONE', *, *, #554, .F. ) ;
#1118 = CARTESIAN_POINT ( 'NONE',  ( -3.000000000000000000, 0.0000000000000000000, 41.85050561346442777 ) ) ;
#1119 = ORIENTED_EDGE ( 'NONE', *, *, #529, .F. ) ;
#1120 = PLANE ( 'NONE',  #722 ) ;
#1121 = LINE ( 'NONE', #222, #505 ) ;
#1122 = EDGE_CURVE ( 'NONE', #906, #343, #942, .T. ) ;
#1123 = ORIENTED_EDGE ( 'NONE', *, *, #683, .F. ) ;
#1124 = VECTOR ( 'NONE', #33, 1000.000000000000000 ) ;
#1125 = AXIS2_PLACEMENT_3D ( 'NONE', #297, #844, #509 ) ;
#1126 = AXIS2_PLACEMENT_3D ( 'NONE', #807, #973, #438 ) ;
#1127 = CARTESIAN_POINT ( 'NONE',  ( -3.000000000000000000, 0.0000000000000000000, 41.75050561346442635 ) ) ;
#1128 = DIRECTION ( 'NONE',  ( 0.0000000000000000000, 0.0000000000000000000, -1.000000000000000000 ) ) ;
#1129 = VERTEX_POINT ( 'NONE', #951 ) ;
#1130 = ADVANCED_FACE ( 'NONE', ( #587 ), #132, .T. ) ;
#1131 = CARTESIAN_POINT ( 'NONE',  ( -1.500000000000000000, 2.149999999999999911, 37.25050561346442635 ) ) ;
#1132 = FILL_AREA_STYLE ('',( #690 ) ) ;
#1133 = LINE ( 'NONE', #64, #300 ) ;
#1134 = ORIENTED_EDGE ( 'NONE', *, *, #311, .T. ) ;
#1135 = VERTEX_POINT ( 'NONE', #405 ) ;
#1136 = DIRECTION ( 'NONE',  ( 1.000000000000000000, 0.0000000000000000000, 0.0000000000000000000 ) ) ;
#1137 = ADVANCED_FACE ( 'NONE', ( #774 ), #1120, .F. ) ;
#1138 = CARTESIAN_POINT ( 'NONE',  ( -1.500000000000000000, 0.3999999999999898637, 36.37445384438258600 ) ) ;
#1139 = ORIENTED_EDGE ( 'NONE', *, *, #407, .T. ) ;
#1140 = EDGE_LOOP ( 'NONE', ( #75, #277, #11, #887 ) ) ;
#1141 = DIRECTION ( 'NONE',  ( 0.0000000000000000000, 0.0000000000000000000, -1.000000000000000000 ) ) ;
#1142 = AXIS2_PLACEMENT_3D ( 'NONE', #447, #463, #805 ) ;
#1143 = AXIS2_PLACEMENT_3D ( 'NONE', #715, #261, #629 ) ;
#1144 = AXIS2_PLACEMENT_3D ( 'NONE', #725, #792, #1074 ) ;
#1145 = EDGE_CURVE ( 'NONE', #810, #786, #871, .T. ) ;
#1146 = PLANE ( 'NONE',  #1092 ) ;
#1147 = EDGE_CURVE ( 'NONE', #155, #830, #674, .T. ) ;
#1148 = CARTESIAN_POINT ( 'NONE',  ( -1.500000000000000000, 0.3999999999999897526, 37.25050561346442635 ) ) ;
#1149 = EDGE_LOOP ( 'NONE', ( #52, #148, #819, #1088, #156 ) ) ;
#1150 = ORIENTED_EDGE ( 'NONE', *, *, #1114, .F. ) ;
#1151 = CARTESIAN_POINT ( 'NONE',  ( 1.801101151695469974E-31, 2.442786959746697129, 39.10947244309861048 ) ) ;
#1152 = FACE_OUTER_BOUND ( 'NONE', #290, .T. ) ;
#1153 = ORIENTED_EDGE ( 'NONE', *, *, #22, .F. ) ;
#1154 = EDGE_CURVE ( 'NONE', #810, #565, #1169, .T. ) ;
#1155 = EDGE_LOOP ( 'NONE', ( #151, #117, #429, #459 ) ) ;
#1156 = CARTESIAN_POINT ( 'NONE',  ( -1.500000000000000000, 0.3999999999998970490, 36.37445384438258600 ) ) ;
#1157 = FACE_OUTER_BOUND ( 'NONE', #935, .T. ) ;
#1158 = DIRECTION ( 'NONE',  ( 0.0000000000000000000, -1.301042606982606060E-16, 1.000000000000000000 ) ) ;
#1159 = DIRECTION ( 'NONE',  ( -0.0000000000000000000, -1.000000000000000000, -1.301042606982606307E-16 ) ) ;
#1160 = EDGE_CURVE ( 'NONE', #418, #526, #685, .T. ) ;
#1161 = VERTEX_POINT ( 'NONE', #1026 ) ;
#1162 = FACE_OUTER_BOUND ( 'NONE', #468, .T. ) ;
#1163 = CIRCLE ( 'NONE', #1048, 0.1000000000000028644 ) ;
#1164 = DIRECTION ( 'NONE',  ( 0.0000000000000000000, 1.000000000000000000, 0.0000000000000000000 ) ) ;
#1165 = VECTOR ( 'NONE', #614, 1000.000000000000000 ) ;
#1166 = DIRECTION ( 'NONE',  ( 0.0000000000000000000, -1.000000000000000000, 0.0000000000000000000 ) ) ;
#1167 = VECTOR ( 'NONE', #1081, 1000.000000000000000 ) ;
#1168 = DIRECTION ( 'NONE',  ( 0.0000000000000000000, 0.0000000000000000000, -1.000000000000000000 ) ) ;
#1169 = CIRCLE ( 'NONE', #454, 0.1000000000000028644 ) ;
#1170 = ORIENTED_EDGE ( 'NONE', *, *, #778, .F. ) ;
#1171 = CARTESIAN_POINT ( 'NONE',  ( -3.000000000000000000, 2.700000000000000178, 41.90050561346442493 ) ) ;
#1172 = DIRECTION ( 'NONE',  ( 0.0000000000000000000, 1.000000000000000000, 1.301042606982606307E-16 ) ) ;
#1173 = SURFACE_STYLE_FILL_AREA ( #523 ) ;
#1174 = ADVANCED_BREP_SHAPE_REPRESENTATION ( 'User Library-DSK-3R3H', ( #1065, #627 ), #763 ) ;
#1175 = VERTEX_POINT ( 'NONE', #211 ) ;
#1176 = UNCERTAINTY_MEASURE_WITH_UNIT (LENGTH_MEASURE( 1.000000000000000082E-05 ), #592, 'distance_accuracy_value', 'NONE');
#1177 = EDGE_LOOP ( 'NONE', ( #506, #436, #223, #911 ) ) ;
#1178 = PLANE ( 'NONE',  #259 ) ;
#1179 = ADVANCED_FACE ( 'NONE', ( #415 ), #136, .T. ) ;
#1180 = CARTESIAN_POINT ( 'NONE',  ( 0.0000000000000000000, 2.649999999999999911, 41.65050561346442493 ) ) ;
ENDSEC;
END-ISO-10303-21;
