EESchema Schematic File Version 4
EELAYER 30 0
EELAYER END
$Descr User 19685 13780
encoding utf-8
Sheet 1 2
Title "Wordclock"
Date "24.11.2019"
Rev ""
Comp ""
Comment1 ""
Comment2 ""
Comment3 ""
Comment4 ""
$EndDescr
$Comp
L Wordclock:MountingHole H1
U 1 1 5EF7C824
P 11400 2500
F 0 "H1" H 11500 2546 50  0000 L CNN
F 1 "MountingHole" H 11500 2455 50  0000 L CNN
F 2 "Wordclock_V1:MountingHole_5mm" H 11400 2500 50  0001 C CNN
F 3 "~" H 11400 2500 50  0001 C CNN
	1    11400 2500
	1    0    0    -1  
$EndComp
$Comp
L Wordclock:MountingHole H2
U 1 1 5EF88524
P 11400 2800
F 0 "H2" H 11500 2846 50  0000 L CNN
F 1 "MountingHole" H 11500 2755 50  0000 L CNN
F 2 "Wordclock_V1:MountingHole_5mm" H 11400 2800 50  0001 C CNN
F 3 "~" H 11400 2800 50  0001 C CNN
	1    11400 2800
	1    0    0    -1  
$EndComp
$Comp
L Wordclock:MountingHole H3
U 1 1 5EF889DA
P 11400 3100
F 0 "H3" H 11500 3146 50  0000 L CNN
F 1 "MountingHole" H 11500 3055 50  0000 L CNN
F 2 "Wordclock_V1:MountingHole_5mm" H 11400 3100 50  0001 C CNN
F 3 "~" H 11400 3100 50  0001 C CNN
	1    11400 3100
	1    0    0    -1  
$EndComp
$Comp
L Wordclock:MountingHole H4
U 1 1 5EF88EAA
P 11400 3400
F 0 "H4" H 11500 3446 50  0000 L CNN
F 1 "MountingHole" H 11500 3355 50  0000 L CNN
F 2 "Wordclock_V1:MountingHole_5mm" H 11400 3400 50  0001 C CNN
F 3 "~" H 11400 3400 50  0001 C CNN
	1    11400 3400
	1    0    0    -1  
$EndComp
$Comp
L Wordclock:MountingHole H5
U 1 1 6162ACDF
P 12350 2500
F 0 "H5" H 12450 2546 50  0000 L CNN
F 1 "MountingHole" H 12450 2455 50  0000 L CNN
F 2 "Wordclock_V1:MountingHole_5mm" H 12350 2500 50  0001 C CNN
F 3 "~" H 12350 2500 50  0001 C CNN
	1    12350 2500
	1    0    0    -1  
$EndComp
$Comp
L Wordclock:MountingHole H6
U 1 1 5FA3DFA3
P 12350 2800
F 0 "H6" H 12450 2846 50  0000 L CNN
F 1 "MountingHole" H 12450 2755 50  0000 L CNN
F 2 "Wordclock_V1:MountingHole_5mm" H 12350 2800 50  0001 C CNN
F 3 "~" H 12350 2800 50  0001 C CNN
	1    12350 2800
	1    0    0    -1  
$EndComp
$Comp
L Wordclock:MountingHole H7
U 1 1 6162B5FC
P 12350 3100
F 0 "H7" H 12450 3146 50  0000 L CNN
F 1 "MountingHole" H 12450 3055 50  0000 L CNN
F 2 "Wordclock_V1:MountingHole_5mm" H 12350 3100 50  0001 C CNN
F 3 "~" H 12350 3100 50  0001 C CNN
	1    12350 3100
	1    0    0    -1  
$EndComp
$Comp
L Wordclock:MountingHole H8
U 1 1 5FA3DFA5
P 12350 3400
F 0 "H8" H 12450 3446 50  0000 L CNN
F 1 "MountingHole" H 12450 3355 50  0000 L CNN
F 2 "Wordclock_V1:MountingHole_5mm" H 12350 3400 50  0001 C CNN
F 3 "~" H 12350 3400 50  0001 C CNN
	1    12350 3400
	1    0    0    -1  
$EndComp
$Comp
L Wordclock:MountingHole H9
U 1 1 61A75067
P 13250 2500
F 0 "H9" H 13350 2546 50  0000 L CNN
F 1 "MountingHole" H 13350 2455 50  0000 L CNN
F 2 "Wordclock_V1:MountingHole_5mm" H 13250 2500 50  0001 C CNN
F 3 "~" H 13250 2500 50  0001 C CNN
	1    13250 2500
	1    0    0    -1  
$EndComp
$Comp
L Wordclock:MountingHole H10
U 1 1 61A7506D
P 13250 2800
F 0 "H10" H 13350 2846 50  0000 L CNN
F 1 "MountingHole" H 13350 2755 50  0000 L CNN
F 2 "Wordclock_V1:MountingHole_5mm" H 13250 2800 50  0001 C CNN
F 3 "~" H 13250 2800 50  0001 C CNN
	1    13250 2800
	1    0    0    -1  
$EndComp
$Sheet
S 8250 6850 550  200 
U 60220980
F0 "Leds" 50
F1 "Leds.sch" 50
F2 "leds" I R 8800 6950 50 
$EndSheet
$Comp
L Wordclock:GND #PWR0354
U 1 1 5DD1B463
P 9500 5850
F 0 "#PWR0354" H 9500 5600 50  0001 C CNN
F 1 "GND" H 9505 5677 50  0000 C CNN
F 2 "" H 9500 5850 50  0001 C CNN
F 3 "" H 9500 5850 50  0001 C CNN
	1    9500 5850
	-1   0    0    -1  
$EndComp
$Comp
L Wordclock:GND #PWR0353
U 1 1 5F2FE97B
P 9800 5850
F 0 "#PWR0353" H 9800 5600 50  0001 C CNN
F 1 "GND" H 9805 5677 50  0000 C CNN
F 2 "" H 9800 5850 50  0001 C CNN
F 3 "" H 9800 5850 50  0001 C CNN
	1    9800 5850
	-1   0    0    -1  
$EndComp
$Comp
L Wordclock:GND #PWR0355
U 1 1 5F2FE97C
P 8450 5850
F 0 "#PWR0355" H 8450 5600 50  0001 C CNN
F 1 "GND" H 8455 5677 50  0000 C CNN
F 2 "" H 8450 5850 50  0001 C CNN
F 3 "" H 8450 5850 50  0001 C CNN
	1    8450 5850
	-1   0    0    -1  
$EndComp
Wire Wire Line
	9500 5200 9500 5850
Wire Wire Line
	8450 5400 8450 5850
Wire Wire Line
	8450 5000 8450 5100
Wire Wire Line
	8600 5000 8450 5000
Wire Wire Line
	9800 5400 9800 5850
Wire Wire Line
	9500 5000 9800 5000
Wire Wire Line
	9800 5000 9800 5100
Connection ~ 9800 5000
$Comp
L Wordclock:C C121
U 1 1 5F2FE981
P 8450 5250
F 0 "C121" H 8565 5296 50  0000 L CNN
F 1 "1u" H 8565 5205 50  0000 L CNN
F 2 "Wordclock_V1:C_0805_2012Metric" H 8488 5100 50  0001 C CNN
F 3 "~" H 8450 5250 50  0001 C CNN
	1    8450 5250
	-1   0    0    -1  
$EndComp
$Comp
L Wordclock:C C120
U 1 1 5F2FE982
P 9800 5250
F 0 "C120" H 9915 5296 50  0000 L CNN
F 1 "1u" H 9915 5205 50  0000 L CNN
F 2 "Wordclock_V1:C_0805_2012Metric" H 9838 5100 50  0001 C CNN
F 3 "~" H 9800 5250 50  0001 C CNN
	1    9800 5250
	-1   0    0    -1  
$EndComp
Wire Wire Line
	3750 10650 3750 10550
Wire Wire Line
	3750 10200 3750 10250
$Comp
L Wordclock:C C124
U 1 1 5DD2973F
P 3750 10400
F 0 "C124" H 3865 10446 50  0000 L CNN
F 1 "100n" H 3865 10355 50  0000 L CNN
F 2 "Wordclock_V1:C_0805_2012Metric" H 3788 10250 50  0001 C CNN
F 3 "~" H 3750 10400 50  0001 C CNN
	1    3750 10400
	1    0    0    -1  
$EndComp
$Comp
L Wordclock:GND #PWR0367
U 1 1 5F2FE984
P 3750 10800
F 0 "#PWR0367" H 3750 10550 50  0001 C CNN
F 1 "GND" H 3755 10627 50  0000 C CNN
F 2 "" H 3750 10800 50  0001 C CNN
F 3 "" H 3750 10800 50  0001 C CNN
	1    3750 10800
	1    0    0    -1  
$EndComp
Wire Wire Line
	3750 10800 3750 10650
Connection ~ 3750 10650
$Comp
L Wordclock:+3.3V #PWR0359
U 1 1 5DD2ACDC
P 3750 10100
F 0 "#PWR0359" H 3750 9950 50  0001 C CNN
F 1 "+3.3V" H 3765 10273 50  0000 C CNN
F 2 "" H 3750 10100 50  0001 C CNN
F 3 "" H 3750 10100 50  0001 C CNN
	1    3750 10100
	1    0    0    -1  
$EndComp
Wire Wire Line
	3750 10100 3750 10200
Connection ~ 3750 10200
$Comp
L Wordclock:C C139
U 1 1 5DD2E92E
P 5700 10500
F 0 "C139" H 5815 10546 50  0000 L CNN
F 1 "100n" H 5815 10455 50  0000 L CNN
F 2 "Wordclock_V1:C_0805_2012Metric" H 5738 10350 50  0001 C CNN
F 3 "~" H 5700 10500 50  0001 C CNN
	1    5700 10500
	-1   0    0    -1  
$EndComp
$Comp
L Wordclock:GND #PWR0395
U 1 1 5DD2F65E
P 5700 10750
F 0 "#PWR0395" H 5700 10500 50  0001 C CNN
F 1 "GND" H 5705 10577 50  0000 C CNN
F 2 "" H 5700 10750 50  0001 C CNN
F 3 "" H 5700 10750 50  0001 C CNN
	1    5700 10750
	-1   0    0    -1  
$EndComp
$Comp
L Wordclock:+3.3V #PWR0386
U 1 1 5DD2F886
P 5700 10250
F 0 "#PWR0386" H 5700 10100 50  0001 C CNN
F 1 "+3.3V" H 5715 10423 50  0000 C CNN
F 2 "" H 5700 10250 50  0001 C CNN
F 3 "" H 5700 10250 50  0001 C CNN
	1    5700 10250
	-1   0    0    -1  
$EndComp
Wire Wire Line
	5700 10250 5700 10350
Wire Wire Line
	5700 10650 5700 10750
$Comp
L Wordclock:C C135
U 1 1 5DD1C125
P 5350 6200
F 0 "C135" H 5465 6246 50  0000 L CNN
F 1 "100n" H 5465 6155 50  0000 L CNN
F 2 "Wordclock_V1:C_0805_2012Metric" H 5388 6050 50  0001 C CNN
F 3 "~" H 5350 6200 50  0001 C CNN
	1    5350 6200
	-1   0    0    -1  
$EndComp
$Comp
L Wordclock:GND #PWR0388
U 1 1 5DD1CB8C
P 5350 6450
F 0 "#PWR0388" H 5350 6200 50  0001 C CNN
F 1 "GND" H 5355 6277 50  0000 C CNN
F 2 "" H 5350 6450 50  0001 C CNN
F 3 "" H 5350 6450 50  0001 C CNN
	1    5350 6450
	1    0    0    -1  
$EndComp
$Comp
L Wordclock:+3.3V #PWR0371
U 1 1 5DD1D064
P 5350 5950
F 0 "#PWR0371" H 5350 5800 50  0001 C CNN
F 1 "+3.3V" H 5365 6123 50  0000 C CNN
F 2 "" H 5350 5950 50  0001 C CNN
F 3 "" H 5350 5950 50  0001 C CNN
	1    5350 5950
	1    0    0    -1  
$EndComp
$Comp
L Wordclock:+3.3V #PWR0345
U 1 1 5F2FE97F
P 8450 4850
F 0 "#PWR0345" H 8450 4700 50  0001 C CNN
F 1 "+3.3V" H 8465 5023 50  0000 C CNN
F 2 "" H 8450 4850 50  0001 C CNN
F 3 "" H 8450 4850 50  0001 C CNN
	1    8450 4850
	-1   0    0    -1  
$EndComp
Wire Wire Line
	8450 4850 8450 5000
Connection ~ 8450 5000
Text Label 7500 5550 0    50   ~ 0
MTO0
Text Label 7500 5650 0    50   ~ 0
MTO1
Text Label 7500 5750 0    50   ~ 0
MTO3
$Comp
L Wordclock:R R10
U 1 1 5F2FE9A7
P 8050 10400
F 0 "R10" H 8118 10446 50  0000 L CNN
F 1 "10k" H 8118 10355 50  0000 L CNN
F 2 "Wordclock_V1:R_0805_2012Metric" H 8050 10400 50  0001 C CNN
F 3 "~" H 8050 10400 50  0001 C CNN
	1    8050 10400
	-1   0    0    -1  
$EndComp
$Comp
L Wordclock:R R7
U 1 1 5E21F162
P 8050 9850
F 0 "R7" H 8118 9896 50  0000 L CNN
F 1 "4k7" H 8118 9805 50  0000 L CNN
F 2 "Wordclock_V1:R_0805_2012Metric" H 8050 9850 50  0001 C CNN
F 3 "~" H 8050 9850 50  0001 C CNN
	1    8050 9850
	-1   0    0    -1  
$EndComp
$Comp
L Wordclock:+3.3V #PWR0384
U 1 1 5E21EB8B
P 8050 9600
F 0 "#PWR0384" H 8050 9450 50  0001 C CNN
F 1 "+3.3V" H 8065 9773 50  0000 C CNN
F 2 "" H 8050 9600 50  0001 C CNN
F 3 "" H 8050 9600 50  0001 C CNN
	1    8050 9600
	-1   0    0    -1  
$EndComp
$Comp
L Wordclock:R R9
U 1 1 5DE02139
P 4550 9400
F 0 "R9" H 4618 9446 50  0000 L CNN
F 1 "10k" H 4618 9355 50  0000 L CNN
F 2 "Wordclock_V1:R_0805_2012Metric" H 4550 9400 50  0001 C CNN
F 3 "~" H 4550 9400 50  0001 C CNN
	1    4550 9400
	1    0    0    -1  
$EndComp
$Comp
L Wordclock:+3.3V #PWR0387
U 1 1 5F2FE995
P 4550 9100
F 0 "#PWR0387" H 4550 8950 50  0001 C CNN
F 1 "+3.3V" H 4565 9273 50  0000 C CNN
F 2 "" H 4550 9100 50  0001 C CNN
F 3 "" H 4550 9100 50  0001 C CNN
	1    4550 9100
	1    0    0    -1  
$EndComp
$Comp
L Wordclock:GND #PWR0352
U 1 1 5F2FE9A2
P 10650 5850
F 0 "#PWR0352" H 10650 5600 50  0001 C CNN
F 1 "GND" H 10655 5677 50  0000 C CNN
F 2 "" H 10650 5850 50  0001 C CNN
F 3 "" H 10650 5850 50  0001 C CNN
	1    10650 5850
	-1   0    0    -1  
$EndComp
Wire Wire Line
	10400 5000 10650 5000
Connection ~ 10650 5000
Wire Wire Line
	3750 10200 4250 10200
Connection ~ 5700 10350
Connection ~ 5700 10650
Entry Wire Line
	8050 5550 7950 5650
Entry Wire Line
	8050 5650 7950 5750
Entry Wire Line
	8050 5450 7950 5550
$Comp
L Wordclock:R R3
U 1 1 5F3C3A6A
P 4500 5250
F 0 "R3" H 4568 5296 50  0000 L CNN
F 1 "4k7" H 4568 5205 50  0000 L CNN
F 2 "Wordclock_V1:R_0805_2012Metric" H 4500 5250 50  0001 C CNN
F 3 "~" H 4500 5250 50  0001 C CNN
	1    4500 5250
	0    -1   1    0   
$EndComp
$Comp
L Wordclock:R R4
U 1 1 5F3E4C58
P 4500 5500
F 0 "R4" H 4568 5546 50  0000 L CNN
F 1 "4k7" H 4568 5455 50  0000 L CNN
F 2 "Wordclock_V1:R_0805_2012Metric" H 4500 5500 50  0001 C CNN
F 3 "~" H 4500 5500 50  0001 C CNN
	1    4500 5500
	0    -1   1    0   
$EndComp
$Comp
L Wordclock:R R5
U 1 1 5F4015DC
P 4500 5750
F 0 "R5" H 4568 5796 50  0000 L CNN
F 1 "4k7" H 4568 5705 50  0000 L CNN
F 2 "Wordclock_V1:R_0805_2012Metric" H 4500 5750 50  0001 C CNN
F 3 "~" H 4500 5750 50  0001 C CNN
	1    4500 5750
	0    -1   1    0   
$EndComp
Text Label 9050 10050 0    50   ~ 0
SWDIO
Text Label 9050 10250 0    50   ~ 0
SWCLK
$Comp
L Wordclock:+3.3V #PWR0363
U 1 1 5EA1776A
P 8900 9700
F 0 "#PWR0363" H 8900 9550 50  0001 C CNN
F 1 "+3.3V" H 8915 9873 50  0000 C CNN
F 2 "" H 8900 9700 50  0001 C CNN
F 3 "" H 8900 9700 50  0001 C CNN
	1    8900 9700
	1    0    0    -1  
$EndComp
Text Label 9400 8850 0    50   ~ 0
LDR
$Comp
L Wordclock:GND #PWR0397
U 1 1 5F2FE9A8
P 7750 10600
F 0 "#PWR0397" H 7750 10350 50  0001 C CNN
F 1 "GND" H 7755 10427 50  0000 C CNN
F 2 "" H 7750 10600 50  0001 C CNN
F 3 "" H 7750 10600 50  0001 C CNN
	1    7750 10600
	-1   0    0    -1  
$EndComp
Wire Wire Line
	7750 10550 7750 10600
$Comp
L Wordclock:GND #PWR0396
U 1 1 5F2FE99D
P 8050 10600
F 0 "#PWR0396" H 8050 10350 50  0001 C CNN
F 1 "GND" H 8055 10427 50  0000 C CNN
F 2 "" H 8050 10600 50  0001 C CNN
F 3 "" H 8050 10600 50  0001 C CNN
	1    8050 10600
	-1   0    0    -1  
$EndComp
Wire Wire Line
	8050 10200 8050 10150
Wire Wire Line
	8050 10150 7750 10150
Wire Wire Line
	7750 10150 7750 10250
Connection ~ 8050 10150
Wire Wire Line
	8050 10150 8050 10050
Wire Wire Line
	8050 9650 8050 9600
Wire Wire Line
	8200 9400 8200 10150
Wire Wire Line
	8200 10150 8050 10150
$Comp
L Wordclock:BAS16GWX D115
U 1 1 5F2FE99E
P 10250 5000
F 0 "D115" H 10250 4784 50  0000 C CNN
F 1 "BAS16GWX" H 10250 4875 50  0000 C CNN
F 2 "Wordclock_V1:D_SOD-123" H 10250 5000 50  0001 C CNN
F 3 "~" H 10250 5000 50  0001 C CNN
	1    10250 5000
	1    0    0    1   
$EndComp
$Comp
L Wordclock:GND #PWR0366
U 1 1 5DE4DC41
P 8900 10300
F 0 "#PWR0366" H 8900 10050 50  0001 C CNN
F 1 "GND" H 8905 10127 50  0000 C CNN
F 2 "" H 8900 10300 50  0001 C CNN
F 3 "" H 8900 10300 50  0001 C CNN
	1    8900 10300
	1    0    0    -1  
$EndComp
Wire Wire Line
	8900 10300 8900 10150
Wire Wire Line
	8700 9850 8900 9850
Wire Wire Line
	8700 10150 8900 10150
Connection ~ 8900 10150
Wire Wire Line
	8900 10150 8900 9850
Wire Wire Line
	8700 9750 8900 9750
Wire Wire Line
	8900 9750 8900 9700
Wire Wire Line
	5950 10650 5700 10650
Wire Wire Line
	5950 10350 5700 10350
Text Label 9400 8950 0    50   ~ 0
SK6812
$Comp
L Wordclock:R R1
U 1 1 5E7A5E49
P 9250 6650
F 0 "R1" H 9318 6696 50  0000 L CNN
F 1 "4k7" H 9318 6605 50  0000 L CNN
F 2 "Wordclock_V1:R_0805_2012Metric" H 9250 6650 50  0001 C CNN
F 3 "~" H 9250 6650 50  0001 C CNN
	1    9250 6650
	-1   0    0    -1  
$EndComp
Wire Wire Line
	9250 6300 9250 6450
Wire Wire Line
	9250 6850 9250 6950
Wire Wire Line
	7950 5550 7450 5550
Wire Wire Line
	7950 5650 7250 5650
$Comp
L Wordclock:Conn_01x06 J3
U 1 1 5E9FAD4F
P 8500 10050
F 0 "J3" H 8650 10250 50  0000 C CNN
F 1 "490107670612" H 8650 10400 50  0000 C CNN
F 2 "Wordclock_V1:490107670612" H 8500 10050 50  0001 C CNN
F 3 "~" H 8500 10050 50  0001 C CNN
	1    8500 10050
	-1   0    0    1   
$EndComp
$Comp
L Wordclock:Conn_01x01 J6
U 1 1 60B8B1B5
P 3950 5250
F 0 "J6" H 4600 5250 50  0000 C CNN
F 1 "Taster3" H 4300 5250 50  0000 C CNN
F 2 "Wordclock_V1:pad" H 3950 5250 50  0001 C CNN
F 3 "~" H 3950 5250 50  0001 C CNN
	1    3950 5250
	-1   0    0    -1  
$EndComp
$Comp
L Wordclock:Conn_01x01 J7
U 1 1 60B8B3A6
P 3950 5000
F 0 "J7" H 4600 5000 50  0000 C CNN
F 1 "Guard" H 4300 5000 50  0000 C CNN
F 2 "Wordclock_V1:pad" H 3950 5000 50  0001 C CNN
F 3 "~" H 3950 5000 50  0001 C CNN
	1    3950 5000
	-1   0    0    -1  
$EndComp
Text Label 4200 5000 0    50   ~ 0
Guard
$Comp
L Wordclock:Conn_01x01 J4
U 1 1 60B88F20
P 3950 5750
F 0 "J4" H 4600 5700 50  0000 C CNN
F 1 "Taster1" H 4300 5700 50  0000 C CNN
F 2 "Wordclock_V1:pad" H 3950 5750 50  0001 C CNN
F 3 "~" H 3950 5750 50  0001 C CNN
	1    3950 5750
	-1   0    0    -1  
$EndComp
$Comp
L Wordclock:Conn_01x01 J5
U 1 1 60B8AEBA
P 3950 5500
F 0 "J5" H 4600 5500 50  0000 C CNN
F 1 "Taster2" H 4300 5500 50  0000 C CNN
F 2 "Wordclock_V1:pad" H 3950 5500 50  0001 C CNN
F 3 "~" H 3950 5500 50  0001 C CNN
	1    3950 5500
	-1   0    0    -1  
$EndComp
$Comp
L Wordclock:R R8
U 1 1 5FB1C1F0
P 7450 5250
F 0 "R8" V 7550 5250 50  0000 L CNN
F 1 "10k" V 7550 5100 50  0000 L CNN
F 2 "Wordclock_V1:R_0805_2012Metric" H 7450 5250 50  0001 C CNN
F 3 "~" H 7450 5250 50  0001 C CNN
	1    7450 5250
	1    0    0    1   
$EndComp
$Comp
L Wordclock:R R15
U 1 1 5FB1DFA0
P 7050 5250
F 0 "R15" V 7150 5250 50  0000 L CNN
F 1 "10k" V 7150 5100 50  0000 L CNN
F 2 "Wordclock_V1:R_0805_2012Metric" H 7050 5250 50  0001 C CNN
F 3 "~" H 7050 5250 50  0001 C CNN
	1    7050 5250
	1    0    0    1   
$EndComp
$Comp
L Wordclock:R R14
U 1 1 5FB1E70B
P 7250 5250
F 0 "R14" V 7350 5250 50  0000 L CNN
F 1 "10k" V 7350 5100 50  0000 L CNN
F 2 "Wordclock_V1:R_0805_2012Metric" H 7250 5250 50  0001 C CNN
F 3 "~" H 7250 5250 50  0001 C CNN
	1    7250 5250
	1    0    0    1   
$EndComp
Wire Wire Line
	7450 5450 7450 5550
Connection ~ 7450 5550
Wire Wire Line
	7450 5550 6900 5550
Wire Wire Line
	7250 5450 7250 5650
Connection ~ 7250 5650
Wire Wire Line
	7250 5650 6900 5650
$Comp
L Wordclock:+3.3V #PWR0391
U 1 1 5FD431F4
P 7450 4950
F 0 "#PWR0391" H 7450 4800 50  0001 C CNN
F 1 "+3.3V" H 7465 5123 50  0000 C CNN
F 2 "" H 7450 4950 50  0001 C CNN
F 3 "" H 7450 4950 50  0001 C CNN
	1    7450 4950
	1    0    0    -1  
$EndComp
$Comp
L Wordclock:+3.3V #PWR0393
U 1 1 5FD43E26
P 7050 4950
F 0 "#PWR0393" H 7050 4800 50  0001 C CNN
F 1 "+3.3V" H 7065 5123 50  0000 C CNN
F 2 "" H 7050 4950 50  0001 C CNN
F 3 "" H 7050 4950 50  0001 C CNN
	1    7050 4950
	1    0    0    -1  
$EndComp
Wire Wire Line
	3750 10650 4100 10650
Wire Wire Line
	9250 6950 8800 6950
$Comp
L Wordclock:+3.3V #PWR0398
U 1 1 5FC0E226
P 13100 9750
F 0 "#PWR0398" H 13100 9600 50  0001 C CNN
F 1 "+3.3V" H 13115 9923 50  0000 C CNN
F 2 "" H 13100 9750 50  0001 C CNN
F 3 "" H 13100 9750 50  0001 C CNN
	1    13100 9750
	1    0    0    -1  
$EndComp
Wire Wire Line
	13100 9750 13100 9800
$Comp
L Wordclock:C C136
U 1 1 5FC0E22D
P 13100 10500
F 0 "C136" H 13215 10546 50  0000 L CNN
F 1 "100n" H 13215 10455 50  0000 L CNN
F 2 "Wordclock_V1:C_0805_2012Metric" H 13138 10350 50  0001 C CNN
F 3 "~" H 13100 10500 50  0001 C CNN
	1    13100 10500
	1    0    0    -1  
$EndComp
$Comp
L Wordclock:GND #PWR0399
U 1 1 5FC0E233
P 13100 10750
F 0 "#PWR0399" H 13100 10500 50  0001 C CNN
F 1 "GND" H 13105 10577 50  0000 C CNN
F 2 "" H 13100 10750 50  0001 C CNN
F 3 "" H 13100 10750 50  0001 C CNN
	1    13100 10750
	1    0    0    -1  
$EndComp
Wire Wire Line
	13100 10100 13100 10200
Wire Wire Line
	13100 10650 13100 10750
$Comp
L Wordclock:R R16
U 1 1 5FC0E23B
P 13450 10200
F 0 "R16" H 13518 10246 50  0000 L CNN
F 1 "47" H 13518 10155 50  0000 L CNN
F 2 "Wordclock_V1:R_0805_2012Metric" H 13450 10200 50  0001 C CNN
F 3 "~" H 13450 10200 50  0001 C CNN
	1    13450 10200
	0    1    1    0   
$EndComp
Wire Wire Line
	13250 10200 13100 10200
Connection ~ 13100 10200
Wire Wire Line
	13100 10200 13100 10350
$Comp
L Wordclock:GND #PWR0402
U 1 1 5FC0E244
P 13850 10750
F 0 "#PWR0402" H 13850 10500 50  0001 C CNN
F 1 "GND" H 13855 10577 50  0000 C CNN
F 2 "" H 13850 10750 50  0001 C CNN
F 3 "" H 13850 10750 50  0001 C CNN
	1    13850 10750
	1    0    0    -1  
$EndComp
Wire Wire Line
	13850 10650 13850 10750
Wire Wire Line
	13650 10200 13850 10200
Wire Wire Line
	13850 10200 13850 10350
$Comp
L Wordclock:CP SP1
U 1 1 5FC0E24D
P 13850 10500
F 0 "SP1" V 14100 10200 50  0000 L CNN
F 1 "DSK-3R3H224U-HL " V 14000 10150 50  0000 L CNN
F 2 "Wordclock_V1:DSK-3R3H224U-HL" H 13888 10350 50  0001 C CNN
F 3 "" H 13850 10500 50  0001 C CNN
	1    13850 10500
	1    0    0    -1  
$EndComp
$Comp
L Device:D_Schottky D116
U 1 1 5FC6EECE
P 13100 9950
F 0 "D116" V 13146 9871 50  0000 R CNN
F 1 "DFLS130L-7" V 13055 9871 50  0000 R CNN
F 2 "Wordclock_V1:D_PowerDI-123" H 13100 9950 50  0001 C CNN
F 3 "~" H 13100 9950 50  0001 C CNN
	1    13100 9950
	0    -1   -1   0   
$EndComp
Wire Wire Line
	13100 10200 12950 10200
$Comp
L Wordclock:+3.3V #PWR0392
U 1 1 5FD4394E
P 7250 4950
F 0 "#PWR0392" H 7250 4800 50  0001 C CNN
F 1 "+3.3V" H 7265 5123 50  0000 C CNN
F 2 "" H 7250 4950 50  0001 C CNN
F 3 "" H 7250 4950 50  0001 C CNN
	1    7250 4950
	1    0    0    -1  
$EndComp
$Comp
L Wordclock:Wordclock_IRF9310 T1
U 1 1 5FBB6D56
P 12100 6200
F 0 "T1" V 12249 6200 50  0000 C CNN
F 1 "Wordclock_IRF9310" V 12340 6200 50  0000 C CNN
F 2 "Wordclock_V1:SO-8_3.9x4.9mm_P1.27mm" H 12100 6200 50  0001 C CNN
F 3 "" H 12100 6200 50  0001 C CNN
	1    12100 6200
	0    1    1    0   
$EndComp
$Comp
L Wordclock:R R17
U 1 1 5FBC76A0
P 12100 5600
F 0 "R17" H 12168 5646 50  0000 L CNN
F 1 "3k3" H 12168 5555 50  0000 L CNN
F 2 "Wordclock_V1:R_0805_2012Metric" H 12100 5600 50  0001 C CNN
F 3 "~" H 12100 5600 50  0001 C CNN
	1    12100 5600
	1    0    0    -1  
$EndComp
$Comp
L Wordclock:+5V #PWR0106
U 1 1 5FBC84FA
P 12100 5350
F 0 "#PWR0106" H 12100 5200 50  0001 C CNN
F 1 "+5V" H 12115 5523 50  0000 C CNN
F 2 "" H 12100 5350 50  0001 C CNN
F 3 "" H 12100 5350 50  0001 C CNN
	1    12100 5350
	1    0    0    -1  
$EndComp
$Comp
L Wordclock:+5V #PWR0107
U 1 1 5FBC8AE5
P 11800 5350
F 0 "#PWR0107" H 11800 5200 50  0001 C CNN
F 1 "+5V" H 11815 5523 50  0000 C CNN
F 2 "" H 11800 5350 50  0001 C CNN
F 3 "" H 11800 5350 50  0001 C CNN
	1    11800 5350
	1    0    0    -1  
$EndComp
$Comp
L Wordclock:Wordclock_+V_SK6812 #PWR0108
U 1 1 5FC6C077
P 9250 6300
F 0 "#PWR0108" H 9250 6150 50  0001 C CNN
F 1 "Wordclock_+V_SK6812" H 9265 6473 50  0000 C CNN
F 2 "" H 9250 6300 50  0001 C CNN
F 3 "" H 9250 6300 50  0001 C CNN
	1    9250 6300
	-1   0    0    -1  
$EndComp
$Comp
L Wordclock:Wordclock_+V_SK6812 #PWR0109
U 1 1 5FC6F4DE
P 12400 5350
F 0 "#PWR0109" H 12400 5200 50  0001 C CNN
F 1 "Wordclock_+V_SK6812" H 12900 5400 50  0000 C CNN
F 2 "" H 12400 5350 50  0001 C CNN
F 3 "" H 12400 5350 50  0001 C CNN
	1    12400 5350
	1    0    0    -1  
$EndComp
Wire Wire Line
	12100 5800 12100 5850
Wire Wire Line
	11900 6200 11800 6200
Wire Wire Line
	11800 5350 11800 6200
Wire Wire Line
	12100 5350 12100 5400
Wire Wire Line
	12400 5350 12400 6200
Wire Wire Line
	12400 6200 12300 6200
Connection ~ 12100 5850
Wire Wire Line
	12100 5850 12100 5900
$Comp
L Wordclock:Conn_01x05 J2
U 1 1 60FEE964
P 11250 5200
F 0 "J2" H 11168 4775 50  0000 C CNN
F 1 "1778793 + 1778861" H 11168 4866 50  0000 C CNN
F 2 "Wordclock_V1:TerminalBlock_Phoenix_PTSM-0,5-5-HH-2,5-SMD_R32" H 11250 5200 50  0001 C CNN
F 3 "" H 11250 5200 50  0001 C CNN
	1    11250 5200
	1    0    0    -1  
$EndComp
Wire Wire Line
	11050 5000 10650 5000
Wire Wire Line
	10650 5400 10650 5850
Wire Wire Line
	11050 5400 10650 5400
Text Label 11350 9250 0    50   ~ 0
P_LED
Wire Wire Line
	11050 5300 10650 5300
Wire Wire Line
	10650 5300 10650 5400
Connection ~ 10650 5400
Wire Wire Line
	11050 5100 10650 5100
Wire Wire Line
	10650 5100 10650 5000
$Comp
L Wordclock:MountingHole H11
U 1 1 613434DE
P 13250 3100
F 0 "H11" H 13350 3146 50  0000 L CNN
F 1 "MountingHole" H 13350 3055 50  0000 L CNN
F 2 "Wordclock_V1:MountingHole_5mm" H 13250 3100 50  0001 C CNN
F 3 "~" H 13250 3100 50  0001 C CNN
	1    13250 3100
	1    0    0    -1  
$EndComp
$Comp
L Wordclock:MountingHole H12
U 1 1 61343ED5
P 13250 3400
F 0 "H12" H 13350 3446 50  0000 L CNN
F 1 "MountingHole" H 13350 3355 50  0000 L CNN
F 2 "Wordclock_V1:MountingHole_5mm" H 13250 3400 50  0001 C CNN
F 3 "~" H 13250 3400 50  0001 C CNN
	1    13250 3400
	1    0    0    -1  
$EndComp
Wire Wire Line
	11050 5200 10650 5200
Wire Wire Line
	10650 5200 10650 5100
Connection ~ 10650 5100
Text Label 4200 5500 0    50   ~ 0
T2
Text Label 4200 5250 0    50   ~ 0
T3
$Comp
L Wordclock:MountingHole H13
U 1 1 5FCDB3B1
P 14150 2500
F 0 "H13" H 14250 2546 50  0000 L CNN
F 1 "MountingHole" H 14250 2455 50  0000 L CNN
F 2 "Wordclock_V1:MountingHole_5mm" H 14150 2500 50  0001 C CNN
F 3 "~" H 14150 2500 50  0001 C CNN
	1    14150 2500
	1    0    0    -1  
$EndComp
$Comp
L Wordclock:MountingHole H14
U 1 1 5FD3BE18
P 14150 2800
F 0 "H14" H 14250 2846 50  0000 L CNN
F 1 "MountingHole" H 14250 2755 50  0000 L CNN
F 2 "Wordclock_V1:MountingHole_5mm" H 14150 2800 50  0001 C CNN
F 3 "~" H 14150 2800 50  0001 C CNN
	1    14150 2800
	1    0    0    -1  
$EndComp
$Comp
L Wordclock:MountingHole H15
U 1 1 5FD3C4C7
P 14150 3100
F 0 "H15" H 14250 3146 50  0000 L CNN
F 1 "MountingHole" H 14250 3055 50  0000 L CNN
F 2 "Wordclock_V1:MountingHole_5mm" H 14150 3100 50  0001 C CNN
F 3 "~" H 14150 3100 50  0001 C CNN
	1    14150 3100
	1    0    0    -1  
$EndComp
$Comp
L Wordclock:MountingHole H16
U 1 1 5FD3CC1F
P 14150 3400
F 0 "H16" H 14250 3446 50  0000 L CNN
F 1 "MountingHole" H 14250 3355 50  0000 L CNN
F 2 "Wordclock_V1:MountingHole_5mm" H 14150 3400 50  0001 C CNN
F 3 "~" H 14150 3400 50  0001 C CNN
	1    14150 3400
	1    0    0    -1  
$EndComp
$Comp
L Wordclock:MountingHole H17
U 1 1 5FAC6A46
P 15050 2500
F 0 "H17" H 15150 2546 50  0000 L CNN
F 1 "MountingHole" H 15150 2455 50  0000 L CNN
F 2 "Wordclock_V1:MountingHole_5mm" H 15050 2500 50  0001 C CNN
F 3 "~" H 15050 2500 50  0001 C CNN
	1    15050 2500
	1    0    0    -1  
$EndComp
$Comp
L Wordclock:C C116
U 1 1 5FB0A16C
P 5350 2750
F 0 "C116" H 5465 2796 50  0000 L CNN
F 1 "10u/25V" H 5465 2705 50  0000 L CNN
F 2 "Wordclock_V1:C_1210_3225Metric" H 5388 2600 50  0001 C CNN
F 3 "~" H 5350 2750 50  0001 C CNN
	1    5350 2750
	1    0    0    -1  
$EndComp
$Comp
L Wordclock:GND #PWR010
U 1 1 5FB0AD6D
P 5350 3700
F 0 "#PWR010" H 5350 3450 50  0001 C CNN
F 1 "GND" H 5355 3527 50  0000 C CNN
F 2 "" H 5350 3700 50  0001 C CNN
F 3 "" H 5350 3700 50  0001 C CNN
	1    5350 3700
	-1   0    0    -1  
$EndComp
Wire Wire Line
	5350 2900 5350 3050
Wire Wire Line
	5850 2450 5350 2450
Wire Wire Line
	5350 2450 5350 2600
$Comp
L Wordclock:+12V #PWR06
U 1 1 5FB54842
P 5350 2250
F 0 "#PWR06" H 5350 2100 50  0001 C CNN
F 1 "+12V" H 5365 2423 50  0000 C CNN
F 2 "" H 5350 2250 50  0001 C CNN
F 3 "" H 5350 2250 50  0001 C CNN
	1    5350 2250
	1    0    0    -1  
$EndComp
Wire Wire Line
	5350 2250 5350 2450
Connection ~ 5350 2450
$Comp
L Wordclock:C C115
U 1 1 5FB673BD
P 7100 2700
F 0 "C115" H 7215 2746 50  0000 L CNN
F 1 "100n" H 7215 2655 50  0000 L CNN
F 2 "Wordclock_V1:C_0805_2012Metric" H 7138 2550 50  0001 C CNN
F 3 "~" H 7100 2700 50  0001 C CNN
	1    7100 2700
	1    0    0    -1  
$EndComp
$Comp
L Wordclock:L L1
U 1 1 5FB7FF6F
P 7350 2450
F 0 "L1" V 7600 2500 50  0000 L CNN
F 1 "4u7_wuerth_744779747" V 7500 2150 50  0000 L CNN
F 2 "Wordclock_V1:744779747" H 7350 2450 50  0001 C CNN
F 3 "~" H 7350 2450 50  0001 C CNN
	1    7350 2450
	0    -1   -1   0   
$EndComp
$Comp
L Wordclock:R R13
U 1 1 5FBCF7ED
P 7600 2750
F 0 "R13" H 7668 2796 50  0000 L CNN
F 1 "52k3" H 7668 2705 50  0000 L CNN
F 2 "Wordclock_V1:R_0805_2012Metric" H 7600 2750 50  0001 C CNN
F 3 "~" H 7600 2750 50  0001 C CNN
	1    7600 2750
	1    0    0    1   
$EndComp
$Comp
L Wordclock:R R18
U 1 1 5FBD4D64
P 7600 3300
F 0 "R18" H 7668 3346 50  0000 L CNN
F 1 "10k" H 7668 3255 50  0000 L CNN
F 2 "Wordclock_V1:R_0805_2012Metric" H 7600 3300 50  0001 C CNN
F 3 "~" H 7600 3300 50  0001 C CNN
	1    7600 3300
	1    0    0    -1  
$EndComp
Wire Wire Line
	7500 2450 7600 2450
Wire Wire Line
	7600 2450 7600 2550
Wire Wire Line
	7600 2950 7600 3050
$Comp
L Wordclock:GND #PWR07
U 1 1 5FCEFDF8
P 7600 3650
F 0 "#PWR07" H 7600 3400 50  0001 C CNN
F 1 "GND" H 7605 3477 50  0000 C CNN
F 2 "" H 7600 3650 50  0001 C CNN
F 3 "" H 7600 3650 50  0001 C CNN
	1    7600 3650
	-1   0    0    -1  
$EndComp
Wire Wire Line
	7600 3500 7600 3650
$Comp
L Wordclock:C C117
U 1 1 5FD03106
P 8000 3050
F 0 "C117" H 8115 3096 50  0000 L CNN
F 1 "22u/25V" H 8115 3005 50  0000 L CNN
F 2 "Wordclock_V1:C_1210_3225Metric" H 8038 2900 50  0001 C CNN
F 3 "~" H 8000 3050 50  0001 C CNN
	1    8000 3050
	1    0    0    -1  
$EndComp
$Comp
L Wordclock:C C125
U 1 1 5FD0372E
P 8550 3050
F 0 "C125" H 8665 3096 50  0000 L CNN
F 1 "22u/25V" H 8665 3005 50  0000 L CNN
F 2 "Wordclock_V1:C_1210_3225Metric" H 8588 2900 50  0001 C CNN
F 3 "~" H 8550 3050 50  0001 C CNN
	1    8550 3050
	1    0    0    -1  
$EndComp
Wire Wire Line
	7600 2450 8000 2450
Wire Wire Line
	8000 2450 8000 2900
Connection ~ 7600 2450
Wire Wire Line
	8000 2450 8550 2450
Wire Wire Line
	8550 2450 8550 2900
Connection ~ 8000 2450
$Comp
L Wordclock:GND #PWR08
U 1 1 5FD2AA51
P 8000 3650
F 0 "#PWR08" H 8000 3400 50  0001 C CNN
F 1 "GND" H 8005 3477 50  0000 C CNN
F 2 "" H 8000 3650 50  0001 C CNN
F 3 "" H 8000 3650 50  0001 C CNN
	1    8000 3650
	-1   0    0    -1  
$EndComp
$Comp
L Wordclock:GND #PWR09
U 1 1 5FD2AC96
P 8550 3650
F 0 "#PWR09" H 8550 3400 50  0001 C CNN
F 1 "GND" H 8555 3477 50  0000 C CNN
F 2 "" H 8550 3650 50  0001 C CNN
F 3 "" H 8550 3650 50  0001 C CNN
	1    8550 3650
	-1   0    0    -1  
$EndComp
Wire Wire Line
	8550 3200 8550 3650
Wire Wire Line
	8000 3200 8000 3650
Wire Wire Line
	7600 3050 6950 3050
Connection ~ 7600 3050
Wire Wire Line
	7600 3050 7600 3100
Wire Wire Line
	7200 2450 7100 2450
Wire Wire Line
	7100 2550 7100 2450
Connection ~ 7100 2450
Wire Wire Line
	7100 2450 6950 2450
Wire Wire Line
	6950 2900 7100 2900
Wire Wire Line
	7100 2900 7100 2850
$Comp
L Wordclock:AP62200WU IC8
U 1 1 5FDE465F
P 6400 2750
F 0 "IC8" H 6400 3275 50  0000 C CNN
F 1 "AP62200WU" H 6400 3184 50  0000 C CNN
F 2 "Wordclock_V1:TSOT-26" H 6400 2750 50  0001 C CNN
F 3 "" H 6400 2750 50  0001 C CNN
	1    6400 2750
	1    0    0    -1  
$EndComp
Wire Wire Line
	5850 3050 5350 3050
Connection ~ 5350 3050
Wire Wire Line
	5350 3050 5350 3700
$Comp
L Wordclock:+5V #PWR05
U 1 1 5FE55599
P 9750 2200
F 0 "#PWR05" H 9750 2050 50  0001 C CNN
F 1 "+5V" H 9765 2373 50  0000 C CNN
F 2 "" H 9750 2200 50  0001 C CNN
F 3 "" H 9750 2200 50  0001 C CNN
	1    9750 2200
	1    0    0    -1  
$EndComp
Wire Wire Line
	9750 2200 9750 2450
Connection ~ 8550 2450
$Comp
L Wordclock:Conn_01x05 J12
U 1 1 5FF30CA2
P 4750 2650
F 0 "J12" H 4668 2225 50  0000 C CNN
F 1 "1778793 + 1778861" H 4668 2316 50  0000 C CNN
F 2 "Wordclock_V1:TerminalBlock_Phoenix_PTSM-0,5-5-HH-2,5-SMD_R32" H 4750 2650 50  0001 C CNN
F 3 "" H 4750 2650 50  0001 C CNN
	1    4750 2650
	-1   0    0    -1  
$EndComp
Wire Wire Line
	5350 2450 5050 2450
Wire Wire Line
	4950 2550 5050 2550
Wire Wire Line
	5050 2550 5050 2450
Connection ~ 5050 2450
Wire Wire Line
	5050 2450 4950 2450
Wire Wire Line
	4950 2650 5050 2650
Wire Wire Line
	5050 2650 5050 2550
Connection ~ 5050 2550
Wire Wire Line
	4950 2750 5050 2750
Wire Wire Line
	5050 2750 5050 2850
Wire Wire Line
	5050 3050 5350 3050
Wire Wire Line
	4950 2850 5050 2850
Connection ~ 5050 2850
Wire Wire Line
	5050 2850 5050 3050
NoConn ~ 5850 2750
$Comp
L Wordclock:MountingHole H18
U 1 1 60087AE5
P 15050 2800
F 0 "H18" H 15150 2846 50  0000 L CNN
F 1 "MountingHole" H 15150 2755 50  0000 L CNN
F 2 "Wordclock_V1:MountingHole_5mm" H 15050 2800 50  0001 C CNN
F 3 "~" H 15050 2800 50  0001 C CNN
	1    15050 2800
	1    0    0    -1  
$EndComp
Wire Wire Line
	10100 5000 9800 5000
Text Label 9050 9950 0    50   ~ 0
NRST
$Comp
L Wordclock:Crystal Y1
U 1 1 5DD5401B
P 8450 8300
F 0 "Y1" H 8450 8700 50  0000 C CNN
F 1 "FC-135 32.7680KA-A / 3.2 x 1.5mm / 12.5pF" H 8100 7450 50  0000 C CNN
F 2 "Wordclock_V1:Crystal_Epson_FC135" H 8450 8300 50  0001 C CNN
F 3 "~" H 8450 8300 50  0001 C CNN
	1    8450 8300
	1    0    0    -1  
$EndComp
$Comp
L Wordclock:C C122
U 1 1 5DD55B8D
P 8150 8550
F 0 "C122" H 8265 8596 50  0000 L CNN
F 1 "12p" H 8265 8505 50  0000 L CNN
F 2 "Wordclock_V1:C_0805_2012Metric" H 8188 8400 50  0001 C CNN
F 3 "~" H 8150 8550 50  0001 C CNN
	1    8150 8550
	1    0    0    -1  
$EndComp
$Comp
L Wordclock:C C123
U 1 1 5DD55E31
P 8700 8550
F 0 "C123" H 8815 8596 50  0000 L CNN
F 1 "12p" H 8815 8505 50  0000 L CNN
F 2 "Wordclock_V1:C_0805_2012Metric" H 8738 8400 50  0001 C CNN
F 3 "~" H 8700 8550 50  0001 C CNN
	1    8700 8550
	1    0    0    -1  
$EndComp
Wire Wire Line
	8150 8300 8300 8300
Wire Wire Line
	8150 8400 8150 8300
Connection ~ 8150 8300
Wire Wire Line
	8700 8400 8700 8300
Connection ~ 8700 8300
Wire Wire Line
	8700 8300 8600 8300
$Comp
L Wordclock:GND #PWR0356
U 1 1 5DD998A6
P 8150 8750
F 0 "#PWR0356" H 8150 8500 50  0001 C CNN
F 1 "GND" H 8155 8577 50  0000 C CNN
F 2 "" H 8150 8750 50  0001 C CNN
F 3 "" H 8150 8750 50  0001 C CNN
	1    8150 8750
	1    0    0    -1  
$EndComp
$Comp
L Wordclock:GND #PWR0357
U 1 1 5DD99B5B
P 8700 8750
F 0 "#PWR0357" H 8700 8500 50  0001 C CNN
F 1 "GND" H 8705 8577 50  0000 C CNN
F 2 "" H 8700 8750 50  0001 C CNN
F 3 "" H 8700 8750 50  0001 C CNN
	1    8700 8750
	1    0    0    -1  
$EndComp
Wire Wire Line
	8700 8700 8700 8750
Wire Wire Line
	8150 8700 8150 8750
$Comp
L Wordclock:R R20
U 1 1 60681D26
P 4850 9400
F 0 "R20" H 4918 9446 50  0000 L CNN
F 1 "10k" H 4918 9355 50  0000 L CNN
F 2 "Wordclock_V1:R_0805_2012Metric" H 4850 9400 50  0001 C CNN
F 3 "~" H 4850 9400 50  0001 C CNN
	1    4850 9400
	1    0    0    -1  
$EndComp
$Comp
L Wordclock:SI7020 IC6
U 1 1 6064745F
P 6450 10450
F 0 "IC6" H 6475 10815 50  0000 C CNN
F 1 "SI7020" H 6475 10724 50  0000 C CNN
F 2 "Wordclock_V1:DFN-6-1EP_3x3mm_P1mm_EP1.5x2.4mm" H 6500 10450 50  0001 C CNN
F 3 "" H 6500 10450 50  0001 C CNN
	1    6450 10450
	1    0    0    -1  
$EndComp
Text Label 5400 10150 0    50   ~ 0
SCL
Text Label 5200 10150 0    50   ~ 0
SDA
$Comp
L Wordclock:+3.3V #PWR0400
U 1 1 6073AD67
P 4850 9100
F 0 "#PWR0400" H 4850 8950 50  0001 C CNN
F 1 "+3.3V" H 4865 9273 50  0000 C CNN
F 2 "" H 4850 9100 50  0001 C CNN
F 3 "" H 4850 9100 50  0001 C CNN
	1    4850 9100
	1    0    0    -1  
$EndComp
Wire Wire Line
	4850 9100 4850 9200
Wire Wire Line
	4550 9100 4550 9200
Connection ~ 9750 2450
$Comp
L Wordclock:L L5
U 1 1 61923CD1
P 9450 2450
F 0 "L5" V 9700 2500 50  0000 L CNN
F 1 "?" V 9600 2550 50  0000 L CNN
F 2 "Wordclock_V1:L_0603_1608Metric" H 9450 2450 50  0001 C CNN
F 3 "~" H 9450 2450 50  0001 C CNN
	1    9450 2450
	0    -1   -1   0   
$EndComp
Wire Wire Line
	9300 2450 9150 2450
$Comp
L Wordclock:C C141
U 1 1 61923CD8
P 9150 3050
F 0 "C141" H 9265 3096 50  0000 L CNN
F 1 "?" H 9265 3005 50  0000 L CNN
F 2 "Wordclock_V1:C_0603_1608Metric" H 9188 2900 50  0001 C CNN
F 3 "~" H 9150 3050 50  0001 C CNN
	1    9150 3050
	1    0    0    -1  
$EndComp
Wire Wire Line
	9150 2900 9150 2450
Wire Wire Line
	9750 2450 9750 2900
Wire Wire Line
	9600 2450 9750 2450
$Comp
L Wordclock:C C142
U 1 1 61923CE3
P 9750 3050
F 0 "C142" H 9865 3096 50  0000 L CNN
F 1 "?" H 9865 3005 50  0000 L CNN
F 2 "Wordclock_V1:C_0603_1608Metric" H 9788 2900 50  0001 C CNN
F 3 "~" H 9750 3050 50  0001 C CNN
	1    9750 3050
	1    0    0    -1  
$EndComp
Wire Wire Line
	8550 2450 9150 2450
Connection ~ 9150 2450
$Comp
L Wordclock:GND #PWR011
U 1 1 619DFAEE
P 9150 3650
F 0 "#PWR011" H 9150 3400 50  0001 C CNN
F 1 "GND" H 9155 3477 50  0000 C CNN
F 2 "" H 9150 3650 50  0001 C CNN
F 3 "" H 9150 3650 50  0001 C CNN
	1    9150 3650
	-1   0    0    -1  
$EndComp
$Comp
L Wordclock:GND #PWR012
U 1 1 619DFE43
P 9750 3650
F 0 "#PWR012" H 9750 3400 50  0001 C CNN
F 1 "GND" H 9755 3477 50  0000 C CNN
F 2 "" H 9750 3650 50  0001 C CNN
F 3 "" H 9750 3650 50  0001 C CNN
	1    9750 3650
	-1   0    0    -1  
$EndComp
Wire Wire Line
	9750 3200 9750 3650
Wire Wire Line
	9150 3200 9150 3650
Wire Wire Line
	10650 4650 10650 5000
$Comp
L Wordclock:C C118
U 1 1 61AA2F50
P 12300 10200
F 0 "C118" H 12415 10246 50  0000 L CNN
F 1 "100n" H 12415 10155 50  0000 L CNN
F 2 "Wordclock_V1:C_0805_2012Metric" H 12338 10050 50  0001 C CNN
F 3 "~" H 12300 10200 50  0001 C CNN
	1    12300 10200
	-1   0    0    -1  
$EndComp
Wire Wire Line
	12300 9950 12300 10050
Wire Wire Line
	12300 10450 12300 10350
$Comp
L Wordclock:GND #PWR02
U 1 1 61AC4F31
P 12300 10750
F 0 "#PWR02" H 12300 10500 50  0001 C CNN
F 1 "GND" H 12305 10577 50  0000 C CNN
F 2 "" H 12300 10750 50  0001 C CNN
F 3 "" H 12300 10750 50  0001 C CNN
	1    12300 10750
	-1   0    0    -1  
$EndComp
Wire Wire Line
	12300 10450 12300 10750
Connection ~ 12300 10450
$Comp
L Wordclock:+3.3V #PWR01
U 1 1 61AD7557
P 12300 9750
F 0 "#PWR01" H 12300 9600 50  0001 C CNN
F 1 "+3.3V" H 12315 9923 50  0000 C CNN
F 2 "" H 12300 9750 50  0001 C CNN
F 3 "" H 12300 9750 50  0001 C CNN
	1    12300 9750
	1    0    0    -1  
$EndComp
Wire Wire Line
	12300 9750 12300 9950
Connection ~ 12300 9950
Wire Wire Line
	8150 8000 8150 8300
$Comp
L Wordclock:ATWINC1500-MR210PB A1
U 1 1 6198C344
P 14850 8200
F 0 "A1" H 14850 9467 50  0000 C CNN
F 1 "ATWINC1500-MR210PB1961" H 14850 9376 50  0000 C CNN
F 2 "Wordclock_V1:XCVR_ATWINC1500-MR210PB" H 14300 9350 50  0001 L BNN
F 3 "" H 14850 8200 50  0001 L BNN
	1    14850 8200
	1    0    0    -1  
$EndComp
$Comp
L Wordclock:C C119
U 1 1 6203CE11
P 16350 7650
F 0 "C119" H 16465 7696 50  0000 L CNN
F 1 "22u/25V" H 16465 7605 50  0000 L CNN
F 2 "Wordclock_V1:C_1210_3225Metric" H 16388 7500 50  0001 C CNN
F 3 "~" H 16350 7650 50  0001 C CNN
	1    16350 7650
	1    0    0    -1  
$EndComp
Wire Wire Line
	15650 7200 15850 7200
$Comp
L Wordclock:+3.3V #PWR03
U 1 1 6205F84F
P 16350 6950
F 0 "#PWR03" H 16350 6800 50  0001 C CNN
F 1 "+3.3V" H 16365 7123 50  0000 C CNN
F 2 "" H 16350 6950 50  0001 C CNN
F 3 "" H 16350 6950 50  0001 C CNN
	1    16350 6950
	-1   0    0    -1  
$EndComp
Wire Wire Line
	16350 6950 16350 7200
Connection ~ 16350 7200
$Comp
L Wordclock:C C126
U 1 1 62071678
P 15950 8400
F 0 "C126" H 16065 8446 50  0000 L CNN
F 1 "10u" H 16065 8355 50  0000 L CNN
F 2 "Wordclock_V1:C_0805_2012Metric" H 15988 8250 50  0001 C CNN
F 3 "~" H 15950 8400 50  0001 C CNN
	1    15950 8400
	1    0    0    -1  
$EndComp
Wire Wire Line
	15650 7900 15700 7900
Wire Wire Line
	15950 7900 15950 8250
$Comp
L Wordclock:GND #PWR040
U 1 1 62083CE7
P 15950 9200
F 0 "#PWR040" H 15950 8950 50  0001 C CNN
F 1 "GND" H 15955 9027 50  0000 C CNN
F 2 "" H 15950 9200 50  0001 C CNN
F 3 "" H 15950 9200 50  0001 C CNN
	1    15950 9200
	-1   0    0    -1  
$EndComp
$Comp
L Wordclock:GND #PWR013
U 1 1 62084179
P 16350 9200
F 0 "#PWR013" H 16350 8950 50  0001 C CNN
F 1 "GND" H 16355 9027 50  0000 C CNN
F 2 "" H 16350 9200 50  0001 C CNN
F 3 "" H 16350 9200 50  0001 C CNN
	1    16350 9200
	-1   0    0    -1  
$EndComp
Connection ~ 15950 8900
Wire Wire Line
	15950 8900 15950 8550
Wire Wire Line
	15650 8900 15700 8900
Wire Wire Line
	15650 9000 15950 9000
Connection ~ 15950 9000
Wire Wire Line
	15950 9000 15950 8900
Wire Wire Line
	15650 9100 15950 9100
Connection ~ 15950 9100
Wire Wire Line
	15950 9100 15950 9000
Wire Wire Line
	15650 9200 15950 9200
Connection ~ 15950 9200
Wire Wire Line
	15950 9200 15950 9100
Wire Wire Line
	16350 7800 16350 9200
$Comp
L Wordclock:C C127
U 1 1 62108427
P 15700 8400
F 0 "C127" H 15815 8446 50  0000 L CNN
F 1 "10n" H 15815 8355 50  0000 L CNN
F 2 "Wordclock_V1:C_0805_2012Metric" H 15738 8250 50  0001 C CNN
F 3 "~" H 15700 8400 50  0001 C CNN
	1    15700 8400
	-1   0    0    -1  
$EndComp
Wire Wire Line
	15700 8250 15700 7900
Connection ~ 15700 7900
Wire Wire Line
	15700 8550 15700 8900
Connection ~ 15700 8900
Wire Wire Line
	15700 8900 15950 8900
$Comp
L Wordclock:R R21
U 1 1 62134576
P 15850 7600
F 0 "R21" H 15918 7646 50  0000 L CNN
F 1 "1M" H 15918 7555 50  0000 L CNN
F 2 "Wordclock_V1:R_0805_2012Metric" H 15850 7600 50  0001 C CNN
F 3 "~" H 15850 7600 50  0001 C CNN
	1    15850 7600
	1    0    0    -1  
$EndComp
Text Label 13750 7700 0    50   ~ 0
CLK
Text Label 13750 7900 0    50   ~ 0
MOSI
Text Label 13750 7800 0    50   ~ 0
CS_E
Text Label 13750 8000 0    50   ~ 0
MISO
NoConn ~ 14050 8500
NoConn ~ 14050 8600
NoConn ~ 14050 8700
NoConn ~ 14050 8800
NoConn ~ 14050 8900
NoConn ~ 14050 9100
NoConn ~ 14050 9200
$Comp
L Wordclock:GND #PWR041
U 1 1 624AD2D6
P 7550 7000
F 0 "#PWR041" H 7550 6750 50  0001 C CNN
F 1 "GND" H 7555 6827 50  0000 C CNN
F 2 "" H 7550 7000 50  0001 C CNN
F 3 "" H 7550 7000 50  0001 C CNN
	1    7550 7000
	1    0    0    -1  
$EndComp
$Comp
L Wordclock:STM32G0B0RE IC1
U 1 1 62067F45
P 10450 8650
F 0 "IC1" H 10450 10765 50  0000 C CNN
F 1 "STM32G0B0RE" H 10450 10674 50  0000 C CNN
F 2 "Wordclock_V1:LQFP-64_10x10mm_P0.5mm" H 10450 8650 50  0001 C CNN
F 3 "" H 10450 8650 50  0001 C CNN
	1    10450 8650
	1    0    0    -1  
$EndComp
$Comp
L Wordclock:C C128
U 1 1 621499CF
P 11400 10200
F 0 "C128" H 11515 10246 50  0000 L CNN
F 1 "100n" H 11515 10155 50  0000 L CNN
F 2 "Wordclock_V1:C_0805_2012Metric" H 11438 10050 50  0001 C CNN
F 3 "~" H 11400 10200 50  0001 C CNN
	1    11400 10200
	-1   0    0    -1  
$EndComp
$Comp
L Wordclock:C C129
U 1 1 621625C8
P 11800 10200
F 0 "C129" H 11915 10246 50  0000 L CNN
F 1 "1u" H 11915 10155 50  0000 L CNN
F 2 "Wordclock_V1:C_0805_2012Metric" H 11838 10050 50  0001 C CNN
F 3 "~" H 11800 10200 50  0001 C CNN
	1    11800 10200
	-1   0    0    -1  
$EndComp
Wire Wire Line
	11250 9950 12300 9950
Wire Wire Line
	11250 10450 11400 10450
Wire Wire Line
	11800 10350 11800 10450
Connection ~ 11800 10450
Wire Wire Line
	11800 10450 12300 10450
Wire Wire Line
	11400 10350 11400 10450
Connection ~ 11400 10450
Wire Wire Line
	11400 10450 11800 10450
Wire Wire Line
	11250 10050 11400 10050
Wire Wire Line
	11400 10050 11800 10050
Connection ~ 11400 10050
Wire Wire Line
	12950 9850 12950 10200
$Comp
L Wordclock:C C130
U 1 1 6228F01A
P 12700 10200
F 0 "C130" H 12815 10246 50  0000 L CNN
F 1 "4u7" H 12815 10155 50  0000 L CNN
F 2 "Wordclock_V1:C_0805_2012Metric" H 12738 10050 50  0001 C CNN
F 3 "~" H 12700 10200 50  0001 C CNN
	1    12700 10200
	-1   0    0    -1  
$EndComp
Wire Wire Line
	11250 9850 12950 9850
Wire Wire Line
	12300 9950 12700 9950
Wire Wire Line
	12700 9950 12700 10050
Wire Wire Line
	12300 10450 12700 10450
Wire Wire Line
	12700 10450 12700 10350
$Comp
L Wordclock:M24M01 IC3
U 1 1 623D7371
P 4700 10400
F 0 "IC3" H 4700 10865 50  0000 C CNN
F 1 "M24M01-RMN" H 4700 10774 50  0000 C CNN
F 2 "Wordclock_V1:SO-8_3.9x4.9mm_P1.27mm" H 4700 10800 50  0001 C CNN
F 3 "" H 4700 10800 50  0001 C CNN
	1    4700 10400
	1    0    0    -1  
$EndComp
Wire Wire Line
	4250 10350 4100 10350
Wire Wire Line
	4100 10350 4100 10450
Connection ~ 4100 10650
Wire Wire Line
	4100 10650 4250 10650
Wire Wire Line
	4250 10450 4100 10450
Connection ~ 4100 10450
Wire Wire Line
	4100 10450 4100 10550
Wire Wire Line
	4250 10550 4100 10550
Connection ~ 4100 10550
Wire Wire Line
	4100 10550 4100 10650
Wire Wire Line
	5200 10200 5150 10200
Wire Wire Line
	5400 10350 5150 10350
NoConn ~ 7250 10500
Wire Wire Line
	9650 8200 8900 8200
Wire Wire Line
	8900 8200 8900 8000
Wire Wire Line
	8150 8000 8900 8000
Wire Wire Line
	8700 10050 9650 10050
Wire Wire Line
	9650 10150 9400 10150
Wire Wire Line
	9400 10150 9400 10250
Wire Wire Line
	8700 10250 9400 10250
Wire Wire Line
	9650 10450 9500 10450
Wire Wire Line
	9500 10450 9500 10350
Wire Wire Line
	8700 9950 9500 9950
Wire Wire Line
	15950 7900 15700 7900
Wire Wire Line
	15650 8100 15850 8100
Wire Wire Line
	15850 8100 15850 7800
Wire Wire Line
	15850 7400 15850 7300
Connection ~ 15850 7200
Wire Wire Line
	15850 7200 16350 7200
Wire Wire Line
	16350 7200 16350 7500
Wire Wire Line
	15650 7300 15850 7300
Connection ~ 15850 7300
Wire Wire Line
	15850 7300 15850 7200
Text Label 11350 8450 0    50   ~ 0
CLK
Text Label 11300 7400 0    50   ~ 0
CS_E
Text Label 11350 8650 0    50   ~ 0
MOSI
Text Label 13750 7200 0    50   ~ 0
RESET_N
Text Label 13750 7300 0    50   ~ 0
WAKE
Text Label 11350 8850 0    50   ~ 0
WAKE
Text Label 13750 7400 0    50   ~ 0
CHIP_EN
Text Label 11300 7100 0    50   ~ 0
CHIP_EN
Text Label 13750 7600 0    50   ~ 0
IRQN
Text Label 11350 8550 0    50   ~ 0
MISO
Text Label 11350 8750 0    50   ~ 0
IRQN
Wire Wire Line
	8200 9400 9150 9400
Wire Wire Line
	9150 9400 9150 8850
Wire Wire Line
	6750 8000 7450 8000
Connection ~ 6750 8000
Wire Wire Line
	6750 8200 6750 8000
Wire Wire Line
	6800 8200 6750 8200
Connection ~ 7300 8200
Wire Wire Line
	7200 8200 7300 8200
Wire Wire Line
	6550 8000 6750 8000
Connection ~ 6550 8000
Wire Wire Line
	6400 8000 6550 8000
Connection ~ 5900 8000
Wire Wire Line
	6000 8000 5900 8000
$Comp
L Wordclock:R R19
U 1 1 5FF47000
P 6200 8000
F 0 "R19" H 6268 8046 50  0000 L CNN
F 1 "47" H 6268 7955 50  0000 L CNN
F 2 "Wordclock_V1:R_0805_2012Metric" H 6200 8000 50  0001 C CNN
F 3 "~" H 6200 8000 50  0001 C CNN
	1    6200 8000
	0    1    1    0   
$EndComp
Wire Wire Line
	7450 8200 7300 8200
Wire Wire Line
	4550 7900 4550 8000
Wire Wire Line
	4550 7550 4550 7600
$Comp
L Wordclock:+5V #PWR0347
U 1 1 5FCF0CB5
P 4550 7550
F 0 "#PWR0347" H 4550 7400 50  0001 C CNN
F 1 "+5V" H 4565 7723 50  0000 C CNN
F 2 "" H 4550 7550 50  0001 C CNN
F 3 "" H 4550 7550 50  0001 C CNN
	1    4550 7550
	1    0    0    -1  
$EndComp
$Comp
L Wordclock:BAS16GWX D117
U 1 1 5FC38E3B
P 4550 7750
F 0 "D117" H 4550 7534 50  0000 C CNN
F 1 "BAS16GWX" H 4550 7625 50  0000 C CNN
F 2 "Wordclock_V1:D_SOD-123" H 4550 7750 50  0001 C CNN
F 3 "~" H 4550 7750 50  0001 C CNN
	1    4550 7750
	0    -1   -1   0   
$EndComp
$Comp
L Wordclock:C C137
U 1 1 5FC38E2D
P 4550 8350
F 0 "C137" H 4665 8396 50  0000 L CNN
F 1 "1u" H 4665 8305 50  0000 L CNN
F 2 "Wordclock_V1:C_0805_2012Metric" H 4588 8200 50  0001 C CNN
F 3 "~" H 4550 8350 50  0001 C CNN
	1    4550 8350
	1    0    0    -1  
$EndComp
$Comp
L Wordclock:C C140
U 1 1 5FC38E27
P 5900 8350
F 0 "C140" H 6015 8396 50  0000 L CNN
F 1 "1u" H 6015 8305 50  0000 L CNN
F 2 "Wordclock_V1:C_0805_2012Metric" H 5938 8200 50  0001 C CNN
F 3 "~" H 5900 8350 50  0001 C CNN
	1    5900 8350
	1    0    0    -1  
$EndComp
Connection ~ 4550 8000
Wire Wire Line
	4550 8000 4550 8200
Wire Wire Line
	4850 8000 4550 8000
Wire Wire Line
	4550 8500 4550 8600
Wire Wire Line
	5750 8000 5900 8000
Wire Wire Line
	5900 8000 5900 8200
Wire Wire Line
	5900 8500 5900 8600
Wire Wire Line
	4850 8200 4850 8600
$Comp
L Wordclock:GND #PWR0346
U 1 1 5FC38E19
P 5900 8600
F 0 "#PWR0346" H 5900 8350 50  0001 C CNN
F 1 "GND" H 5905 8427 50  0000 C CNN
F 2 "" H 5900 8600 50  0001 C CNN
F 3 "" H 5900 8600 50  0001 C CNN
	1    5900 8600
	1    0    0    -1  
$EndComp
$Comp
L Wordclock:GND #PWR0344
U 1 1 5FC38E13
P 4550 8600
F 0 "#PWR0344" H 4550 8350 50  0001 C CNN
F 1 "GND" H 4555 8427 50  0000 C CNN
F 2 "" H 4550 8600 50  0001 C CNN
F 3 "" H 4550 8600 50  0001 C CNN
	1    4550 8600
	1    0    0    -1  
$EndComp
$Comp
L Wordclock:GND #PWR0343
U 1 1 5FC38E0D
P 4850 8600
F 0 "#PWR0343" H 4850 8350 50  0001 C CNN
F 1 "GND" H 4855 8427 50  0000 C CNN
F 2 "" H 4850 8600 50  0001 C CNN
F 3 "" H 4850 8600 50  0001 C CNN
	1    4850 8600
	1    0    0    -1  
$EndComp
Wire Wire Line
	6550 8000 6550 8200
Wire Wire Line
	6550 8500 6550 8600
Wire Wire Line
	7300 8300 7300 8600
Wire Wire Line
	7450 8300 7300 8300
$Comp
L Wordclock:GND #PWR0394
U 1 1 5F2FE993
P 6550 8600
F 0 "#PWR0394" H 6550 8350 50  0001 C CNN
F 1 "GND" H 6555 8427 50  0000 C CNN
F 2 "" H 6550 8600 50  0001 C CNN
F 3 "" H 6550 8600 50  0001 C CNN
	1    6550 8600
	1    0    0    -1  
$EndComp
$Comp
L Wordclock:DCF77_POLLIN J8
U 1 1 5F2FE9A3
P 7650 8100
F 0 "J8" H 7350 8450 50  0000 L CNN
F 1 "DCF77 (ELV)" H 7300 8350 50  0000 L CNN
F 2 "Wordclock_V1:DCF77_ELV" H 7650 8100 50  0001 C CNN
F 3 "~" H 7650 8100 50  0001 C CNN
	1    7650 8100
	1    0    0    -1  
$EndComp
$Comp
L Wordclock:GND #PWR0390
U 1 1 5F2FE9A4
P 7300 8600
F 0 "#PWR0390" H 7300 8350 50  0001 C CNN
F 1 "GND" H 7305 8427 50  0000 C CNN
F 2 "" H 7300 8600 50  0001 C CNN
F 3 "" H 7300 8600 50  0001 C CNN
	1    7300 8600
	1    0    0    -1  
$EndComp
$Comp
L Wordclock:R R12
U 1 1 600F7F15
P 7000 8200
F 0 "R12" V 6900 8150 50  0000 L CNN
F 1 "10k" V 6800 8150 50  0000 L CNN
F 2 "Wordclock_V1:R_0805_2012Metric" H 7000 8200 50  0001 C CNN
F 3 "~" H 7000 8200 50  0001 C CNN
	1    7000 8200
	0    -1   -1   0   
$EndComp
Text Label 9600 7600 2    50   ~ 0
TCO
Wire Wire Line
	9650 7600 7300 7600
Wire Wire Line
	7300 7600 7300 8200
$Comp
L Wordclock:R_PHOTO R11
U 1 1 5F2FE99A
P 7750 10400
F 0 "R11" H 7600 10550 50  0000 R CNN
F 1 "Adafruit 161" H 7600 10650 50  0000 R CNN
F 2 "Wordclock_V1:R_LDR_4.9x4.2mm_P2.54mm_Vertical" V 7800 10150 50  0001 L CNN
F 3 "~" H 7750 10350 50  0001 C CNN
	1    7750 10400
	1    0    0    1   
$EndComp
Wire Wire Line
	7000 10350 7350 10350
Wire Wire Line
	7000 10650 7500 10650
Text Label 7050 10350 0    50   ~ 0
SDA
Text Label 7050 10650 0    50   ~ 0
SCL
Wire Wire Line
	9650 9350 9350 9350
Text Label 9400 9350 0    50   ~ 0
SDA
Wire Wire Line
	9650 9450 9350 9450
Text Label 9400 9450 0    50   ~ 0
SCL
Wire Wire Line
	5200 9650 4850 9650
Wire Wire Line
	4850 9650 4850 9600
Connection ~ 5200 9650
Wire Wire Line
	5200 9650 5200 10200
Wire Wire Line
	5400 9800 4550 9800
Wire Wire Line
	4550 9800 4550 9600
Connection ~ 5400 9800
Wire Wire Line
	5400 9800 5400 10350
Wire Wire Line
	5400 9350 5400 9800
Wire Wire Line
	5200 9350 5200 9650
Wire Wire Line
	7500 9350 7500 10650
Wire Wire Line
	7350 9350 7350 10350
Entry Wire Line
	5500 9250 5400 9350
Entry Wire Line
	5300 9250 5200 9350
Entry Wire Line
	7600 9250 7500 9350
Entry Wire Line
	7450 9250 7350 9350
Wire Bus Line
	9250 9250 9250 9350
Entry Wire Line
	9250 9350 9350 9450
Entry Wire Line
	9250 9250 9350 9350
Entry Wire Line
	9250 8950 9350 9050
Entry Wire Line
	9250 9050 9350 9150
Entry Wire Line
	9250 9150 9350 9250
Wire Wire Line
	9350 9250 9650 9250
Wire Wire Line
	9650 9150 9350 9150
Wire Wire Line
	9350 9050 9650 9050
Text Label 9400 9050 0    50   ~ 0
MTO0
Text Label 9400 9150 0    50   ~ 0
MTO1
Text Label 9400 9250 0    50   ~ 0
MTO3
Wire Wire Line
	11700 5850 12100 5850
$Comp
L Wordclock:+5V #PWR0348
U 1 1 63291F0F
P 10650 4650
F 0 "#PWR0348" H 10650 4500 50  0001 C CNN
F 1 "+5V" H 10665 4823 50  0000 C CNN
F 2 "" H 10650 4650 50  0001 C CNN
F 3 "" H 10650 4650 50  0001 C CNN
	1    10650 4650
	-1   0    0    -1  
$EndComp
NoConn ~ 9650 6800
NoConn ~ 9650 6900
NoConn ~ 9650 7000
NoConn ~ 9650 7100
NoConn ~ 9650 7200
NoConn ~ 9650 7300
NoConn ~ 9650 7400
NoConn ~ 9650 7500
NoConn ~ 9650 7800
NoConn ~ 9650 7900
NoConn ~ 9650 8000
NoConn ~ 9650 8100
NoConn ~ 9650 8750
NoConn ~ 11250 8950
NoConn ~ 11250 6900
NoConn ~ 11250 7000
NoConn ~ 11250 7300
NoConn ~ 11250 7200
NoConn ~ 11250 7500
NoConn ~ 11250 7600
NoConn ~ 11250 7800
NoConn ~ 11250 7900
NoConn ~ 11250 8250
NoConn ~ 11250 8350
NoConn ~ 11250 9050
NoConn ~ 11250 9150
NoConn ~ 11250 9450
NoConn ~ 11250 9550
NoConn ~ 11250 9650
NoConn ~ 9650 9650
NoConn ~ 9650 9750
NoConn ~ 9650 9850
NoConn ~ 9650 9950
NoConn ~ 9650 10250
$Comp
L Wordclock:C C131
U 1 1 6397ABC7
P 9300 10500
F 0 "C131" H 9415 10546 50  0000 L CNN
F 1 "100n" H 9415 10455 50  0000 L CNN
F 2 "Wordclock_V1:C_0805_2012Metric" H 9338 10350 50  0001 C CNN
F 3 "~" H 9300 10500 50  0001 C CNN
	1    9300 10500
	-1   0    0    -1  
$EndComp
$Comp
L Wordclock:GND #PWR04
U 1 1 6397CF7F
P 9300 10750
F 0 "#PWR04" H 9300 10500 50  0001 C CNN
F 1 "GND" H 9305 10577 50  0000 C CNN
F 2 "" H 9300 10750 50  0001 C CNN
F 3 "" H 9300 10750 50  0001 C CNN
	1    9300 10750
	-1   0    0    -1  
$EndComp
Wire Wire Line
	9300 10650 9300 10750
Wire Wire Line
	9300 10350 9500 10350
Connection ~ 9500 10350
Wire Wire Line
	9500 10350 9500 9950
Wire Wire Line
	8700 8300 9650 8300
Wire Wire Line
	14050 8200 13800 8200
Wire Wire Line
	13800 8200 13800 8450
Wire Wire Line
	13900 8300 14050 8300
$Comp
L Wordclock:GND #PWR042
U 1 1 6221EA16
P 13600 9100
F 0 "#PWR042" H 13600 8850 50  0001 C CNN
F 1 "GND" H 13605 8927 50  0000 C CNN
F 2 "" H 13600 9100 50  0001 C CNN
F 3 "" H 13600 9100 50  0001 C CNN
	1    13600 9100
	-1   0    0    -1  
$EndComp
Wire Wire Line
	13400 8450 13800 8450
$Comp
L Wordclock:R R22
U 1 1 620B0D85
P 12650 8750
F 0 "R22" H 12718 8796 50  0000 L CNN
F 1 "1M" H 12718 8705 50  0000 L CNN
F 2 "Wordclock_V1:R_0805_2012Metric" H 12650 8750 50  0001 C CNN
F 3 "~" H 12650 8750 50  0001 C CNN
	1    12650 8750
	1    0    0    -1  
$EndComp
$Comp
L Wordclock:R R2
U 1 1 620B1873
P 12350 8750
F 0 "R2" H 12418 8796 50  0000 L CNN
F 1 "1M" H 12418 8705 50  0000 L CNN
F 2 "Wordclock_V1:R_0805_2012Metric" H 12350 8750 50  0001 C CNN
F 3 "~" H 12350 8750 50  0001 C CNN
	1    12350 8750
	1    0    0    -1  
$EndComp
$Comp
L Wordclock:GND #PWR044
U 1 1 620DE7B6
P 12650 9100
F 0 "#PWR044" H 12650 8850 50  0001 C CNN
F 1 "GND" H 12655 8927 50  0000 C CNN
F 2 "" H 12650 9100 50  0001 C CNN
F 3 "" H 12650 9100 50  0001 C CNN
	1    12650 9100
	-1   0    0    -1  
$EndComp
$Comp
L Wordclock:GND #PWR043
U 1 1 620DED85
P 12350 9100
F 0 "#PWR043" H 12350 8850 50  0001 C CNN
F 1 "GND" H 12355 8927 50  0000 C CNN
F 2 "" H 12350 9100 50  0001 C CNN
F 3 "" H 12350 9100 50  0001 C CNN
	1    12350 9100
	-1   0    0    -1  
$EndComp
Wire Wire Line
	12350 9100 12350 8950
Wire Wire Line
	12650 8950 12650 9100
Wire Wire Line
	12350 8550 12350 7200
Connection ~ 12350 7200
Wire Wire Line
	12350 7200 14050 7200
Wire Wire Line
	12650 8550 12650 7400
Connection ~ 12650 7400
Wire Wire Line
	12650 7400 14050 7400
Wire Wire Line
	12350 7200 12150 7200
Wire Wire Line
	11950 8750 11250 8750
Wire Wire Line
	12150 7600 14050 7600
Wire Wire Line
	12150 7300 14050 7300
Wire Wire Line
	12150 7400 12650 7400
Wire Wire Line
	12150 7700 14050 7700
Wire Wire Line
	12150 7800 14050 7800
Wire Wire Line
	12150 7900 14050 7900
Wire Wire Line
	12150 8000 14050 8000
Wire Wire Line
	11250 7100 11950 7100
Wire Wire Line
	11250 8450 11950 8450
Wire Wire Line
	11250 8550 11950 8550
Wire Wire Line
	11250 8650 11950 8650
Wire Wire Line
	11250 7400 11950 7400
Wire Wire Line
	11250 8850 11950 8850
Entry Wire Line
	12050 7100 12150 7200
Entry Wire Line
	12050 8650 11950 8750
Entry Wire Line
	12050 7500 12150 7600
Entry Wire Line
	12050 7200 12150 7300
Entry Wire Line
	12050 7300 12150 7400
Entry Wire Line
	12050 7600 12150 7700
Entry Wire Line
	12050 7700 12150 7800
Entry Wire Line
	12050 7800 12150 7900
Entry Wire Line
	12050 7900 12150 8000
Entry Wire Line
	12050 7900 12150 8000
Entry Wire Line
	12050 6700 11950 6800
Entry Wire Line
	12050 7000 11950 7100
Entry Wire Line
	12050 8350 11950 8450
Entry Wire Line
	12050 8450 11950 8550
Entry Wire Line
	12050 8550 11950 8650
Entry Wire Line
	12050 7300 11950 7400
Entry Wire Line
	12050 8750 11950 8850
Text Label 11300 6800 0    50   ~ 0
RESET_N
$Comp
L Wordclock:GND #PWR0349
U 1 1 621D2337
P 14950 10200
F 0 "#PWR0349" H 14950 9950 50  0001 C CNN
F 1 "GND" H 14955 10027 50  0000 C CNN
F 2 "" H 14950 10200 50  0001 C CNN
F 3 "" H 14950 10200 50  0001 C CNN
	1    14950 10200
	-1   0    0    -1  
$EndComp
Wire Wire Line
	11250 9250 11700 9250
Wire Wire Line
	11700 9250 11700 5850
Wire Wire Line
	11250 9350 14000 9350
Wire Wire Line
	14000 9350 14000 9850
Wire Wire Line
	14000 9850 14350 9850
NoConn ~ 9650 7700
Wire Wire Line
	11250 6800 11950 6800
Wire Wire Line
	14950 9850 14950 10200
$Comp
L Wordclock:SW_DIP_x01 SW1
U 1 1 621665EC
P 14650 9850
F 0 "SW1" H 14650 10117 50  0000 C CNN
F 1 "TL3305A" H 14650 10026 50  0000 C CNN
F 2 "Wordclock_V1:SW_SPST_TL3305A" H 14650 9850 50  0001 C CNN
F 3 "~" H 14650 9850 50  0001 C CNN
	1    14650 9850
	1    0    0    -1  
$EndComp
Wire Wire Line
	13400 8550 13600 8550
Wire Wire Line
	13600 8550 13600 9100
Wire Wire Line
	13400 8650 13900 8650
Wire Wire Line
	13900 8300 13900 8650
$Comp
L Wordclock:C C138
U 1 1 62469A23
P 6550 8350
F 0 "C138" H 6665 8396 50  0000 L CNN
F 1 "22u" H 6665 8305 50  0000 L CNN
F 2 "Wordclock_V1:C_1210_3225Metric" H 6588 8200 50  0001 C CNN
F 3 "~" H 6550 8350 50  0001 C CNN
	1    6550 8350
	1    0    0    -1  
$EndComp
Wire Wire Line
	5350 6350 5350 6450
Wire Wire Line
	5350 5950 5350 6050
NoConn ~ 6900 5350
$Comp
L Wordclock:GND #PWR0350
U 1 1 62243A71
P 6300 6450
F 0 "#PWR0350" H 6300 6200 50  0001 C CNN
F 1 "GND" H 6305 6277 50  0000 C CNN
F 2 "" H 6300 6450 50  0001 C CNN
F 3 "" H 6300 6450 50  0001 C CNN
	1    6300 6450
	1    0    0    -1  
$EndComp
Wire Wire Line
	6300 6450 6300 6250
$Comp
L Wordclock:+3.3V #PWR0351
U 1 1 622F8E5D
P 6300 4900
F 0 "#PWR0351" H 6300 4750 50  0001 C CNN
F 1 "+3.3V" H 6315 5073 50  0000 C CNN
F 2 "" H 6300 4900 50  0001 C CNN
F 3 "" H 6300 4900 50  0001 C CNN
	1    6300 4900
	1    0    0    -1  
$EndComp
Wire Wire Line
	6300 4900 6300 4950
Wire Wire Line
	6300 4950 6150 4950
Wire Wire Line
	6150 4950 6150 5050
Connection ~ 6300 4950
Wire Wire Line
	6300 4950 6300 5050
Wire Wire Line
	7950 5750 7050 5750
Connection ~ 7050 5750
Wire Wire Line
	7050 5750 6900 5750
Wire Wire Line
	7050 5450 7050 5750
$Comp
L Wordclock:AT42QT1070-S U1
U 1 1 620CAEBF
P 6300 5650
F 0 "U1" H 6700 6400 50  0000 C CNN
F 1 "AT42QT1070-SSU" H 6650 6300 50  0000 C CNN
F 2 "Wordclock_V1:SOIC-14_3.9x8.7mm_P1.27mm" H 6300 5650 50  0001 C CNN
F 3 "http://ww1.microchip.com/downloads/en/DeviceDoc/Atmel-9596-AT42-QTouch-BSW-AT42QT1070_Datasheet.pdf" H 6300 5650 50  0001 C CNN
	1    6300 5650
	-1   0    0    -1  
$EndComp
Wire Wire Line
	5700 5550 4900 5550
Wire Wire Line
	5700 5650 4800 5650
NoConn ~ 5700 5450
NoConn ~ 5700 5950
NoConn ~ 6900 5450
Wire Wire Line
	7450 4950 7450 5050
Wire Wire Line
	7250 4950 7250 5050
Wire Wire Line
	7050 4950 7050 5050
Wire Bus Line
	8050 7300 9250 7300
Wire Wire Line
	7450 5550 7450 6750
Wire Wire Line
	7250 5650 7250 6650
Wire Wire Line
	7050 6550 7600 6550
Wire Wire Line
	7050 5750 7050 6550
Connection ~ 7550 6450
Wire Wire Line
	7550 6350 7550 6450
Wire Wire Line
	7600 6350 7550 6350
Wire Wire Line
	7550 6450 7550 7000
Wire Wire Line
	7600 6450 7550 6450
$Comp
L Wordclock:Conn_01x05 J1
U 1 1 6247D245
P 7800 6550
F 0 "J1" H 7718 6125 50  0000 C CNN
F 1 "1778793 + 1778861" H 7718 6216 50  0000 C CNN
F 2 "Wordclock_V1:TerminalBlock_Phoenix_PTSM-0,5-5-HH-2,5-SMD_R32" H 7800 6550 50  0001 C CNN
F 3 "" H 7800 6550 50  0001 C CNN
	1    7800 6550
	1    0    0    -1  
$EndComp
Wire Wire Line
	7600 6750 7450 6750
Wire Wire Line
	7600 6650 7250 6650
Wire Wire Line
	9150 8850 9650 8850
$Comp
L Wordclock:Conn_01x04 J9
U 1 1 623C37C4
P 13200 8550
F 0 "J9" H 13200 8900 50  0000 C CNN
F 1 "Conn_01x04" H 13300 8800 50  0000 C CNN
F 2 "Wordclock_V1:PinHeader_1x04_P2.54mm_Vertical" H 13200 8550 50  0001 C CNN
F 3 "" H 13200 8550 50  0001 C CNN
	1    13200 8550
	-1   0    0    -1  
$EndComp
$Comp
L Wordclock:+3.3V #PWR045
U 1 1 623E035D
P 13500 8250
F 0 "#PWR045" H 13500 8100 50  0001 C CNN
F 1 "+3.3V" H 13515 8423 50  0000 C CNN
F 2 "" H 13500 8250 50  0001 C CNN
F 3 "" H 13500 8250 50  0001 C CNN
	1    13500 8250
	-1   0    0    -1  
$EndComp
Wire Wire Line
	13500 8250 13500 8750
Wire Wire Line
	13500 8750 13400 8750
Wire Wire Line
	9650 8950 9350 8950
Wire Wire Line
	9350 8950 9350 6950
Wire Wire Line
	9350 6950 9250 6950
Connection ~ 9250 6950
NoConn ~ 11250 8150
Text Label 7050 10500 0    50   ~ 0
PAD
Wire Wire Line
	7000 10500 7250 10500
$Comp
L Wordclock:Conn_01x01 J10
U 1 1 62170870
P 9250 9550
F 0 "J10" H 9350 9650 50  0000 C CNN
F 1 "TP_CLK" H 9150 9650 50  0000 C CNN
F 2 "Wordclock_V1:pin" H 9250 9550 50  0001 C CNN
F 3 "~" H 9250 9550 50  0001 C CNN
	1    9250 9550
	-1   0    0    1   
$EndComp
Wire Wire Line
	9650 9550 9450 9550
Wire Wire Line
	4300 5750 4150 5750
Wire Wire Line
	4700 5750 5700 5750
Wire Wire Line
	4300 5500 4150 5500
Wire Wire Line
	4700 5500 4800 5500
Wire Wire Line
	4800 5500 4800 5650
Wire Wire Line
	4150 5250 4300 5250
Wire Wire Line
	4700 5250 4900 5250
Wire Wire Line
	4900 5250 4900 5550
Wire Wire Line
	4150 5000 5050 5000
Wire Wire Line
	5050 5000 5050 5350
Text Label 4250 5750 0    50   ~ 0
T1
Wire Wire Line
	5050 5350 5700 5350
Wire Bus Line
	8050 5450 8050 7300
Wire Bus Line
	9250 7300 9250 9150
Wire Bus Line
	5300 9250 9250 9250
Wire Bus Line
	12050 6700 12050 8750
$Comp
L Wordclock:AP7365-33YRG-13 IC9
U 1 1 621C33F6
P 5300 8100
F 0 "IC9" H 5300 8425 50  0000 C CNN
F 1 "AP7365-33YRG-13" H 5300 8334 50  0000 C CNN
F 2 "Wordclock_V1:SOT-89-3" H 4900 8250 50  0001 C CNN
F 3 "" H 5200 8150 50  0001 C CNN
	1    5300 8100
	1    0    0    -1  
$EndComp
$Comp
L Wordclock:AP7365-33YRG-13 IC2
U 1 1 621C9AA4
P 9050 5100
F 0 "IC2" H 9050 5333 50  0000 C CNN
F 1 "AP7365-33YRG-13" H 9050 5334 50  0001 C CNN
F 2 "Wordclock_V1:SOT-89-3" H 8650 5250 50  0001 C CNN
F 3 "" H 8950 5150 50  0001 C CNN
	1    9050 5100
	-1   0    0    -1  
$EndComp
$EndSCHEMATC
